0000.000 (0) Opened log file at time: Thu, 16 Nov 2017 09:03:33 +0000 on http://ganatuspremios.es
0000.002 (0) UpdraftPlus WordPress backup plugin (https://updraftplus.com): 1.12.40 WP: 4.7.7 PHP: 5.5.9-1ubuntu4.22 (apache2handler, Linux wp-verticales 4.9.50-x86_64-linode86 #1 SMP Thu Sep 14 19:28:20 UTC 2017 x86_64) MySQL: 5.5.57 WPLANG: es_ES Server: Apache safe_mode: 0 max_execution_time: 900 memory_limit: 256M (used: 44.5M | 46.5M) multisite: N openssl: OpenSSL 1.0.1f 6 Jan 2014 mcrypt: Y LANG: C ZipArchive::addFile: Y
0000.003 (0) Free space on disk containing Updraft's temporary directory: 6119.4 MB
0000.005 (0) Tasks: Backup files:  (schedule: manual) Backup DB: 1 (schedule: manual)
0000.008 (0) Processed schedules. Tasks now: Backup files:  Backup DB: 1
0000.011 (0) Requesting semaphore lock (d) (apparently via scheduler: last_scheduled_action_called_at=1510218303, seconds_ago=604710)
0000.015 (0) Set semaphore last lock (d) time to 2017-11-16 09:03:33
0000.016 (0) Semaphore lock (d) complete
0000.022 (0) Backup run: resumption=0, nonce=229af0bafe61, begun at=1510823013 (0s ago), job type=backup
0000.024 (0) Scheduling a resumption (1) after 300 seconds (1510823313) in case this run gets aborted
0000.028 (0) This backup run is not intended for files - skipping
0000.030 (0) Beginning creation of database dump (WordPress DB)
0000.035 (0) Testing: /usr/bin/mysqldump
0000.063 (0) Output: /*!40103 SET @OLD_TIME_ZONE=@@TIME_ZONE */;\n/*!40103 SET TIME_ZONE='+00:00' */;\n/*!40014 SET @OLD_UNIQUE_CHECKS=@@UNIQUE_CHECKS, UNIQUE_CHECKS=0 */;\n/*!40014 SET @OLD_FOREIGN_KEY_CHECKS=@@FOREIGN_KEY_CHECKS, FOREIGN_KEY_CHECKS=0 */;\n/*!40101 SET @OLD_SQL_MODE=@@SQL_MODE, SQL_MODE='NO_AUTO_VALUE_ON_ZERO' */;\n/*!40111 SET @OLD_SQL_NOTES=@@SQL_NOTES, SQL_NOTES=0 */;\nDROP TABLE IF EXISTS `gtp_options`;\n/*!40101 SET @saved_cs_client     = @@character_set_client */;\n/*!40101 SET character_set_client = utf8 */;\nCR (truncated - 1193 bytes total)
0000.067 (0) Working binary mysqldump found: /usr/bin/mysqldump
0000.085 (0) Table gtp_options: Total expected rows (approximate): 296
0000.137 (0) Table gtp_options: Total rows added: 439 in 0.05 seconds
0000.141 (0) Table gtp_options: finishing file (backup_2017-11-16-1003_ganatuspremios_229af0bafe61-db-table-gtp_options.table.gz - 170.9 KB)
0000.147 (0) Table gtp_users: Total expected rows (approximate): 4
0000.160 (0) Table gtp_users: Total rows added: 4 in 0.00 seconds
0000.162 (0) Table gtp_users: finishing file (backup_2017-11-16-1003_ganatuspremios_229af0bafe61-db-table-gtp_users.table.gz - 0.8 KB)
0000.170 (0) Table gtp_usermeta: Total expected rows (approximate): 75
0000.178 (0) Table gtp_usermeta: Total rows added: 75 in 0.00 seconds
0000.181 (0) Table gtp_usermeta: finishing file (backup_2017-11-16-1003_ganatuspremios_229af0bafe61-db-table-gtp_usermeta.table.gz - 2.7 KB)
0000.189 (0) Table gtp_commentmeta: Total expected rows (approximate): 0
0000.194 (0) Table gtp_commentmeta: Total rows added: 0 in 0.00 seconds
0000.197 (0) Table gtp_commentmeta: finishing file (backup_2017-11-16-1003_ganatuspremios_229af0bafe61-db-table-gtp_commentmeta.table.gz - 0.4 KB)
0000.204 (0) Table gtp_comments: Total expected rows (approximate): 0
0000.207 (0) Table gtp_comments: Total rows added: 0 in 0.00 seconds
0000.209 (0) Table gtp_comments: finishing file (backup_2017-11-16-1003_ganatuspremios_229af0bafe61-db-table-gtp_comments.table.gz - 0.5 KB)
0000.217 (0) Table gtp_links: Total expected rows (approximate): 0
0000.221 (0) Table gtp_links: Total rows added: 0 in 0.00 seconds
0000.224 (0) Table gtp_links: finishing file (backup_2017-11-16-1003_ganatuspremios_229af0bafe61-db-table-gtp_links.table.gz - 0.4 KB)
0000.232 (0) Table gtp_postmeta: Total expected rows (approximate): 677
0000.255 (0) Table gtp_postmeta: Total rows added: 886 in 0.02 seconds
0000.258 (0) Table gtp_postmeta: finishing file (backup_2017-11-16-1003_ganatuspremios_229af0bafe61-db-table-gtp_postmeta.table.gz - 17.1 KB)
0000.267 (0) Table gtp_posts: Total expected rows (approximate): 344
0000.325 (0) Table gtp_posts: Total rows added: 380 in 0.05 seconds
0000.327 (0) Table gtp_posts: finishing file (backup_2017-11-16-1003_ganatuspremios_229af0bafe61-db-table-gtp_posts.table.gz - 45.1 KB)
0000.333 (0) Table gtp_term_relationships: Total expected rows (approximate): 98
0000.336 (0) Table gtp_term_relationships: Total rows added: 98 in 0.00 seconds
0000.338 (0) Table gtp_term_relationships: finishing file (backup_2017-11-16-1003_ganatuspremios_229af0bafe61-db-table-gtp_term_relationships.table.gz - 0.7 KB)
0000.344 (0) Table gtp_term_taxonomy: Total expected rows (approximate): 35
0000.348 (0) Table gtp_term_taxonomy: Total rows added: 35 in 0.00 seconds
0000.349 (0) Table gtp_term_taxonomy: finishing file (backup_2017-11-16-1003_ganatuspremios_229af0bafe61-db-table-gtp_term_taxonomy.table.gz - 0.7 KB)
0000.355 (0) Table gtp_termmeta: Total expected rows (approximate): 0
0000.358 (0) Table gtp_termmeta: Total rows added: 0 in 0.00 seconds
0000.360 (0) Table gtp_termmeta: finishing file (backup_2017-11-16-1003_ganatuspremios_229af0bafe61-db-table-gtp_termmeta.table.gz - 0.4 KB)
0000.365 (0) Table gtp_terms: Total expected rows (approximate): 35
0000.372 (0) Table gtp_terms: Total rows added: 35 in 0.00 seconds
0000.374 (0) Table gtp_terms: finishing file (backup_2017-11-16-1003_ganatuspremios_229af0bafe61-db-table-gtp_terms.table.gz - 0.8 KB)
0000.380 (0) Table gtp_aiowps_events: Total expected rows (approximate): 0
0000.384 (0) Table gtp_aiowps_events: Total rows added: 0 in 0.00 seconds
0000.386 (0) Table gtp_aiowps_events: finishing file (backup_2017-11-16-1003_ganatuspremios_229af0bafe61-db-table-gtp_aiowps_events.table.gz - 0.4 KB)
0000.391 (0) Table gtp_aiowps_failed_logins: Total expected rows (approximate): 4946
0000.495 (0) Table gtp_aiowps_failed_logins: Total rows added: 4823 in 0.10 seconds
0000.498 (0) Table gtp_aiowps_failed_logins: finishing file (backup_2017-11-16-1003_ganatuspremios_229af0bafe61-db-table-gtp_aiowps_failed_logins.table.gz - 62.1 KB)
0000.503 (0) Table gtp_aiowps_global_meta: Total expected rows (approximate): 0
0000.508 (0) Table gtp_aiowps_global_meta: Total rows added: 0 in 0.00 seconds
0000.511 (0) Table gtp_aiowps_global_meta: finishing file (backup_2017-11-16-1003_ganatuspremios_229af0bafe61-db-table-gtp_aiowps_global_meta.table.gz - 0.4 KB)
0000.516 (0) Table gtp_aiowps_login_activity: Total expected rows (approximate): 13
0000.521 (0) Table gtp_aiowps_login_activity: Total rows added: 13 in 0.00 seconds
0000.524 (0) Table gtp_aiowps_login_activity: finishing file (backup_2017-11-16-1003_ganatuspremios_229af0bafe61-db-table-gtp_aiowps_login_activity.table.gz - 0.7 KB)
0000.530 (0) Table gtp_aiowps_login_lockdown: Total expected rows (approximate): 40
0000.535 (0) Table gtp_aiowps_login_lockdown: Total rows added: 40 in 0.00 seconds
0000.537 (0) Table gtp_aiowps_login_lockdown: finishing file (backup_2017-11-16-1003_ganatuspremios_229af0bafe61-db-table-gtp_aiowps_login_lockdown.table.gz - 1.3 KB)
0000.546 (0) Table gtp_aiowps_permanent_block: Total expected rows (approximate): 0
0000.549 (0) Table gtp_aiowps_permanent_block: Total rows added: 0 in 0.00 seconds
0000.551 (0) Table gtp_aiowps_permanent_block: finishing file (backup_2017-11-16-1003_ganatuspremios_229af0bafe61-db-table-gtp_aiowps_permanent_block.table.gz - 0.4 KB)
0000.560 (0) Table gtp_duplicator_packages: Total expected rows (approximate): 0
0000.573 (0) Table gtp_duplicator_packages: Total rows added: 0 in 0.00 seconds
0000.576 (0) Table gtp_duplicator_packages: finishing file (backup_2017-11-16-1003_ganatuspremios_229af0bafe61-db-table-gtp_duplicator_packages.table.gz - 0.4 KB)
0000.581 (0) backup_2017-11-16-1003_ganatuspremios_229af0bafe61-db-table-gtp_options.table.gz (1/19): adding to final database dump
0000.625 (0) backup_2017-11-16-1003_ganatuspremios_229af0bafe61-db-table-gtp_users.table.gz (2/19): adding to final database dump
0000.629 (0) backup_2017-11-16-1003_ganatuspremios_229af0bafe61-db-table-gtp_usermeta.table.gz (3/19): adding to final database dump
0000.632 (0) backup_2017-11-16-1003_ganatuspremios_229af0bafe61-db-table-gtp_commentmeta.table.gz (4/19): adding to final database dump
0000.635 (0) backup_2017-11-16-1003_ganatuspremios_229af0bafe61-db-table-gtp_comments.table.gz (5/19): adding to final database dump
0000.637 (0) backup_2017-11-16-1003_ganatuspremios_229af0bafe61-db-table-gtp_links.table.gz (6/19): adding to final database dump
0000.639 (0) backup_2017-11-16-1003_ganatuspremios_229af0bafe61-db-table-gtp_postmeta.table.gz (7/19): adding to final database dump
0000.648 (0) backup_2017-11-16-1003_ganatuspremios_229af0bafe61-db-table-gtp_posts.table.gz (8/19): adding to final database dump
0000.668 (0) backup_2017-11-16-1003_ganatuspremios_229af0bafe61-db-table-gtp_term_relationships.table.gz (9/19): adding to final database dump
0000.672 (0) backup_2017-11-16-1003_ganatuspremios_229af0bafe61-db-table-gtp_term_taxonomy.table.gz (10/19): adding to final database dump
0000.675 (0) backup_2017-11-16-1003_ganatuspremios_229af0bafe61-db-table-gtp_termmeta.table.gz (11/19): adding to final database dump
0000.676 (0) backup_2017-11-16-1003_ganatuspremios_229af0bafe61-db-table-gtp_terms.table.gz (12/19): adding to final database dump
0000.678 (0) backup_2017-11-16-1003_ganatuspremios_229af0bafe61-db-table-gtp_aiowps_events.table.gz (13/19): adding to final database dump
0000.679 (0) backup_2017-11-16-1003_ganatuspremios_229af0bafe61-db-table-gtp_aiowps_failed_logins.table.gz (14/19): adding to final database dump
0000.715 (0) backup_2017-11-16-1003_ganatuspremios_229af0bafe61-db-table-gtp_aiowps_global_meta.table.gz (15/19): adding to final database dump
0000.717 (0) backup_2017-11-16-1003_ganatuspremios_229af0bafe61-db-table-gtp_aiowps_login_activity.table.gz (16/19): adding to final database dump
0000.719 (0) backup_2017-11-16-1003_ganatuspremios_229af0bafe61-db-table-gtp_aiowps_login_lockdown.table.gz (17/19): adding to final database dump
0000.722 (0) backup_2017-11-16-1003_ganatuspremios_229af0bafe61-db-table-gtp_aiowps_permanent_block.table.gz (18/19): adding to final database dump
0000.724 (0) backup_2017-11-16-1003_ganatuspremios_229af0bafe61-db-table-gtp_duplicator_packages.table.gz (19/19): adding to final database dump
0000.726 (0) backup_2017-11-16-1003_ganatuspremios_229af0bafe61-db.gz: finished writing out complete database file (272 KB)
0000.751 (0) Total database tables backed up: 19 (backup_2017-11-16-1003_ganatuspremios_229af0bafe61-db.gz, size: 309471, sha256)
0000.760 (0) backup_2017-11-16-1003_ganatuspremios_229af0bafe61-db.gz: db: This file has not yet been successfully uploaded: will queue
0000.761 (0) Saving backup history. Total backup size: 302.2 KB
0000.765 (0) Requesting upload of the files that have not yet been successfully uploaded (1)
0000.769 (0) Cloud backup selection (1/1): ftp (last)
0000.770 (0) Beginning dispatch of backup to remote (ftp)
0001.689 (0) FTP upload attempt: backup_2017-11-16-1003_ganatuspremios_229af0bafe61-db.gz -> ftp://ftp_wp_verticales@ftp.netsales.es//mnt/array1/BU_wp_verticales/backup_2017-11-16-1003_ganatuspremios_229af0bafe61-db.gz
0002.008 (0) FTP upload attempt successful (302.2KB in 0.32s)
0002.015 (0) Recording as successfully uploaded: backup_2017-11-16-1003_ganatuspremios_229af0bafe61-db.gz (05683c5bc468055181d3980a65536fc6)
0002.056 (0) Deleting local file: backup_2017-11-16-1003_ganatuspremios_229af0bafe61-db.gz: OK
0002.061 (0) Retain: beginning examination of existing backup sets; user setting: retain_files=2, retain_db=2
0002.064 (0) Number of backup sets in history: 5; groups (db): 1
0002.066 (0) Examining (for databases) backup set with group_id=0, nonce=229af0bafe61, datestamp=1510823013 (Nov 16 2017 09:03:33)
0002.067 (0) This backup set is the backup set just made, so will not be deleted.
0002.069 (0) Examining (for databases) backup set with group_id=0, nonce=d41016daaa6e, datestamp=1510822989 (Nov 16 2017 09:03:09)
0002.071 (0) Examining (for databases) backup set with group_id=0, nonce=b4abf275206e, datestamp=1510218303 (Nov 09 2017 09:05:03)
0002.073 (0) This backup set remains non-empty (f=0/d=1); will retain in history
0002.074 (0) Examining (for databases) backup set with group_id=0, nonce=81113b5b3f78, datestamp=1510218222 (Nov 09 2017 09:03:42)
0002.076 (0) Examining (for databases) backup set with group_id=0, nonce=89d0faf790b0, datestamp=1509613733 (Nov 02 2017 09:08:53)
0002.077 (0) 1509613733: db: this set includes a database (backup_2017-11-02-1008_ganatuspremios_89d0faf790b0-db.gz); db count is now 2
0002.079 (0) 1509613733: db: over retain limit (2); will delete this database
0002.081 (0) Delete file: backup_2017-11-02-1008_ganatuspremios_89d0faf790b0-db.gz, service=ftp
0002.118 (0) FTP delete: succeeded (/mnt/array1/BU_wp_verticales/backup_2017-11-02-1008_ganatuspremios_89d0faf790b0-db.gz)
0002.125 (0) This backup set is now empty; will remove from history
0002.127 (0) Deleting log file (log.89d0faf790b0.txt)
0002.129 (0) Number of backup sets in history: 4; groups (files): 1
0002.131 (0) Examining (for files) backup set with nonce=229af0bafe61, datestamp=1510823013 (Nov 16 2017 09:03:33)
0002.133 (0) This backup set remains non-empty (f=0/d=1); will retain in history
0002.134 (0) Examining (for files) backup set with nonce=d41016daaa6e, datestamp=1510822989 (Nov 16 2017 09:03:09)
0002.137 (0) This backup set remains non-empty (f=1/d=0); will retain in history
0002.139 (0) Examining (for files) backup set with nonce=b4abf275206e, datestamp=1510218303 (Nov 09 2017 09:05:03)
0002.141 (0) This backup set remains non-empty (f=0/d=1); will retain in history
0002.149 (0) Examining (for files) backup set with nonce=81113b5b3f78, datestamp=1510218222 (Nov 09 2017 09:03:42)
0002.152 (0) This backup set remains non-empty (f=1/d=0); will retain in history
0002.157 (0) Retain: saving new backup history (sets now: 4) and finishing retain operation
0002.200 (0) Resume backup (229af0bafe61, 0): finish run
0002.212 (0) Decremented the semaphore (d) by 1
0002.216 (0) Semaphore (d) unlocked
0002.218 (0) There were no errors in the uploads, so the 'resume' event (1) is being unscheduled
0002.225 (0) The backup apparently succeeded and is now complete
0002.227 (0) No email will/can be sent - the user has not configured an email address.
0002.230 (0) El respaldo parece haber tenido éxito y ahora está completado
