0000.001 (0) Opened log file at time: Thu, 16 Nov 2017 09:07:40 +0000 on http://eresmaxi.es
0000.005 (0) UpdraftPlus WordPress backup plugin (https://updraftplus.com): 1.12.40 WP: 4.6.8 PHP: 5.5.9-1ubuntu4.22 (apache2handler, Linux wp-verticales 4.9.50-x86_64-linode86 #1 SMP Thu Sep 14 19:28:20 UTC 2017 x86_64) MySQL: 5.5.57 WPLANG: es_ES Server: Apache safe_mode: 0 max_execution_time: 900 memory_limit: 256M (used: 46.5M | 48M) multisite: N openssl: OpenSSL 1.0.1f 6 Jan 2014 mcrypt: Y LANG: C ZipArchive::addFile: Y
0000.008 (0) Free space on disk containing Updraft's temporary directory: 6111.7 MB
0000.015 (0) Tasks: Backup files: 1 (schedule: manual) Backup DB:  (schedule: manual)
0000.018 (0) Processed schedules. Tasks now: Backup files: 1 Backup DB: 
0000.031 (0) Requesting semaphore lock (f) (apparently via scheduler: last_scheduled_action_called_at=1510218457, seconds_ago=604803)
0000.048 (0) Set semaphore last lock (f) time to 2017-11-16 09:07:40
0000.052 (0) Semaphore lock (f) complete
0000.067 (0) Backup run: resumption=0, nonce=14d75314e85d, begun at=1510823260 (0s ago), job type=backup
0000.074 (0) Scheduling a resumption (1) after 300 seconds (1510823560) in case this run gets aborted
0000.095 (0) Checking if we have a zip executable available
0000.102 (0) Creation of backups of directories: beginning
0000.112 (0) Beginning creation of dump of plugins (split every: 500 MB)
0000.434 (0) Total entities for the zip file: 796 directories, 5049 files (0 skipped as non-modified), 71.1 MB
0000.457 (0) Zip: backup_2017-11-16-1107_Eresmaxi_14d75314e85d-plugins.zip.tmp: 100 files added (on-disk size: 0 KB)
0000.466 (0) Zip: backup_2017-11-16-1107_Eresmaxi_14d75314e85d-plugins.zip.tmp: 200 files added (on-disk size: 0 KB)
0000.476 (0) Zip: backup_2017-11-16-1107_Eresmaxi_14d75314e85d-plugins.zip.tmp: 300 files added (on-disk size: 0 KB)
0000.486 (0) Zip: backup_2017-11-16-1107_Eresmaxi_14d75314e85d-plugins.zip.tmp: 400 files added (on-disk size: 0 KB)
0000.496 (0) Zip: backup_2017-11-16-1107_Eresmaxi_14d75314e85d-plugins.zip.tmp: 500 files added (on-disk size: 0 KB)
0000.500 (0) Adding batch to zip file (UpdraftPlus_ZipArchive): over 500 files added on this batch (4.7 MB, 5049 files batched, 501 (501) added so far); re-opening (prior size: 0 KB)
0001.006 (0) Zip: backup_2017-11-16-1107_Eresmaxi_14d75314e85d-plugins.zip.tmp: 600 files added (on-disk size: 1693.3 KB)
0001.021 (0) Zip: backup_2017-11-16-1107_Eresmaxi_14d75314e85d-plugins.zip.tmp: 700 files added (on-disk size: 1693.3 KB)
0001.035 (0) Zip: backup_2017-11-16-1107_Eresmaxi_14d75314e85d-plugins.zip.tmp: 800 files added (on-disk size: 1693.3 KB)
0001.048 (0) Zip: backup_2017-11-16-1107_Eresmaxi_14d75314e85d-plugins.zip.tmp: 900 files added (on-disk size: 1693.3 KB)
0001.063 (0) Zip: backup_2017-11-16-1107_Eresmaxi_14d75314e85d-plugins.zip.tmp: 1000 files added (on-disk size: 1693.3 KB)
0001.067 (0) Adding batch to zip file (UpdraftPlus_ZipArchive): over 500 files added on this batch (2.6 MB, 5049 files batched, 501 (1002) added so far); re-opening (prior size: 1693.3 KB)
0001.363 (0) Zip: backup_2017-11-16-1107_Eresmaxi_14d75314e85d-plugins.zip.tmp: 1100 files added (on-disk size: 2533 KB)
0001.377 (0) Zip: backup_2017-11-16-1107_Eresmaxi_14d75314e85d-plugins.zip.tmp: 1200 files added (on-disk size: 2533 KB)
0001.391 (0) Zip: backup_2017-11-16-1107_Eresmaxi_14d75314e85d-plugins.zip.tmp: 1300 files added (on-disk size: 2533 KB)
0001.410 (0) Zip: backup_2017-11-16-1107_Eresmaxi_14d75314e85d-plugins.zip.tmp: 1400 files added (on-disk size: 2533 KB)
0001.432 (0) Zip: backup_2017-11-16-1107_Eresmaxi_14d75314e85d-plugins.zip.tmp: 1500 files added (on-disk size: 2533 KB)
0001.441 (0) Adding batch to zip file (UpdraftPlus_ZipArchive): over 500 files added on this batch (17.7 MB, 5049 files batched, 501 (1503) added so far); re-opening (prior size: 2533 KB)
0003.366 (0) Zip: backup_2017-11-16-1107_Eresmaxi_14d75314e85d-plugins.zip.tmp: 1600 files added (on-disk size: 7898.3 KB)
0003.381 (0) Zip: backup_2017-11-16-1107_Eresmaxi_14d75314e85d-plugins.zip.tmp: 1700 files added (on-disk size: 7898.3 KB)
0003.397 (0) Zip: backup_2017-11-16-1107_Eresmaxi_14d75314e85d-plugins.zip.tmp: 1800 files added (on-disk size: 7898.3 KB)
0003.416 (0) Zip: backup_2017-11-16-1107_Eresmaxi_14d75314e85d-plugins.zip.tmp: 1900 files added (on-disk size: 7898.3 KB)
0003.434 (0) Zip: backup_2017-11-16-1107_Eresmaxi_14d75314e85d-plugins.zip.tmp: 2000 files added (on-disk size: 7898.3 KB)
0003.439 (0) Adding batch to zip file (UpdraftPlus_ZipArchive): over 500 files added on this batch (7.7 MB, 5049 files batched, 501 (2004) added so far); re-opening (prior size: 7898.3 KB)
0004.052 (0) Zip: backup_2017-11-16-1107_Eresmaxi_14d75314e85d-plugins.zip.tmp: 2100 files added (on-disk size: 9929 KB)
0004.073 (0) Zip: backup_2017-11-16-1107_Eresmaxi_14d75314e85d-plugins.zip.tmp: 2200 files added (on-disk size: 9929 KB)
0004.090 (0) Zip: backup_2017-11-16-1107_Eresmaxi_14d75314e85d-plugins.zip.tmp: 2300 files added (on-disk size: 9929 KB)
0004.106 (0) Zip: backup_2017-11-16-1107_Eresmaxi_14d75314e85d-plugins.zip.tmp: 2400 files added (on-disk size: 9929 KB)
0004.122 (0) Zip: backup_2017-11-16-1107_Eresmaxi_14d75314e85d-plugins.zip.tmp: 2500 files added (on-disk size: 9929 KB)
0004.126 (0) Adding batch to zip file (UpdraftPlus_ZipArchive): over 500 files added on this batch (4.2 MB, 5049 files batched, 501 (2505) added so far); re-opening (prior size: 9929 KB)
0004.703 (0) Zip: backup_2017-11-16-1107_Eresmaxi_14d75314e85d-plugins.zip.tmp: 2600 files added (on-disk size: 11283.5 KB)
0004.719 (0) Zip: backup_2017-11-16-1107_Eresmaxi_14d75314e85d-plugins.zip.tmp: 2700 files added (on-disk size: 11283.5 KB)
0004.737 (0) Zip: backup_2017-11-16-1107_Eresmaxi_14d75314e85d-plugins.zip.tmp: 2800 files added (on-disk size: 11283.5 KB)
0004.757 (0) Zip: backup_2017-11-16-1107_Eresmaxi_14d75314e85d-plugins.zip.tmp: 2900 files added (on-disk size: 11283.5 KB)
0004.777 (0) Zip: backup_2017-11-16-1107_Eresmaxi_14d75314e85d-plugins.zip.tmp: 3000 files added (on-disk size: 11283.5 KB)
0004.782 (0) Adding batch to zip file (UpdraftPlus_ZipArchive): over 500 files added on this batch (6.3 MB, 5049 files batched, 501 (3006) added so far); re-opening (prior size: 11283.5 KB)
0005.445 (0) Zip: backup_2017-11-16-1107_Eresmaxi_14d75314e85d-plugins.zip.tmp: 3100 files added (on-disk size: 14204.1 KB)
0005.463 (0) Zip: backup_2017-11-16-1107_Eresmaxi_14d75314e85d-plugins.zip.tmp: 3200 files added (on-disk size: 14204.1 KB)
0005.482 (0) Zip: backup_2017-11-16-1107_Eresmaxi_14d75314e85d-plugins.zip.tmp: 3300 files added (on-disk size: 14204.1 KB)
0005.502 (0) Zip: backup_2017-11-16-1107_Eresmaxi_14d75314e85d-plugins.zip.tmp: 3400 files added (on-disk size: 14204.1 KB)
0005.521 (0) Zip: backup_2017-11-16-1107_Eresmaxi_14d75314e85d-plugins.zip.tmp: 3500 files added (on-disk size: 14204.1 KB)
0005.526 (0) Adding batch to zip file (UpdraftPlus_ZipArchive): over 500 files added on this batch (6.3 MB, 5049 files batched, 501 (3507) added so far); re-opening (prior size: 14204.1 KB)
0006.026 (0) Zip: backup_2017-11-16-1107_Eresmaxi_14d75314e85d-plugins.zip.tmp: 3600 files added (on-disk size: 17130.7 KB)
0006.046 (0) Zip: backup_2017-11-16-1107_Eresmaxi_14d75314e85d-plugins.zip.tmp: 3700 files added (on-disk size: 17130.7 KB)
0006.066 (0) Zip: backup_2017-11-16-1107_Eresmaxi_14d75314e85d-plugins.zip.tmp: 3800 files added (on-disk size: 17130.7 KB)
0006.087 (0) Zip: backup_2017-11-16-1107_Eresmaxi_14d75314e85d-plugins.zip.tmp: 3900 files added (on-disk size: 17130.7 KB)
0006.108 (0) Zip: backup_2017-11-16-1107_Eresmaxi_14d75314e85d-plugins.zip.tmp: 4000 files added (on-disk size: 17130.7 KB)
0006.112 (0) Adding batch to zip file (UpdraftPlus_ZipArchive): over 500 files added on this batch (3.9 MB, 5049 files batched, 501 (4008) added so far); re-opening (prior size: 17130.7 KB)
0006.540 (0) Zip: backup_2017-11-16-1107_Eresmaxi_14d75314e85d-plugins.zip.tmp: 4100 files added (on-disk size: 18372.1 KB)
0006.565 (0) Zip: backup_2017-11-16-1107_Eresmaxi_14d75314e85d-plugins.zip.tmp: 4200 files added (on-disk size: 18372.1 KB)
0006.593 (0) Zip: backup_2017-11-16-1107_Eresmaxi_14d75314e85d-plugins.zip.tmp: 4300 files added (on-disk size: 18372.1 KB)
0006.620 (0) Zip: backup_2017-11-16-1107_Eresmaxi_14d75314e85d-plugins.zip.tmp: 4400 files added (on-disk size: 18372.1 KB)
0006.647 (0) Zip: backup_2017-11-16-1107_Eresmaxi_14d75314e85d-plugins.zip.tmp: 4500 files added (on-disk size: 18372.1 KB)
0006.653 (0) Adding batch to zip file (UpdraftPlus_ZipArchive): over 500 files added on this batch (8.7 MB, 5049 files batched, 501 (4509) added so far); re-opening (prior size: 18372.1 KB)
0007.577 (0) Zip: backup_2017-11-16-1107_Eresmaxi_14d75314e85d-plugins.zip.tmp: 4600 files added (on-disk size: 22684.2 KB)
0007.614 (0) Zip: backup_2017-11-16-1107_Eresmaxi_14d75314e85d-plugins.zip.tmp: 4700 files added (on-disk size: 22684.2 KB)
0007.645 (0) Zip: backup_2017-11-16-1107_Eresmaxi_14d75314e85d-plugins.zip.tmp: 4800 files added (on-disk size: 22684.2 KB)
0007.674 (0) Zip: backup_2017-11-16-1107_Eresmaxi_14d75314e85d-plugins.zip.tmp: 4900 files added (on-disk size: 22684.2 KB)
0007.700 (0) Zip: backup_2017-11-16-1107_Eresmaxi_14d75314e85d-plugins.zip.tmp: 5000 files added (on-disk size: 22684.2 KB)
0007.706 (0) Adding batch to zip file (UpdraftPlus_ZipArchive): over 500 files added on this batch (9 MB, 5049 files batched, 501 (5010) added so far); re-opening (prior size: 22684.2 KB)
0009.094 (0) Created plugins zip (0) - 25410.5 KB in 9 s (2830.2 KB/s) (sha1: 274024589da67ad2ea3bac66d80f04359e1bd8b3, sha256: 057678b83d64cb8f61e50b1447a283bde6b82a895db3baa8ddad86ae49ba0590)
0009.100 (0) Beginning creation of dump of themes (split every: 500 MB)
0009.116 (0) Total entities for the zip file: 35 directories, 224 files (0 skipped as non-modified), 4.4 MB
0009.128 (0) Zip: backup_2017-11-16-1107_Eresmaxi_14d75314e85d-themes.zip.tmp: 100 files added (on-disk size: 0 KB)
0009.134 (0) Zip: backup_2017-11-16-1107_Eresmaxi_14d75314e85d-themes.zip.tmp: 200 files added (on-disk size: 0 KB)
0009.508 (0) Created themes zip (0) - 3064.9 KB in 0.4 s (7590.3 KB/s) (sha1: f767fda4ec463a086a4d43e722d22df68b16ae7c, sha256: 40806e35a70151a8249666cb684f697de89184dfc63657568af887816818caed)
0009.516 (0) Exclusion option setting (uploads): backup*,*backups,backwpup*,wp-clone
0009.519 (0) Looking for candidates to back up in: /var/www/html/eresmaxi/wp-content/uploads
0009.523 (0) finding files: 2016: adding to list (1)
0009.526 (0) finding files: index.php: adding to list (2)
0009.529 (0) finding files: mainwp: adding to list (3)
0009.532 (0) finding files: 2017: adding to list (4)
0009.534 (0) Beginning creation of dump of uploads (split every: 500 MB)
0009.552 (0) Total entities for the zip file: 20 directories, 50 files (0 skipped as non-modified), 1.7 MB
0009.689 (0) Created uploads zip (0) - 1754 KB in 0.1 s (11759.7 KB/s) (sha1: bb62aeee7e96a4ef20ba1d3858b5912e29fdbca1, sha256: 4e71a3736b71a4dd55331b13952bd0122fce9c8645c268e6e52740fc31c74e5b)
0009.697 (0) Beginning backup of other directories found in the content directory (index: 0)
0009.700 (0) Exclusion option setting (others): upgrade,cache,updraft,backup*,*backups,mysql.sql
0009.703 (0) Looking for candidates to back up in: /var/www/html/eresmaxi/wp-content
0009.705 (0) finding files: aiowps_backups: skipping: excluded by options (glob)
0009.707 (0) finding files: updraft: skipping: this is the updraft directory
0009.709 (0) finding files: index.php: adding to list (1)
0009.714 (0) finding files: cache: skipping: excluded by options
0009.717 (0) finding files: advanced-cache.php: adding to list (2)
0009.720 (0) finding files: themes: skipping: this is the themes directory
0009.723 (0) finding files: logs: adding to list (3)
0009.724 (0) finding files: w3tc-config: adding to list (4)
0009.727 (0) finding files: upgrade: skipping: excluded by options
0009.729 (0) finding files: languages: adding to list (5)
0009.732 (0) finding files: rsspi-log: adding to list (6)
0009.734 (0) finding files: uploads: skipping: this is the uploads directory
0009.736 (0) finding files: plugins: skipping: this is the plugins directory
0009.744 (0) Total entities for the zip file: 7 directories, 28 files (0 skipped as non-modified), 2.6 MB
0010.062 (0) Created others zip (0) - 774.2 KB in 0.3 s (2398.4 KB/s) (sha1: bd3f3b96541e730cfea4d6185f8fd2a5983be0ad, sha256: 4c05d37c285e13ec9e8c17aac5f03e121b82083602b9ba6c6003a9daa25e208e)
0010.074 (0) Saving backup status to database (elements: 8)
0010.081 (0) No database backup (wp) - not part of this run
0010.086 (0) backup_2017-11-16-1107_Eresmaxi_14d75314e85d-plugins.zip: plugins: This file has not yet been successfully uploaded: will queue
0010.088 (0) backup_2017-11-16-1107_Eresmaxi_14d75314e85d-themes.zip: themes: This file has not yet been successfully uploaded: will queue
0010.090 (0) backup_2017-11-16-1107_Eresmaxi_14d75314e85d-uploads.zip: uploads: This file has not yet been successfully uploaded: will queue
0010.093 (0) backup_2017-11-16-1107_Eresmaxi_14d75314e85d-others.zip: others: This file has not yet been successfully uploaded: will queue
0010.095 (0) Saving backup history. Total backup size: 30.3 MB
0010.107 (0) Requesting upload of the files that have not yet been successfully uploaded (4)
0010.122 (0) Cloud backup selection (1/1): ftp (last)
0010.125 (0) Beginning dispatch of backup to remote (ftp)
0011.000 (0) FTP upload attempt: backup_2017-11-16-1107_Eresmaxi_14d75314e85d-plugins.zip -> ftp://ftp_wp_verticales@ftp.netsales.es//mnt/array1/BU_wp_verticales/backup_2017-11-16-1107_Eresmaxi_14d75314e85d-plugins.zip
0011.273 (0) Ftp chunked upload: 2 % uploaded
0011.375 (0) Ftp chunked upload: 4.1 % uploaded
0011.515 (0) Ftp chunked upload: 6.1 % uploaded
0011.654 (0) Ftp chunked upload: 8.1 % uploaded
0011.935 (0) Ftp chunked upload: 12.2 % uploaded
0012.233 (0) Ftp chunked upload: 16.2 % uploaded
0012.804 (0) Ftp chunked upload: 24.3 % uploaded
0013.364 (0) Ftp chunked upload: 32.4 % uploaded
0013.949 (0) Ftp chunked upload: 40.4 % uploaded
0014.525 (0) Ftp chunked upload: 48.5 % uploaded
0015.088 (0) Ftp chunked upload: 56.6 % uploaded
0015.666 (0) Ftp chunked upload: 64.7 % uploaded
0016.240 (0) Ftp chunked upload: 72.7 % uploaded
0016.821 (0) Ftp chunked upload: 80.8 % uploaded
0017.400 (0) Ftp chunked upload: 88.9 % uploaded
0017.990 (0) Ftp chunked upload: 96.9 % uploaded
0018.333 (0) FTP upload attempt successful (25410.5KB in 7.33s)
0018.343 (0) Recording as successfully uploaded: backup_2017-11-16-1107_Eresmaxi_14d75314e85d-plugins.zip (1350b071d0dfcbe9acf09609ccca2a72)
0018.375 (0) Deleting local file: backup_2017-11-16-1107_Eresmaxi_14d75314e85d-plugins.zip: OK
0018.385 (0) FTP upload attempt: backup_2017-11-16-1107_Eresmaxi_14d75314e85d-themes.zip -> ftp://ftp_wp_verticales@ftp.netsales.es//mnt/array1/BU_wp_verticales/backup_2017-11-16-1107_Eresmaxi_14d75314e85d-themes.zip
0078.448 (0) PHP event: code E_WARNING: ftp_nb_fput(): PORT command successful (line 78, wp-content/plugins/updraftplus/includes/ftp.class.php)
0078.453 (0) FTP upload: error (0)
0078.455 (0) ERROR: FTP upload failed
0078.457 (0) An error condition has occurred for the first time during this job
0078.460 (0) FTP upload attempt: backup_2017-11-16-1107_Eresmaxi_14d75314e85d-uploads.zip -> ftp://ftp_wp_verticales@ftp.netsales.es//mnt/array1/BU_wp_verticales/backup_2017-11-16-1107_Eresmaxi_14d75314e85d-uploads.zip
0081.563 (0) PHP event: code E_WARNING: ftp_nb_fput(): Unable to build data connection: Connection timed out (line 78, wp-content/plugins/updraftplus/includes/ftp.class.php)
0081.569 (0) FTP upload: error (0)
0081.579 (0) ERROR: FTP upload failed
0081.586 (0) FTP upload attempt: backup_2017-11-16-1107_Eresmaxi_14d75314e85d-others.zip -> ftp://ftp_wp_verticales@ftp.netsales.es//mnt/array1/BU_wp_verticales/backup_2017-11-16-1107_Eresmaxi_14d75314e85d-others.zip
0081.633 (0) PHP event: code E_WARNING: ftp_nb_fput(): PORT command successful (line 78, wp-content/plugins/updraftplus/includes/ftp.class.php)
0081.639 (0) FTP upload: error (0)
0081.645 (0) ERROR: FTP upload failed
0081.662 (0) Retain: beginning examination of existing backup sets; user setting: retain_files=2, retain_db=2
0081.679 (0) Number of backup sets in history: 5; groups (db): 1
0081.689 (0) Examining (for databases) backup set with group_id=0, nonce=14d75314e85d, datestamp=1510823260 (Nov 16 2017 09:07:40)
0081.695 (0) Examining (for databases) backup set with group_id=0, nonce=8edefbf214a9, datestamp=1510218598 (Nov 09 2017 09:09:58)
0081.700 (0) This backup set remains non-empty (f=0/d=1); will retain in history
0081.708 (0) Examining (for databases) backup set with group_id=0, nonce=8edefbf214a9, datestamp=1510218457 (Nov 09 2017 09:07:37)
0081.715 (0) Examining (for databases) backup set with group_id=0, nonce=0aec1adddfbd, datestamp=1509613774 (Nov 02 2017 09:09:34)
0081.721 (0) This backup set remains non-empty (f=0/d=1); will retain in history
0081.727 (0) Examining (for databases) backup set with group_id=0, nonce=f3f5f03c8731, datestamp=1509613635 (Nov 02 2017 09:07:15)
0081.736 (0) Number of backup sets in history: 5; groups (files): 1
0081.753 (0) Examining (for files) backup set with nonce=14d75314e85d, datestamp=1510823260 (Nov 16 2017 09:07:40)
0081.761 (0) This backup set is the backup set just made, so will not be deleted.
0081.774 (0) This backup set is the backup set just made, so will not be deleted.
0081.775 (0) This backup set is the backup set just made, so will not be deleted.
0081.775 (0) This backup set is the backup set just made, so will not be deleted.
0081.775 (0) This backup set remains non-empty (f=1/d=0); will retain in history
0081.780 (0) Examining (for files) backup set with nonce=8edefbf214a9, datestamp=1510218598 (Nov 09 2017 09:09:58)
0081.789 (0) This backup set remains non-empty (f=0/d=1); will retain in history
0081.793 (0) Examining (for files) backup set with nonce=8edefbf214a9, datestamp=1510218457 (Nov 09 2017 09:07:37)
0081.797 (0) This backup set remains non-empty (f=1/d=0); will retain in history
0081.802 (0) Examining (for files) backup set with nonce=0aec1adddfbd, datestamp=1509613774 (Nov 02 2017 09:09:34)
0081.828 (0) This backup set remains non-empty (f=0/d=1); will retain in history
0081.831 (0) Examining (for files) backup set with nonce=f3f5f03c8731, datestamp=1509613635 (Nov 02 2017 09:07:15)
0081.835 (0) plugins: over retain limit (2); will delete this file entity
0081.840 (0) themes: over retain limit (2); will delete this file entity
0081.845 (0) uploads: over retain limit (2); will delete this file entity
0081.849 (0) others: over retain limit (2); will delete this file entity
0081.853 (0) Delete file: backup_2017-11-02-1107_Eresmaxi_f3f5f03c8731-plugins.zip, service=ftp
0081.866 (0) Deleting local copy (backup_2017-11-02-1107_Eresmaxi_f3f5f03c8731-plugins.zip)
0081.876 (0) Delete file: backup_2017-11-02-1107_Eresmaxi_f3f5f03c8731-themes.zip, service=ftp
0081.880 (0) Deleting local copy (backup_2017-11-02-1107_Eresmaxi_f3f5f03c8731-themes.zip)
0081.884 (0) Delete file: backup_2017-11-02-1107_Eresmaxi_f3f5f03c8731-uploads.zip, service=ftp
0081.888 (0) Deleting local copy (backup_2017-11-02-1107_Eresmaxi_f3f5f03c8731-uploads.zip)
0081.892 (0) Delete file: backup_2017-11-02-1107_Eresmaxi_f3f5f03c8731-others.zip, service=ftp
0081.896 (0) Deleting local copy (backup_2017-11-02-1107_Eresmaxi_f3f5f03c8731-others.zip)
0081.909 (0) FTP delete: failed (/mnt/array1/BU_wp_verticales/backup_2017-11-02-1107_Eresmaxi_f3f5f03c8731-plugins.zip)
0081.937 (0) FTP delete: succeeded (/mnt/array1/BU_wp_verticales/backup_2017-11-02-1107_Eresmaxi_f3f5f03c8731-themes.zip)
0081.965 (0) FTP delete: failed (/mnt/array1/BU_wp_verticales/backup_2017-11-02-1107_Eresmaxi_f3f5f03c8731-uploads.zip)
0081.994 (0) FTP delete: succeeded (/mnt/array1/BU_wp_verticales/backup_2017-11-02-1107_Eresmaxi_f3f5f03c8731-others.zip)
0082.006 (0) This backup set is now empty; will remove from history
0082.012 (0) Deleting log file (log.f3f5f03c8731.txt)
0082.017 (0) Retain: saving new backup history (sets now: 4) and finishing retain operation
0082.053 (0) Resume backup (14d75314e85d, 0): finish run
0082.091 (0) Decremented the semaphore (f) by 1
0082.098 (0) Semaphore (f) unlocked
0082.102 (0) There were errors in the uploads, so the 'resume' event is remaining scheduled
0082.137 (0) Rescheduling resumption 1: moving to 120 seconds from now (1510823462)
0082.154 (0) No email will/can be sent - the user has not configured an email address.
0082.163 (0) El respaldo no ha terminado; una reanudación está programada
0300.287 (1) Opened log file at time: Thu, 16 Nov 2017 09:12:40 +0000 on http://eresmaxi.es
0300.291 (1) UpdraftPlus WordPress backup plugin (https://updraftplus.com): 1.12.40 WP: 4.6.8 PHP: 5.5.9-1ubuntu4.22 (apache2handler, Linux wp-verticales 4.9.50-x86_64-linode86 #1 SMP Thu Sep 14 19:28:20 UTC 2017 x86_64) MySQL: 5.5.57 WPLANG: es_ES Server: Apache safe_mode: 0 max_execution_time: 900 memory_limit: 256M (used: 46.5M | 48M) multisite: N openssl: OpenSSL 1.0.1f 6 Jan 2014 mcrypt: Y LANG: C ZipArchive::addFile: Y
0300.302 (1) Free space on disk containing Updraft's temporary directory: 6129 MB
0300.318 (1) Backup run: resumption=1, nonce=14d75314e85d, begun at=1510823260 (300s ago), job type=backup, previous check-in=82s
0300.334 (1) Scheduling a resumption (2) after 300 seconds (1510823860) in case this run gets aborted
0300.348 (1) Checking if we have a zip executable available
0300.351 (1) Creation of backups of directories: already finished
0300.353 (1) Saving backup status to database (elements: 8)
0300.360 (1) No database backup (wp) - not part of this run
0300.364 (1) backup_2017-11-16-1107_Eresmaxi_14d75314e85d-plugins.zip: plugins: This file has already been successfully uploaded
0300.375 (1) backup_2017-11-16-1107_Eresmaxi_14d75314e85d-themes.zip: themes: This file has not yet been successfully uploaded: will queue
0300.379 (1) backup_2017-11-16-1107_Eresmaxi_14d75314e85d-uploads.zip: uploads: This file has not yet been successfully uploaded: will queue
0300.382 (1) backup_2017-11-16-1107_Eresmaxi_14d75314e85d-others.zip: others: This file has not yet been successfully uploaded: will queue
0300.385 (1) Saving backup history. Total backup size: 30.3 MB
0300.392 (1) Requesting upload of the files that have not yet been successfully uploaded (3)
0300.397 (1) Cloud backup selection (1/1): ftp (last)
0300.401 (1) Beginning dispatch of backup to remote (ftp)
0301.286 (1) FTP upload attempt: backup_2017-11-16-1107_Eresmaxi_14d75314e85d-themes.zip -> ftp://ftp_wp_verticales@ftp.netsales.es//mnt/array1/BU_wp_verticales/backup_2017-11-16-1107_Eresmaxi_14d75314e85d-themes.zip
0301.672 (1) Ftp chunked upload: 16.8 % uploaded
0301.805 (1) Ftp chunked upload: 33.7 % uploaded
0301.950 (1) Ftp chunked upload: 50.5 % uploaded
0302.124 (1) Ftp chunked upload: 67.3 % uploaded
0302.464 (1) FTP upload attempt successful (3064.9KB in 1.17s)
0302.478 (1) Recording as successfully uploaded: backup_2017-11-16-1107_Eresmaxi_14d75314e85d-themes.zip (376dc81bd7a7585a7e7896db2ca984d3)
0302.499 (1) Deleting local file: backup_2017-11-16-1107_Eresmaxi_14d75314e85d-themes.zip: OK
0302.503 (1) FTP upload attempt: backup_2017-11-16-1107_Eresmaxi_14d75314e85d-uploads.zip -> ftp://ftp_wp_verticales@ftp.netsales.es//mnt/array1/BU_wp_verticales/backup_2017-11-16-1107_Eresmaxi_14d75314e85d-uploads.zip
0362.637 (1) PHP event: code E_WARNING: ftp_nb_fput(): PORT command successful (line 78, wp-content/plugins/updraftplus/includes/ftp.class.php)
0362.640 (1) FTP upload: error (0)
0362.643 (1) ERROR: FTP upload failed
0362.646 (1) An error condition has occurred for the first time during this job
0362.648 (1) FTP upload attempt: backup_2017-11-16-1107_Eresmaxi_14d75314e85d-others.zip -> ftp://ftp_wp_verticales@ftp.netsales.es//mnt/array1/BU_wp_verticales/backup_2017-11-16-1107_Eresmaxi_14d75314e85d-others.zip
0365.724 (1) PHP event: code E_WARNING: ftp_nb_fput(): 0 (line 78, wp-content/plugins/updraftplus/includes/ftp.class.php)
0365.728 (1) FTP upload: error (0)
0365.731 (1) ERROR: FTP upload failed
0365.737 (1) Retain: beginning examination of existing backup sets; user setting: retain_files=2, retain_db=2
0365.740 (1) Number of backup sets in history: 4; groups (db): 1
0365.743 (1) Examining (for databases) backup set with group_id=0, nonce=9d58cf8eba2a, datestamp=1510823342 (Nov 16 2017 09:09:02)
0365.746 (1) This backup set remains non-empty (f=0/d=1); will retain in history
0365.748 (1) Examining (for databases) backup set with group_id=0, nonce=14d75314e85d, datestamp=1510823260 (Nov 16 2017 09:07:40)
0365.750 (1) Examining (for databases) backup set with group_id=0, nonce=8edefbf214a9, datestamp=1510218598 (Nov 09 2017 09:09:58)
0365.753 (1) This backup set remains non-empty (f=0/d=1); will retain in history
0365.755 (1) Examining (for databases) backup set with group_id=0, nonce=8edefbf214a9, datestamp=1510218457 (Nov 09 2017 09:07:37)
0365.758 (1) Number of backup sets in history: 4; groups (files): 1
0365.760 (1) Examining (for files) backup set with nonce=9d58cf8eba2a, datestamp=1510823342 (Nov 16 2017 09:09:02)
0365.762 (1) This backup set remains non-empty (f=0/d=1); will retain in history
0365.764 (1) Examining (for files) backup set with nonce=14d75314e85d, datestamp=1510823260 (Nov 16 2017 09:07:40)
0365.766 (1) This backup set is the backup set just made, so will not be deleted.
0365.769 (1) This backup set is the backup set just made, so will not be deleted.
0365.769 (1) This backup set is the backup set just made, so will not be deleted.
0365.769 (1) This backup set is the backup set just made, so will not be deleted.
0365.769 (1) This backup set remains non-empty (f=1/d=0); will retain in history
0365.772 (1) Examining (for files) backup set with nonce=8edefbf214a9, datestamp=1510218598 (Nov 09 2017 09:09:58)
0365.774 (1) This backup set remains non-empty (f=0/d=1); will retain in history
0365.776 (1) Examining (for files) backup set with nonce=8edefbf214a9, datestamp=1510218457 (Nov 09 2017 09:07:37)
0365.779 (1) This backup set remains non-empty (f=1/d=0); will retain in history
0365.781 (1) Retain: saving new backup history (sets now: 4) and finishing retain operation
0365.787 (1) Resume backup (14d75314e85d, 1): finish run
0365.794 (1) There were errors in the uploads, so the 'resume' event is remaining scheduled
0365.799 (1) No email will/can be sent - the user has not configured an email address.
0365.802 (1) El respaldo no ha terminado; una reanudación está programada
0518.593 (2) Opened log file at time: Thu, 16 Nov 2017 09:17:41 +0000 on http://eresmaxi.es
0518.598 (2) UpdraftPlus WordPress backup plugin (https://updraftplus.com): 1.12.40 WP: 4.6.8 PHP: 5.5.9-1ubuntu4.22 (apache2handler, Linux wp-verticales 4.9.50-x86_64-linode86 #1 SMP Thu Sep 14 19:28:20 UTC 2017 x86_64) MySQL: 5.5.57 WPLANG: es_ES Server: Apache safe_mode: 0 max_execution_time: 900 memory_limit: 256M (used: 47.8M | 49.5M) multisite: N openssl: OpenSSL 1.0.1f 6 Jan 2014 mcrypt: Y LANG: C ZipArchive::addFile: Y
0518.602 (2) Free space on disk containing Updraft's temporary directory: 6126.2 MB
0518.613 (2) Backup run: resumption=2, nonce=14d75314e85d, begun at=1510823342 (519s ago), job type=backup
0518.618 (2) Terminate: This backup job is already finished (1).
