0000.000 (0) Opened log file at time: Thu, 06 Apr 2017 09:04:22 +0000 on http://movilisimos.com
0000.004 (0) UpdraftPlus WordPress backup plugin (https://updraftplus.com): 1.12.40 WP: 4.6.4 PHP: 5.5.9-1ubuntu4.20 (apache2handler, Linux wp-verticales 4.9.7-x86_64-linode80 #2 SMP Thu Feb 2 15:43:55 EST 2017 x86_64) MySQL: 5.5.52 WPLANG: en_US Server: Apache safe_mode: 0 max_execution_time: 900 memory_limit: 256M (used: 27.1M | 27.5M) multisite: N openssl: OpenSSL 1.0.1f 6 Jan 2014 mcrypt: Y LANG: C ZipArchive::addFile: Y
0000.005 (0) Free space on disk containing Updraft's temporary directory: 14021.5 MB
0000.007 (0) Tasks: Backup files: 1 (schedule: weekly) Backup DB:  (schedule: weekly)
0000.030 (0) Processed schedules. Combining jobs from identical schedules. Tasks now: Backup files: 1 Backup DB: 1
0000.034 (0) Semaphore (fd, wp_options) being initialised
0000.040 (0) Requesting semaphore lock (fd) (apparently not via scheduler)
0000.043 (0) Set semaphore last lock (fd) time to 2017-04-06 09:04:22
0000.043 (0) Semaphore lock (fd) complete
0000.047 (0) Backup run: resumption=0, nonce=66c809ab72b1, begun at=1491469462 (0s ago), job type=backup
0000.305 (0) Scheduling a resumption (1) after 300 seconds (1491469762) in case this run gets aborted
0000.327 (0) Checking if we have a zip executable available
0000.334 (0) Creation of backups of directories: beginning
0000.337 (0) Beginning creation of dump of plugins (split every: 500 MB)
0000.537 (0) Total entities for the zip file: 327 directories, 1747 files (0 skipped as non-modified), 28.4 MB
0000.573 (0) Zip: backup_2017-04-06-1004__gt_movilsimos_66c809ab72b1-plugins.zip.tmp: 100 files added (on-disk size: 0 KB)
0000.608 (0) Zip: backup_2017-04-06-1004__gt_movilsimos_66c809ab72b1-plugins.zip.tmp: 200 files added (on-disk size: 0 KB)
0000.634 (0) Zip: backup_2017-04-06-1004__gt_movilsimos_66c809ab72b1-plugins.zip.tmp: 300 files added (on-disk size: 0 KB)
0000.669 (0) Zip: backup_2017-04-06-1004__gt_movilsimos_66c809ab72b1-plugins.zip.tmp: 400 files added (on-disk size: 0 KB)
0000.707 (0) Zip: backup_2017-04-06-1004__gt_movilsimos_66c809ab72b1-plugins.zip.tmp: 500 files added (on-disk size: 0 KB)
0000.728 (0) Adding batch to zip file (UpdraftPlus_ZipArchive): over 500 files added on this batch (4.4 MB, 1747 files batched, 501 (501) added so far); re-opening (prior size: 0 KB)
0002.988 (0) Zip: backup_2017-04-06-1004__gt_movilsimos_66c809ab72b1-plugins.zip.tmp: 600 files added (on-disk size: 1399.3 KB)
0003.055 (0) Zip: backup_2017-04-06-1004__gt_movilsimos_66c809ab72b1-plugins.zip.tmp: 700 files added (on-disk size: 1399.3 KB)
0003.113 (0) Zip: backup_2017-04-06-1004__gt_movilsimos_66c809ab72b1-plugins.zip.tmp: 800 files added (on-disk size: 1399.3 KB)
0003.771 (0) Zip: backup_2017-04-06-1004__gt_movilsimos_66c809ab72b1-plugins.zip.tmp: 900 files added (on-disk size: 1399.3 KB)
0003.829 (0) Zip: backup_2017-04-06-1004__gt_movilsimos_66c809ab72b1-plugins.zip.tmp: 1000 files added (on-disk size: 1399.3 KB)
0003.857 (0) Adding batch to zip file (UpdraftPlus_ZipArchive): over 500 files added on this batch (3.1 MB, 1747 files batched, 501 (1002) added so far); re-opening (prior size: 1399.3 KB)
0005.827 (0) Zip: backup_2017-04-06-1004__gt_movilsimos_66c809ab72b1-plugins.zip.tmp: 1100 files added (on-disk size: 2394.8 KB)
0005.944 (0) Zip: backup_2017-04-06-1004__gt_movilsimos_66c809ab72b1-plugins.zip.tmp: 1200 files added (on-disk size: 2394.8 KB)
0006.000 (0) Zip: backup_2017-04-06-1004__gt_movilsimos_66c809ab72b1-plugins.zip.tmp: 1300 files added (on-disk size: 2394.8 KB)
0006.082 (0) Zip: backup_2017-04-06-1004__gt_movilsimos_66c809ab72b1-plugins.zip.tmp: 1400 files added (on-disk size: 2394.8 KB)
0006.205 (0) Zip: backup_2017-04-06-1004__gt_movilsimos_66c809ab72b1-plugins.zip.tmp: 1500 files added (on-disk size: 2394.8 KB)
0006.231 (0) Adding batch to zip file (UpdraftPlus_ZipArchive): over 500 files added on this batch (17.2 MB, 1747 files batched, 501 (1503) added so far); re-opening (prior size: 2394.8 KB)
0018.879 (0) Zip: backup_2017-04-06-1004__gt_movilsimos_66c809ab72b1-plugins.zip.tmp: 1600 files added (on-disk size: 7609.6 KB)
0018.985 (0) Zip: backup_2017-04-06-1004__gt_movilsimos_66c809ab72b1-plugins.zip.tmp: 1700 files added (on-disk size: 7609.6 KB)
0025.678 (0) Created plugins zip (0) - 9720.3 KB in 25.3 s (383.6 KB/s) (sha1: 3521f2a107c4fb96390ac1c52f84c406050b24fb, sha256: 33cc554c6f0fde9b4f9ff623a300f8e53a5afce15e03238d2bcdd64d5db5c9ae)
0025.947 (0) Beginning creation of dump of themes (split every: 500 MB)
0025.956 (0) Total entities for the zip file: 20 directories, 150 files (0 skipped as non-modified), 3.1 MB
0025.986 (0) Zip: backup_2017-04-06-1004__gt_movilsimos_66c809ab72b1-themes.zip.tmp: 100 files added (on-disk size: 0 KB)
0033.478 (0) Created themes zip (0) - 2405.2 KB in 7.5 s (319.6 KB/s) (sha1: bfbae766f8af2cfdf66631764fa304e83c04e743, sha256: bea7afb40213a0cbde11b253709f3d515812ea3e18ad8197971d73f17015130b)
0033.571 (0) Exclusion option setting (uploads): backup*,*backups,backwpup*,wp-clone
0033.577 (0) Looking for candidates to back up in: /var/www/html/movilisimos/wp-content/uploads
0033.582 (0) finding files: index.php: adding to list (1)
0033.584 (0) finding files: mainwp: adding to list (2)
0033.587 (0) finding files: 2017: adding to list (3)
0033.594 (0) Beginning creation of dump of uploads (split every: 500 MB)
0033.624 (0) Total entities for the zip file: 5 directories, 22 files (0 skipped as non-modified), 0.5 MB
0034.543 (0) Created uploads zip (0) - 509.7 KB in 0.9 s (540.9 KB/s) (sha1: d7262cba8598f3580838f811e112b9884fb5a93f, sha256: 26af18bf6210b2b9e4513e533a85a02af8072ae425a5d18525c5ed0c4f046228)
0034.546 (0) Beginning backup of other directories found in the content directory (index: 0)
0034.559 (0) Exclusion option setting (others): upgrade,cache,updraft,backup*,*backups,mysql.sql
0034.662 (0) Looking for candidates to back up in: /var/www/html/movilisimos/wp-content
0034.664 (0) finding files: updraft: skipping: this is the updraft directory
0034.665 (0) finding files: index.php: adding to list (1)
0034.666 (0) finding files: themes: skipping: this is the themes directory
0034.666 (0) finding files: upgrade: skipping: excluded by options
0034.667 (0) finding files: uploads: skipping: this is the uploads directory
0034.669 (0) finding files: plugins: skipping: this is the plugins directory
0034.980 (0) Total entities for the zip file: 0 directories, 1 files (0 skipped as non-modified), 0 MB
0039.208 (0) Created others zip (0) - 0.1 KB in 4.5 s (0 KB/s) (sha1: 5167551e8bdb852dec92d3157c5ddaa2903fe60f, sha256: 98c986ee6bfae978fef87d4f07c04b8c43fb2b9f59635ead2cceb22afa31025c)
0039.258 (0) Saving backup status to database (elements: 8)
0039.335 (0) Beginning creation of database dump (WordPress DB)
0039.355 (0) Testing: /usr/bin/mysqldump
0039.454 (0) Output: /*!40103 SET @OLD_TIME_ZONE=@@TIME_ZONE */;\n/*!40103 SET TIME_ZONE='+00:00' */;\n/*!40014 SET @OLD_UNIQUE_CHECKS=@@UNIQUE_CHECKS, UNIQUE_CHECKS=0 */;\n/*!40014 SET @OLD_FOREIGN_KEY_CHECKS=@@FOREIGN_KEY_CHECKS, FOREIGN_KEY_CHECKS=0 */;\n/*!40101 SET @OLD_SQL_MODE=@@SQL_MODE, SQL_MODE='NO_AUTO_VALUE_ON_ZERO' */;\n/*!40111 SET @OLD_SQL_NOTES=@@SQL_NOTES, SQL_NOTES=0 */;\nDROP TABLE IF EXISTS `wp_options`;\n/*!40101 SET @saved_cs_client     = @@character_set_client */;\n/*!40101 SET character_set_client = utf8 */;\nCRE (truncated - 1191 bytes total)
0039.457 (0) Working binary mysqldump found: /usr/bin/mysqldump
0039.560 (0) Table wp_options: Total expected rows (approximate): 474
0039.740 (0) Table wp_options: Total rows added: 298 in 0.17 seconds
0039.773 (0) Table wp_options: finishing file (backup_2017-04-06-1004__gt_movilsimos_66c809ab72b1-db-table-wp_options.table.gz - 136.9 KB)
0044.736 (0) Table wp_users: Total expected rows (approximate): 3
0044.792 (0) Table wp_users: Total rows added: 3 in 0.00 seconds
0044.810 (0) Table wp_users: finishing file (backup_2017-04-06-1004__gt_movilsimos_66c809ab72b1-db-table-wp_users.table.gz - 0.8 KB)
0044.845 (0) Table wp_usermeta: Total expected rows (approximate): 23
0044.976 (0) Table wp_usermeta: Total rows added: 45 in 0.01 seconds
0045.251 (0) Table wp_usermeta: finishing file (backup_2017-04-06-1004__gt_movilsimos_66c809ab72b1-db-table-wp_usermeta.table.gz - 3.2 KB)
0045.536 (0) Table wp_commentmeta: Total expected rows (approximate): 0
0045.540 (0) Table wp_commentmeta: Total rows added: 0 in 0.00 seconds
0045.543 (0) Table wp_commentmeta: finishing file (backup_2017-04-06-1004__gt_movilsimos_66c809ab72b1-db-table-wp_commentmeta.table.gz - 0.4 KB)
0048.286 (0) Table wp_comments: Total expected rows (approximate): 27
0048.337 (0) Table wp_comments: Total rows added: 46 in 0.02 seconds
0048.341 (0) Table wp_comments: finishing file (backup_2017-04-06-1004__gt_movilsimos_66c809ab72b1-db-table-wp_comments.table.gz - 6.2 KB)
0048.377 (0) Table wp_links: Total expected rows (approximate): 0
0048.382 (0) Table wp_links: Total rows added: 0 in 0.00 seconds
0048.383 (0) Table wp_links: finishing file (backup_2017-04-06-1004__gt_movilsimos_66c809ab72b1-db-table-wp_links.table.gz - 0.4 KB)
0048.694 (0) Table wp_postmeta: Total expected rows (approximate): 29
0051.872 (0) Table wp_postmeta: Total rows added: 29 in 0.01 seconds
0051.951 (0) Table wp_postmeta: finishing file (backup_2017-04-06-1004__gt_movilsimos_66c809ab72b1-db-table-wp_postmeta.table.gz - 1.2 KB)
0053.891 (0) Table wp_posts: Total expected rows (approximate): 21
0053.930 (0) Table wp_posts: Total rows added: 25 in 0.02 seconds
0053.934 (0) Table wp_posts: finishing file (backup_2017-04-06-1004__gt_movilsimos_66c809ab72b1-db-table-wp_posts.table.gz - 3.9 KB)
0053.972 (0) Table wp_term_relationships: Total expected rows (approximate): 5
0053.989 (0) Table wp_term_relationships: Total rows added: 5 in 0.01 seconds
0054.004 (0) Table wp_term_relationships: finishing file (backup_2017-04-06-1004__gt_movilsimos_66c809ab72b1-db-table-wp_term_relationships.table.gz - 0.4 KB)
0054.034 (0) Table wp_term_taxonomy: Total expected rows (approximate): 2
0054.053 (0) Table wp_term_taxonomy: Total rows added: 2 in 0.01 seconds
0054.055 (0) Table wp_term_taxonomy: finishing file (backup_2017-04-06-1004__gt_movilsimos_66c809ab72b1-db-table-wp_term_taxonomy.table.gz - 0.4 KB)
0054.064 (0) Table wp_termmeta: Total expected rows (approximate): 0
0054.084 (0) Table wp_termmeta: Total rows added: 0 in 0.02 seconds
0054.086 (0) Table wp_termmeta: finishing file (backup_2017-04-06-1004__gt_movilsimos_66c809ab72b1-db-table-wp_termmeta.table.gz - 0.4 KB)
0054.094 (0) Table wp_terms: Total expected rows (approximate): 2
0054.114 (0) Table wp_terms: Total rows added: 2 in 0.02 seconds
0054.116 (0) Table wp_terms: finishing file (backup_2017-04-06-1004__gt_movilsimos_66c809ab72b1-db-table-wp_terms.table.gz - 0.4 KB)
0054.159 (0) backup_2017-04-06-1004__gt_movilsimos_66c809ab72b1-db-table-wp_options.table.gz (1/12): adding to final database dump
0054.340 (0) backup_2017-04-06-1004__gt_movilsimos_66c809ab72b1-db-table-wp_users.table.gz (2/12): adding to final database dump
0054.705 (0) backup_2017-04-06-1004__gt_movilsimos_66c809ab72b1-db-table-wp_usermeta.table.gz (3/12): adding to final database dump
0054.893 (0) backup_2017-04-06-1004__gt_movilsimos_66c809ab72b1-db-table-wp_commentmeta.table.gz (4/12): adding to final database dump
0054.919 (0) backup_2017-04-06-1004__gt_movilsimos_66c809ab72b1-db-table-wp_comments.table.gz (5/12): adding to final database dump
0054.925 (0) backup_2017-04-06-1004__gt_movilsimos_66c809ab72b1-db-table-wp_links.table.gz (6/12): adding to final database dump
0055.266 (0) backup_2017-04-06-1004__gt_movilsimos_66c809ab72b1-db-table-wp_postmeta.table.gz (7/12): adding to final database dump
0058.485 (0) backup_2017-04-06-1004__gt_movilsimos_66c809ab72b1-db-table-wp_posts.table.gz (8/12): adding to final database dump
0058.541 (0) backup_2017-04-06-1004__gt_movilsimos_66c809ab72b1-db-table-wp_term_relationships.table.gz (9/12): adding to final database dump
0058.599 (0) backup_2017-04-06-1004__gt_movilsimos_66c809ab72b1-db-table-wp_term_taxonomy.table.gz (10/12): adding to final database dump
0058.605 (0) backup_2017-04-06-1004__gt_movilsimos_66c809ab72b1-db-table-wp_termmeta.table.gz (11/12): adding to final database dump
0058.613 (0) backup_2017-04-06-1004__gt_movilsimos_66c809ab72b1-db-table-wp_terms.table.gz (12/12): adding to final database dump
0058.614 (0) backup_2017-04-06-1004__gt_movilsimos_66c809ab72b1-db.gz: finished writing out complete database file (128 KB)
0058.664 (0) Total database tables backed up: 12 (backup_2017-04-06-1004__gt_movilsimos_66c809ab72b1-db.gz, size: 155329, sha256)
0058.706 (0) backup_2017-04-06-1004__gt_movilsimos_66c809ab72b1-plugins.zip: plugins: This file has not yet been successfully uploaded: will queue
0058.711 (0) backup_2017-04-06-1004__gt_movilsimos_66c809ab72b1-themes.zip: themes: This file has not yet been successfully uploaded: will queue
0058.717 (0) backup_2017-04-06-1004__gt_movilsimos_66c809ab72b1-uploads.zip: uploads: This file has not yet been successfully uploaded: will queue
0058.731 (0) backup_2017-04-06-1004__gt_movilsimos_66c809ab72b1-others.zip: others: This file has not yet been successfully uploaded: will queue
0058.733 (0) backup_2017-04-06-1004__gt_movilsimos_66c809ab72b1-db.gz: db: This file has not yet been successfully uploaded: will queue
0058.734 (0) Saving backup history. Total backup size: 12.5 MB
0058.744 (0) Requesting upload of the files that have not yet been successfully uploaded (5)
0058.774 (0) Cloud backup selection (1/1): ftp (last)
0058.782 (0) Beginning dispatch of backup to remote (ftp)
0059.573 (0) FTP upload attempt: backup_2017-04-06-1004__gt_movilsimos_66c809ab72b1-plugins.zip -> ftp://ftp_wp_verticales@ftp.netsales.es//mnt/array1/BU_wp_verticales/backup_2017-04-06-1004__gt_movilsimos_66c809ab72b1-plugins.zip
0119.707 (0) PHP event: code E_WARNING: ftp_nb_fput(): PORT command successful (line 78, wp-content/plugins/updraftplus/includes/ftp.class.php)
0120.597 (0) FTP upload: error (0)
0120.619 (0) ERROR: FTP upload failed
0120.630 (0) An error condition has occurred for the first time during this job
0120.634 (0) FTP upload attempt: backup_2017-04-06-1004__gt_movilsimos_66c809ab72b1-themes.zip -> ftp://ftp_wp_verticales@ftp.netsales.es//mnt/array1/BU_wp_verticales/backup_2017-04-06-1004__gt_movilsimos_66c809ab72b1-themes.zip
0122.824 (0) PHP event: code E_WARNING: ftp_nb_fput(): Unable to build data connection: Connection timed out (line 78, wp-content/plugins/updraftplus/includes/ftp.class.php)
0124.532 (0) FTP upload: error (0)
0124.547 (0) ERROR: FTP upload failed
0124.552 (0) FTP upload attempt: backup_2017-04-06-1004__gt_movilsimos_66c809ab72b1-uploads.zip -> ftp://ftp_wp_verticales@ftp.netsales.es//mnt/array1/BU_wp_verticales/backup_2017-04-06-1004__gt_movilsimos_66c809ab72b1-uploads.zip
0124.583 (0) PHP event: code E_WARNING: ftp_nb_fput(): PORT command successful (line 78, wp-content/plugins/updraftplus/includes/ftp.class.php)
0124.585 (0) FTP upload: error (0)
0124.586 (0) ERROR: FTP upload failed
0124.587 (0) FTP upload attempt: backup_2017-04-06-1004__gt_movilsimos_66c809ab72b1-others.zip -> ftp://ftp_wp_verticales@ftp.netsales.es//mnt/array1/BU_wp_verticales/backup_2017-04-06-1004__gt_movilsimos_66c809ab72b1-others.zip
0184.599 (0) PHP event: code E_WARNING: ftp_nb_fput(): PORT command successful (line 78, wp-content/plugins/updraftplus/includes/ftp.class.php)
0184.603 (0) FTP upload: error (0)
0184.604 (0) ERROR: FTP upload failed
0184.615 (0) FTP upload attempt: backup_2017-04-06-1004__gt_movilsimos_66c809ab72b1-db.gz -> ftp://ftp_wp_verticales@ftp.netsales.es//mnt/array1/BU_wp_verticales/backup_2017-04-06-1004__gt_movilsimos_66c809ab72b1-db.gz
0187.784 (0) PHP event: code E_WARNING: ftp_nb_fput(): Unable to build data connection: Connection timed out (line 78, wp-content/plugins/updraftplus/includes/ftp.class.php)
0188.163 (0) FTP upload: error (0)
0188.177 (0) ERROR: FTP upload failed
0188.182 (0) Retain: beginning examination of existing backup sets; user setting: retain_files=2, retain_db=2
0188.184 (0) Number of backup sets in history: 1; groups (db): 1
0188.185 (0) Examining (for databases) backup set with group_id=0, nonce=66c809ab72b1, datestamp=1491469462 (Apr 06 2017 09:04:22)
0188.186 (0) This backup set is the backup set just made, so will not be deleted.
0188.187 (0) Number of backup sets in history: 1; groups (files): 1
0188.188 (0) Examining (for files) backup set with nonce=66c809ab72b1, datestamp=1491469462 (Apr 06 2017 09:04:22)
0188.189 (0) This backup set is the backup set just made, so will not be deleted.
0188.190 (0) This backup set is the backup set just made, so will not be deleted.
0188.190 (0) This backup set is the backup set just made, so will not be deleted.
0188.190 (0) This backup set is the backup set just made, so will not be deleted.
0188.190 (0) This backup set remains non-empty (f=1/d=1); will retain in history
0188.191 (0) Retain: saving new backup history (sets now: 1) and finishing retain operation
0188.194 (0) Resume backup (66c809ab72b1, 0): finish run
0188.202 (0) Decremented the semaphore (fd) by 1
0188.203 (0) Semaphore (fd) unlocked
0188.204 (0) There were errors in the uploads, so the 'resume' event is remaining scheduled
0188.208 (0) Rescheduling resumption 1: moving to 120 seconds from now (1491469770)
0188.211 (0) No email will/can be sent - the user has not configured an email address.
0188.212 (0) The backup has not finished; a resumption is scheduled
0324.004 (1) Opened log file at time: Thu, 06 Apr 2017 09:09:46 +0000 on http://movilisimos.com
0324.005 (1) UpdraftPlus WordPress backup plugin (https://updraftplus.com): 1.12.40 WP: 4.6.4 PHP: 5.5.9-1ubuntu4.20 (apache2handler, Linux wp-verticales 4.9.7-x86_64-linode80 #2 SMP Thu Feb 2 15:43:55 EST 2017 x86_64) MySQL: 5.5.52 WPLANG: en_US Server: Apache safe_mode: 0 max_execution_time: 900 memory_limit: 256M (used: 27.3M | 28M) multisite: N openssl: OpenSSL 1.0.1f 6 Jan 2014 mcrypt: Y LANG: C ZipArchive::addFile: Y
0324.007 (1) Free space on disk containing Updraft's temporary directory: 11589 MB
0324.017 (1) Backup run: resumption=1, nonce=66c809ab72b1, begun at=1491469462 (324s ago), job type=backup, previous check-in=54.1s
0324.038 (1) Scheduling a resumption (2) after 300 seconds (1491470086) in case this run gets aborted
0324.058 (1) Checking if we have a zip executable available
0324.060 (1) Creation of backups of directories: already finished
0324.060 (1) Saving backup status to database (elements: 8)
0324.063 (1) Database dump (WordPress DB): Creation was completed already
0324.067 (1) backup_2017-04-06-1004__gt_movilsimos_66c809ab72b1-plugins.zip: plugins: This file has not yet been successfully uploaded: will queue
0324.068 (1) backup_2017-04-06-1004__gt_movilsimos_66c809ab72b1-themes.zip: themes: This file has not yet been successfully uploaded: will queue
0324.069 (1) backup_2017-04-06-1004__gt_movilsimos_66c809ab72b1-uploads.zip: uploads: This file has not yet been successfully uploaded: will queue
0324.069 (1) backup_2017-04-06-1004__gt_movilsimos_66c809ab72b1-others.zip: others: This file has not yet been successfully uploaded: will queue
0324.070 (1) backup_2017-04-06-1004__gt_movilsimos_66c809ab72b1-db.gz: db: This file has not yet been successfully uploaded: will queue
0324.080 (1) Saving backup history. Total backup size: 12.5 MB
0324.092 (1) Requesting upload of the files that have not yet been successfully uploaded (5)
0324.104 (1) Cloud backup selection (1/1): ftp (last)
0324.106 (1) Beginning dispatch of backup to remote (ftp)
0324.970 (1) FTP upload attempt: backup_2017-04-06-1004__gt_movilsimos_66c809ab72b1-plugins.zip -> ftp://ftp_wp_verticales@ftp.netsales.es//mnt/array1/BU_wp_verticales/backup_2017-04-06-1004__gt_movilsimos_66c809ab72b1-plugins.zip
0385.114 (1) PHP event: code E_WARNING: ftp_nb_fput(): PORT command successful (line 78, wp-content/plugins/updraftplus/includes/ftp.class.php)
0385.117 (1) FTP upload: error (0)
0385.119 (1) ERROR: FTP upload failed
0385.120 (1) An error condition has occurred for the first time during this job
0385.121 (1) FTP upload attempt: backup_2017-04-06-1004__gt_movilsimos_66c809ab72b1-themes.zip -> ftp://ftp_wp_verticales@ftp.netsales.es//mnt/array1/BU_wp_verticales/backup_2017-04-06-1004__gt_movilsimos_66c809ab72b1-themes.zip
0388.263 (1) PHP event: code E_WARNING: ftp_nb_fput(): /mnt/array1/BU_wp_verticales/backup_2017-04-06-1004__gt_movilsimos_66c809ab72b1-themes.zip: No such file or directory (line 78, wp-content/plugins/updraftplus/includes/ftp.class.php)
0388.267 (1) FTP upload: error (0)
0388.269 (1) ERROR: FTP upload failed
0388.270 (1) FTP upload attempt: backup_2017-04-06-1004__gt_movilsimos_66c809ab72b1-uploads.zip -> ftp://ftp_wp_verticales@ftp.netsales.es//mnt/array1/BU_wp_verticales/backup_2017-04-06-1004__gt_movilsimos_66c809ab72b1-uploads.zip
0388.322 (1) PHP event: code E_WARNING: ftp_nb_fput(): 0 (line 78, wp-content/plugins/updraftplus/includes/ftp.class.php)
0388.331 (1) FTP upload: error (0)
0388.342 (1) ERROR: FTP upload failed
0388.345 (1) FTP upload attempt: backup_2017-04-06-1004__gt_movilsimos_66c809ab72b1-others.zip -> ftp://ftp_wp_verticales@ftp.netsales.es//mnt/array1/BU_wp_verticales/backup_2017-04-06-1004__gt_movilsimos_66c809ab72b1-others.zip
0388.381 (1) PHP event: code E_WARNING: ftp_nb_fput(): /mnt/array1/BU_wp_verticales/backup_2017-04-06-1004__gt_movilsimos_66c809ab72b1-others.zip: No such file or directory (line 78, wp-content/plugins/updraftplus/includes/ftp.class.php)
0388.384 (1) FTP upload: error (0)
0388.388 (1) ERROR: FTP upload failed
0388.391 (1) FTP upload attempt: backup_2017-04-06-1004__gt_movilsimos_66c809ab72b1-db.gz -> ftp://ftp_wp_verticales@ftp.netsales.es//mnt/array1/BU_wp_verticales/backup_2017-04-06-1004__gt_movilsimos_66c809ab72b1-db.gz
0388.442 (1) PHP event: code E_WARNING: ftp_nb_fput(): /mnt/array1/BU_wp_verticales/backup_2017-04-06-1004__gt_movilsimos_66c809ab72b1-db.gz: No such file or directory (line 78, wp-content/plugins/updraftplus/includes/ftp.class.php)
0388.449 (1) FTP upload: error (0)
0388.451 (1) ERROR: FTP upload failed
0388.480 (1) Retain: beginning examination of existing backup sets; user setting: retain_files=2, retain_db=2
0388.493 (1) Number of backup sets in history: 1; groups (db): 1
0388.495 (1) Examining (for databases) backup set with group_id=0, nonce=66c809ab72b1, datestamp=1491469462 (Apr 06 2017 09:04:22)
0388.497 (1) This backup set is the backup set just made, so will not be deleted.
0388.499 (1) Number of backup sets in history: 1; groups (files): 1
0388.500 (1) Examining (for files) backup set with nonce=66c809ab72b1, datestamp=1491469462 (Apr 06 2017 09:04:22)
0388.501 (1) This backup set is the backup set just made, so will not be deleted.
0388.503 (1) This backup set is the backup set just made, so will not be deleted.
0388.503 (1) This backup set is the backup set just made, so will not be deleted.
0388.503 (1) This backup set is the backup set just made, so will not be deleted.
0388.503 (1) This backup set remains non-empty (f=1/d=1); will retain in history
0388.505 (1) Retain: saving new backup history (sets now: 1) and finishing retain operation
0388.511 (1) Resume backup (66c809ab72b1, 1): finish run
0388.515 (1) There were errors in the uploads, so the 'resume' event is remaining scheduled
0388.528 (1) No email will/can be sent - the user has not configured an email address.
0388.530 (1) The backup has not finished; a resumption is scheduled
0774.694 (2) Opened log file at time: Thu, 06 Apr 2017 09:17:16 +0000 on http://movilisimos.com
0774.695 (2) UpdraftPlus WordPress backup plugin (https://updraftplus.com): 1.12.40 WP: 4.6.4 PHP: 5.5.9-1ubuntu4.20 (apache2handler, Linux wp-verticales 4.9.7-x86_64-linode80 #2 SMP Thu Feb 2 15:43:55 EST 2017 x86_64) MySQL: 5.5.52 WPLANG: en_US Server: Apache safe_mode: 0 max_execution_time: 900 memory_limit: 256M (used: 27.2M | 27.8M) multisite: N openssl: OpenSSL 1.0.1f 6 Jan 2014 mcrypt: Y LANG: C ZipArchive::addFile: Y
0774.696 (2) Free space on disk containing Updraft's temporary directory: 11588.7 MB
0774.704 (2) Backup run: resumption=2, nonce=66c809ab72b1, begun at=1491469462 (774s ago), job type=backup
0774.708 (2) Scheduling a resumption (3) after 300 seconds (1491470536) in case this run gets aborted
0774.733 (2) Checking if we have a zip executable available
0774.735 (2) Creation of backups of directories: already finished
0774.736 (2) Saving backup status to database (elements: 8)
0774.740 (2) Database dump (WordPress DB): Creation was completed already
0774.764 (2) backup_2017-04-06-1004__gt_movilsimos_66c809ab72b1-plugins.zip: plugins: This file has not yet been successfully uploaded: will queue
0774.767 (2) backup_2017-04-06-1004__gt_movilsimos_66c809ab72b1-themes.zip: themes: This file has not yet been successfully uploaded: will queue
0774.768 (2) backup_2017-04-06-1004__gt_movilsimos_66c809ab72b1-uploads.zip: uploads: This file has not yet been successfully uploaded: will queue
0774.769 (2) backup_2017-04-06-1004__gt_movilsimos_66c809ab72b1-others.zip: others: This file has not yet been successfully uploaded: will queue
0774.770 (2) backup_2017-04-06-1004__gt_movilsimos_66c809ab72b1-db.gz: db: This file has not yet been successfully uploaded: will queue
0774.772 (2) Saving backup history. Total backup size: 12.5 MB
0774.776 (2) Requesting upload of the files that have not yet been successfully uploaded (5)
0774.779 (2) Cloud backup selection (1/1): ftp (last)
0774.782 (2) Beginning dispatch of backup to remote (ftp)
0775.649 (2) FTP upload attempt: backup_2017-04-06-1004__gt_movilsimos_66c809ab72b1-plugins.zip -> ftp://ftp_wp_verticales@ftp.netsales.es//mnt/array1/BU_wp_verticales/backup_2017-04-06-1004__gt_movilsimos_66c809ab72b1-plugins.zip
0835.751 (2) PHP event: code E_WARNING: ftp_nb_fput(): PORT command successful (line 78, wp-content/plugins/updraftplus/includes/ftp.class.php)
0835.766 (2) FTP upload: error (0)
0835.771 (2) ERROR: FTP upload failed
0835.772 (2) An error condition has occurred for the first time during this job
0835.773 (2) FTP upload attempt: backup_2017-04-06-1004__gt_movilsimos_66c809ab72b1-themes.zip -> ftp://ftp_wp_verticales@ftp.netsales.es//mnt/array1/BU_wp_verticales/backup_2017-04-06-1004__gt_movilsimos_66c809ab72b1-themes.zip
0838.902 (2) PHP event: code E_WARNING: ftp_nb_fput(): /mnt/array1/BU_wp_verticales/backup_2017-04-06-1004__gt_movilsimos_66c809ab72b1-themes.zip: No such file or directory (line 78, wp-content/plugins/updraftplus/includes/ftp.class.php)
0838.905 (2) FTP upload: error (0)
0838.906 (2) ERROR: FTP upload failed
0838.907 (2) FTP upload attempt: backup_2017-04-06-1004__gt_movilsimos_66c809ab72b1-uploads.zip -> ftp://ftp_wp_verticales@ftp.netsales.es//mnt/array1/BU_wp_verticales/backup_2017-04-06-1004__gt_movilsimos_66c809ab72b1-uploads.zip
0838.959 (2) PHP event: code E_WARNING: ftp_nb_fput(): /mnt/array1/BU_wp_verticales/backup_2017-04-06-1004__gt_movilsimos_66c809ab72b1-uploads.zip: No such file or directory (line 78, wp-content/plugins/updraftplus/includes/ftp.class.php)
0838.962 (2) FTP upload: error (0)
0838.963 (2) ERROR: FTP upload failed
0838.964 (2) FTP upload attempt: backup_2017-04-06-1004__gt_movilsimos_66c809ab72b1-others.zip -> ftp://ftp_wp_verticales@ftp.netsales.es//mnt/array1/BU_wp_verticales/backup_2017-04-06-1004__gt_movilsimos_66c809ab72b1-others.zip
0839.017 (2) PHP event: code E_WARNING: ftp_nb_fput(): /mnt/array1/BU_wp_verticales/backup_2017-04-06-1004__gt_movilsimos_66c809ab72b1-others.zip: No such file or directory (line 78, wp-content/plugins/updraftplus/includes/ftp.class.php)
0839.020 (2) FTP upload: error (0)
0839.021 (2) ERROR: FTP upload failed
0839.022 (2) FTP upload attempt: backup_2017-04-06-1004__gt_movilsimos_66c809ab72b1-db.gz -> ftp://ftp_wp_verticales@ftp.netsales.es//mnt/array1/BU_wp_verticales/backup_2017-04-06-1004__gt_movilsimos_66c809ab72b1-db.gz
0839.075 (2) PHP event: code E_WARNING: ftp_nb_fput(): /mnt/array1/BU_wp_verticales/backup_2017-04-06-1004__gt_movilsimos_66c809ab72b1-db.gz: No such file or directory (line 78, wp-content/plugins/updraftplus/includes/ftp.class.php)
0839.077 (2) FTP upload: error (0)
0839.078 (2) ERROR: FTP upload failed
0839.080 (2) Retain: beginning examination of existing backup sets; user setting: retain_files=2, retain_db=2
0839.082 (2) Number of backup sets in history: 1; groups (db): 1
0839.083 (2) Examining (for databases) backup set with group_id=0, nonce=66c809ab72b1, datestamp=1491469462 (Apr 06 2017 09:04:22)
0839.093 (2) This backup set is the backup set just made, so will not be deleted.
0839.096 (2) Number of backup sets in history: 1; groups (files): 1
0839.097 (2) Examining (for files) backup set with nonce=66c809ab72b1, datestamp=1491469462 (Apr 06 2017 09:04:22)
0839.098 (2) This backup set is the backup set just made, so will not be deleted.
0839.099 (2) This backup set is the backup set just made, so will not be deleted.
0839.099 (2) This backup set is the backup set just made, so will not be deleted.
0839.099 (2) This backup set is the backup set just made, so will not be deleted.
0839.099 (2) This backup set remains non-empty (f=1/d=1); will retain in history
0839.100 (2) Retain: saving new backup history (sets now: 1) and finishing retain operation
0839.104 (2) Resume backup (66c809ab72b1, 2): finish run
0839.118 (2) There were errors in the uploads, so the 'resume' event is remaining scheduled
0839.140 (2) No email will/can be sent - the user has not configured an email address.
0839.142 (2) The backup has not finished; a resumption is scheduled
1074.475 (3) Opened log file at time: Thu, 06 Apr 2017 09:22:16 +0000 on http://movilisimos.com
1074.477 (3) UpdraftPlus WordPress backup plugin (https://updraftplus.com): 1.12.40 WP: 4.6.4 PHP: 5.5.9-1ubuntu4.20 (apache2handler, Linux wp-verticales 4.9.7-x86_64-linode80 #2 SMP Thu Feb 2 15:43:55 EST 2017 x86_64) MySQL: 5.5.52 WPLANG: en_US Server: Apache safe_mode: 0 max_execution_time: 900 memory_limit: 256M (used: 27.2M | 27.8M) multisite: N openssl: OpenSSL 1.0.1f 6 Jan 2014 mcrypt: Y LANG: C ZipArchive::addFile: Y
1074.479 (3) Free space on disk containing Updraft's temporary directory: 11588.6 MB
1074.491 (3) Backup run: resumption=3, nonce=66c809ab72b1, begun at=1491469462 (1074s ago), job type=backup
1074.511 (3) Scheduling a resumption (4) after 300 seconds (1491470836) in case this run gets aborted
1074.532 (3) Checking if we have a zip executable available
1074.533 (3) Creation of backups of directories: already finished
1074.535 (3) Saving backup status to database (elements: 8)
1074.537 (3) Database dump (WordPress DB): Creation was completed already
1074.569 (3) backup_2017-04-06-1004__gt_movilsimos_66c809ab72b1-plugins.zip: plugins: This file has not yet been successfully uploaded: will queue
1074.570 (3) backup_2017-04-06-1004__gt_movilsimos_66c809ab72b1-themes.zip: themes: This file has not yet been successfully uploaded: will queue
1074.572 (3) backup_2017-04-06-1004__gt_movilsimos_66c809ab72b1-uploads.zip: uploads: This file has not yet been successfully uploaded: will queue
1074.573 (3) backup_2017-04-06-1004__gt_movilsimos_66c809ab72b1-others.zip: others: This file has not yet been successfully uploaded: will queue
1074.573 (3) backup_2017-04-06-1004__gt_movilsimos_66c809ab72b1-db.gz: db: This file has not yet been successfully uploaded: will queue
1074.575 (3) Saving backup history. Total backup size: 12.5 MB
1074.577 (3) Requesting upload of the files that have not yet been successfully uploaded (5)
1074.580 (3) Cloud backup selection (1/1): ftp (last)
1074.582 (3) Beginning dispatch of backup to remote (ftp)
1075.417 (3) FTP upload attempt: backup_2017-04-06-1004__gt_movilsimos_66c809ab72b1-plugins.zip -> ftp://ftp_wp_verticales@ftp.netsales.es//mnt/array1/BU_wp_verticales/backup_2017-04-06-1004__gt_movilsimos_66c809ab72b1-plugins.zip
1135.574 (3) PHP event: code E_WARNING: ftp_nb_fput(): PORT command successful (line 78, wp-content/plugins/updraftplus/includes/ftp.class.php)
1135.577 (3) FTP upload: error (0)
1135.587 (3) ERROR: FTP upload failed
1135.589 (3) An error condition has occurred for the first time during this job
1135.590 (3) FTP upload attempt: backup_2017-04-06-1004__gt_movilsimos_66c809ab72b1-themes.zip -> ftp://ftp_wp_verticales@ftp.netsales.es//mnt/array1/BU_wp_verticales/backup_2017-04-06-1004__gt_movilsimos_66c809ab72b1-themes.zip
1138.672 (3) PHP event: code E_WARNING: ftp_nb_fput(): /mnt/array1/BU_wp_verticales/backup_2017-04-06-1004__gt_movilsimos_66c809ab72b1-themes.zip: No such file or directory (line 78, wp-content/plugins/updraftplus/includes/ftp.class.php)
1138.705 (3) FTP upload: error (0)
1138.751 (3) ERROR: FTP upload failed
1138.782 (3) FTP upload attempt: backup_2017-04-06-1004__gt_movilsimos_66c809ab72b1-uploads.zip -> ftp://ftp_wp_verticales@ftp.netsales.es//mnt/array1/BU_wp_verticales/backup_2017-04-06-1004__gt_movilsimos_66c809ab72b1-uploads.zip
1138.834 (3) PHP event: code E_WARNING: ftp_nb_fput(): /mnt/array1/BU_wp_verticales/backup_2017-04-06-1004__gt_movilsimos_66c809ab72b1-uploads.zip: No such file or directory (line 78, wp-content/plugins/updraftplus/includes/ftp.class.php)
1138.851 (3) FTP upload: error (0)
1138.877 (3) ERROR: FTP upload failed
1138.941 (3) FTP upload attempt: backup_2017-04-06-1004__gt_movilsimos_66c809ab72b1-others.zip -> ftp://ftp_wp_verticales@ftp.netsales.es//mnt/array1/BU_wp_verticales/backup_2017-04-06-1004__gt_movilsimos_66c809ab72b1-others.zip
1139.045 (3) PHP event: code E_WARNING: ftp_nb_fput(): /mnt/array1/BU_wp_verticales/backup_2017-04-06-1004__gt_movilsimos_66c809ab72b1-others.zip: No such file or directory (line 78, wp-content/plugins/updraftplus/includes/ftp.class.php)
1139.165 (3) FTP upload: error (0)
1139.263 (3) ERROR: FTP upload failed
1139.269 (3) FTP upload attempt: backup_2017-04-06-1004__gt_movilsimos_66c809ab72b1-db.gz -> ftp://ftp_wp_verticales@ftp.netsales.es//mnt/array1/BU_wp_verticales/backup_2017-04-06-1004__gt_movilsimos_66c809ab72b1-db.gz
1139.307 (3) PHP event: code E_WARNING: ftp_nb_fput(): /mnt/array1/BU_wp_verticales/backup_2017-04-06-1004__gt_movilsimos_66c809ab72b1-db.gz: No such file or directory (line 78, wp-content/plugins/updraftplus/includes/ftp.class.php)
1139.315 (3) FTP upload: error (0)
1139.323 (3) ERROR: FTP upload failed
1139.336 (3) Retain: beginning examination of existing backup sets; user setting: retain_files=2, retain_db=2
1139.344 (3) Number of backup sets in history: 1; groups (db): 1
1139.347 (3) Examining (for databases) backup set with group_id=0, nonce=66c809ab72b1, datestamp=1491469462 (Apr 06 2017 09:04:22)
1139.348 (3) This backup set is the backup set just made, so will not be deleted.
1139.350 (3) Number of backup sets in history: 1; groups (files): 1
1139.351 (3) Examining (for files) backup set with nonce=66c809ab72b1, datestamp=1491469462 (Apr 06 2017 09:04:22)
1139.353 (3) This backup set is the backup set just made, so will not be deleted.
1139.356 (3) This backup set is the backup set just made, so will not be deleted.
1139.356 (3) This backup set is the backup set just made, so will not be deleted.
1139.356 (3) This backup set is the backup set just made, so will not be deleted.
1139.356 (3) This backup set remains non-empty (f=1/d=1); will retain in history
1139.358 (3) Retain: saving new backup history (sets now: 1) and finishing retain operation
1139.373 (3) Resume backup (66c809ab72b1, 3): finish run
1139.379 (3) There were errors in the uploads, so the 'resume' event is remaining scheduled
1139.399 (3) No email will/can be sent - the user has not configured an email address.
1139.401 (3) The backup has not finished; a resumption is scheduled
1374.593 (4) Opened log file at time: Thu, 06 Apr 2017 09:27:16 +0000 on http://movilisimos.com
1374.595 (4) UpdraftPlus WordPress backup plugin (https://updraftplus.com): 1.12.40 WP: 4.6.4 PHP: 5.5.9-1ubuntu4.20 (apache2handler, Linux wp-verticales 4.9.7-x86_64-linode80 #2 SMP Thu Feb 2 15:43:55 EST 2017 x86_64) MySQL: 5.5.52 WPLANG: en_US Server: Apache safe_mode: 0 max_execution_time: 900 memory_limit: 256M (used: 27.2M | 27.8M) multisite: N openssl: OpenSSL 1.0.1f 6 Jan 2014 mcrypt: Y LANG: C ZipArchive::addFile: Y
1374.596 (4) Free space on disk containing Updraft's temporary directory: 11588.4 MB
1374.599 (4) Backup run: resumption=4, nonce=66c809ab72b1, begun at=1491469462 (1374s ago), job type=backup
1374.610 (4) Scheduling a resumption (5) after 300 seconds (1491471136) in case this run gets aborted
1374.621 (4) Checking if we have a zip executable available
1374.623 (4) Creation of backups of directories: already finished
1374.624 (4) Saving backup status to database (elements: 8)
1374.636 (4) Database dump (WordPress DB): Creation was completed already
1374.645 (4) backup_2017-04-06-1004__gt_movilsimos_66c809ab72b1-plugins.zip: plugins: This file has not yet been successfully uploaded: will queue
1374.656 (4) backup_2017-04-06-1004__gt_movilsimos_66c809ab72b1-themes.zip: themes: This file has not yet been successfully uploaded: will queue
1374.658 (4) backup_2017-04-06-1004__gt_movilsimos_66c809ab72b1-uploads.zip: uploads: This file has not yet been successfully uploaded: will queue
1374.660 (4) backup_2017-04-06-1004__gt_movilsimos_66c809ab72b1-others.zip: others: This file has not yet been successfully uploaded: will queue
1374.662 (4) backup_2017-04-06-1004__gt_movilsimos_66c809ab72b1-db.gz: db: This file has not yet been successfully uploaded: will queue
1374.663 (4) Saving backup history. Total backup size: 12.5 MB
1374.667 (4) Requesting upload of the files that have not yet been successfully uploaded (5)
1374.670 (4) Cloud backup selection (1/1): ftp (last)
1374.683 (4) Beginning dispatch of backup to remote (ftp)
1375.576 (4) FTP upload attempt: backup_2017-04-06-1004__gt_movilsimos_66c809ab72b1-plugins.zip -> ftp://ftp_wp_verticales@ftp.netsales.es//mnt/array1/BU_wp_verticales/backup_2017-04-06-1004__gt_movilsimos_66c809ab72b1-plugins.zip
1435.754 (4) PHP event: code E_WARNING: ftp_nb_fput(): PORT command successful (line 78, wp-content/plugins/updraftplus/includes/ftp.class.php)
1435.765 (4) FTP upload: error (0)
1435.767 (4) ERROR: FTP upload failed
1435.769 (4) An error condition has occurred for the first time during this job
1435.770 (4) FTP upload attempt: backup_2017-04-06-1004__gt_movilsimos_66c809ab72b1-themes.zip -> ftp://ftp_wp_verticales@ftp.netsales.es//mnt/array1/BU_wp_verticales/backup_2017-04-06-1004__gt_movilsimos_66c809ab72b1-themes.zip
1499.010 (4) PHP event: code E_WARNING: ftp_nb_fput(): PORT command successful (line 78, wp-content/plugins/updraftplus/includes/ftp.class.php)
1499.013 (4) FTP upload: error (0)
1499.015 (4) ERROR: FTP upload failed
1499.016 (4) FTP upload attempt: backup_2017-04-06-1004__gt_movilsimos_66c809ab72b1-uploads.zip -> ftp://ftp_wp_verticales@ftp.netsales.es//mnt/array1/BU_wp_verticales/backup_2017-04-06-1004__gt_movilsimos_66c809ab72b1-uploads.zip
1502.181 (4) PHP event: code E_WARNING: ftp_nb_fput(): /mnt/array1/BU_wp_verticales/backup_2017-04-06-1004__gt_movilsimos_66c809ab72b1-uploads.zip: No such file or directory (line 78, wp-content/plugins/updraftplus/includes/ftp.class.php)
1502.183 (4) FTP upload: error (0)
1502.184 (4) ERROR: FTP upload failed
1502.185 (4) FTP upload attempt: backup_2017-04-06-1004__gt_movilsimos_66c809ab72b1-others.zip -> ftp://ftp_wp_verticales@ftp.netsales.es//mnt/array1/BU_wp_verticales/backup_2017-04-06-1004__gt_movilsimos_66c809ab72b1-others.zip
1502.256 (4) PHP event: code E_WARNING: ftp_nb_fput(): /mnt/array1/BU_wp_verticales/backup_2017-04-06-1004__gt_movilsimos_66c809ab72b1-others.zip: No such file or directory (line 78, wp-content/plugins/updraftplus/includes/ftp.class.php)
1502.258 (4) FTP upload: error (0)
1502.259 (4) ERROR: FTP upload failed
1502.260 (4) FTP upload attempt: backup_2017-04-06-1004__gt_movilsimos_66c809ab72b1-db.gz -> ftp://ftp_wp_verticales@ftp.netsales.es//mnt/array1/BU_wp_verticales/backup_2017-04-06-1004__gt_movilsimos_66c809ab72b1-db.gz
1502.332 (4) PHP event: code E_WARNING: ftp_nb_fput(): /mnt/array1/BU_wp_verticales/backup_2017-04-06-1004__gt_movilsimos_66c809ab72b1-db.gz: No such file or directory (line 78, wp-content/plugins/updraftplus/includes/ftp.class.php)
1502.335 (4) FTP upload: error (0)
1502.336 (4) ERROR: FTP upload failed
1502.347 (4) Retain: beginning examination of existing backup sets; user setting: retain_files=2, retain_db=2
1502.350 (4) Number of backup sets in history: 1; groups (db): 1
1502.351 (4) Examining (for databases) backup set with group_id=0, nonce=66c809ab72b1, datestamp=1491469462 (Apr 06 2017 09:04:22)
1502.361 (4) This backup set is the backup set just made, so will not be deleted.
1502.362 (4) Number of backup sets in history: 1; groups (files): 1
1502.364 (4) Examining (for files) backup set with nonce=66c809ab72b1, datestamp=1491469462 (Apr 06 2017 09:04:22)
1502.366 (4) This backup set is the backup set just made, so will not be deleted.
1502.367 (4) This backup set is the backup set just made, so will not be deleted.
1502.367 (4) This backup set is the backup set just made, so will not be deleted.
1502.367 (4) This backup set is the backup set just made, so will not be deleted.
1502.367 (4) This backup set remains non-empty (f=1/d=1); will retain in history
1502.369 (4) Retain: saving new backup history (sets now: 1) and finishing retain operation
1502.373 (4) Resume backup (66c809ab72b1, 4): finish run
1502.377 (4) There were errors in the uploads, so the 'resume' event is remaining scheduled
1502.391 (4) No email will/can be sent - the user has not configured an email address.
1502.393 (4) The backup has not finished; a resumption is scheduled
1674.550 (5) Opened log file at time: Thu, 06 Apr 2017 09:32:16 +0000 on http://movilisimos.com
1674.552 (5) UpdraftPlus WordPress backup plugin (https://updraftplus.com): 1.12.40 WP: 4.6.4 PHP: 5.5.9-1ubuntu4.20 (apache2handler, Linux wp-verticales 4.9.7-x86_64-linode80 #2 SMP Thu Feb 2 15:43:55 EST 2017 x86_64) MySQL: 5.5.52 WPLANG: en_US Server: Apache safe_mode: 0 max_execution_time: 900 memory_limit: 256M (used: 27.2M | 27.8M) multisite: N openssl: OpenSSL 1.0.1f 6 Jan 2014 mcrypt: Y LANG: C ZipArchive::addFile: Y
1674.552 (5) Free space on disk containing Updraft's temporary directory: 11588.3 MB
1674.555 (5) Backup run: resumption=5, nonce=66c809ab72b1, begun at=1491469462 (1674s ago), job type=backup
1674.557 (5) Scheduling a resumption (6) after 300 seconds (1491471436) in case this run gets aborted
1674.567 (5) Checking if we have a zip executable available
1674.569 (5) Creation of backups of directories: already finished
1674.569 (5) Saving backup status to database (elements: 8)
1674.572 (5) Database dump (WordPress DB): Creation was completed already
1674.576 (5) backup_2017-04-06-1004__gt_movilsimos_66c809ab72b1-plugins.zip: plugins: This file has not yet been successfully uploaded: will queue
1674.577 (5) backup_2017-04-06-1004__gt_movilsimos_66c809ab72b1-themes.zip: themes: This file has not yet been successfully uploaded: will queue
1674.578 (5) backup_2017-04-06-1004__gt_movilsimos_66c809ab72b1-uploads.zip: uploads: This file has not yet been successfully uploaded: will queue
1674.579 (5) backup_2017-04-06-1004__gt_movilsimos_66c809ab72b1-others.zip: others: This file has not yet been successfully uploaded: will queue
1674.580 (5) backup_2017-04-06-1004__gt_movilsimos_66c809ab72b1-db.gz: db: This file has not yet been successfully uploaded: will queue
1674.581 (5) Saving backup history. Total backup size: 12.5 MB
1674.584 (5) Requesting upload of the files that have not yet been successfully uploaded (5)
1674.587 (5) Cloud backup selection (1/1): ftp (last)
1674.590 (5) Beginning dispatch of backup to remote (ftp)
1675.463 (5) FTP upload attempt: backup_2017-04-06-1004__gt_movilsimos_66c809ab72b1-plugins.zip -> ftp://ftp_wp_verticales@ftp.netsales.es//mnt/array1/BU_wp_verticales/backup_2017-04-06-1004__gt_movilsimos_66c809ab72b1-plugins.zip
1735.615 (5) PHP event: code E_WARNING: ftp_nb_fput(): PORT command successful (line 78, wp-content/plugins/updraftplus/includes/ftp.class.php)
1735.617 (5) FTP upload: error (0)
1735.619 (5) ERROR: FTP upload failed
1735.620 (5) An error condition has occurred for the first time during this job
1735.622 (5) FTP upload attempt: backup_2017-04-06-1004__gt_movilsimos_66c809ab72b1-themes.zip -> ftp://ftp_wp_verticales@ftp.netsales.es//mnt/array1/BU_wp_verticales/backup_2017-04-06-1004__gt_movilsimos_66c809ab72b1-themes.zip
1738.741 (5) PHP event: code E_WARNING: ftp_nb_fput(): 0 (line 78, wp-content/plugins/updraftplus/includes/ftp.class.php)
1738.743 (5) FTP upload: error (0)
1738.745 (5) ERROR: FTP upload failed
1738.746 (5) FTP upload attempt: backup_2017-04-06-1004__gt_movilsimos_66c809ab72b1-uploads.zip -> ftp://ftp_wp_verticales@ftp.netsales.es//mnt/array1/BU_wp_verticales/backup_2017-04-06-1004__gt_movilsimos_66c809ab72b1-uploads.zip
1738.800 (5) PHP event: code E_WARNING: ftp_nb_fput(): /mnt/array1/BU_wp_verticales/backup_2017-04-06-1004__gt_movilsimos_66c809ab72b1-uploads.zip: No such file or directory (line 78, wp-content/plugins/updraftplus/includes/ftp.class.php)
1738.802 (5) FTP upload: error (0)
1738.803 (5) ERROR: FTP upload failed
1738.804 (5) FTP upload attempt: backup_2017-04-06-1004__gt_movilsimos_66c809ab72b1-others.zip -> ftp://ftp_wp_verticales@ftp.netsales.es//mnt/array1/BU_wp_verticales/backup_2017-04-06-1004__gt_movilsimos_66c809ab72b1-others.zip
1738.861 (5) PHP event: code E_WARNING: ftp_nb_fput(): /mnt/array1/BU_wp_verticales/backup_2017-04-06-1004__gt_movilsimos_66c809ab72b1-others.zip: No such file or directory (line 78, wp-content/plugins/updraftplus/includes/ftp.class.php)
1738.864 (5) FTP upload: error (0)
1738.865 (5) ERROR: FTP upload failed
1738.866 (5) FTP upload attempt: backup_2017-04-06-1004__gt_movilsimos_66c809ab72b1-db.gz -> ftp://ftp_wp_verticales@ftp.netsales.es//mnt/array1/BU_wp_verticales/backup_2017-04-06-1004__gt_movilsimos_66c809ab72b1-db.gz
1738.921 (5) PHP event: code E_WARNING: ftp_nb_fput(): /mnt/array1/BU_wp_verticales/backup_2017-04-06-1004__gt_movilsimos_66c809ab72b1-db.gz: No such file or directory (line 78, wp-content/plugins/updraftplus/includes/ftp.class.php)
1738.924 (5) FTP upload: error (0)
1738.926 (5) ERROR: FTP upload failed
1738.929 (5) Retain: beginning examination of existing backup sets; user setting: retain_files=2, retain_db=2
1738.930 (5) Number of backup sets in history: 1; groups (db): 1
1738.932 (5) Examining (for databases) backup set with group_id=0, nonce=66c809ab72b1, datestamp=1491469462 (Apr 06 2017 09:04:22)
1738.933 (5) This backup set is the backup set just made, so will not be deleted.
1738.934 (5) Number of backup sets in history: 1; groups (files): 1
1738.935 (5) Examining (for files) backup set with nonce=66c809ab72b1, datestamp=1491469462 (Apr 06 2017 09:04:22)
1738.936 (5) This backup set is the backup set just made, so will not be deleted.
1738.937 (5) This backup set is the backup set just made, so will not be deleted.
1738.937 (5) This backup set is the backup set just made, so will not be deleted.
1738.937 (5) This backup set is the backup set just made, so will not be deleted.
1738.938 (5) This backup set remains non-empty (f=1/d=1); will retain in history
1738.939 (5) Retain: saving new backup history (sets now: 1) and finishing retain operation
1738.951 (5) Resume backup (66c809ab72b1, 5): finish run
1738.956 (5) There were errors in the uploads, so the 'resume' event is remaining scheduled
1738.960 (5) No email will/can be sent - the user has not configured an email address.
1738.961 (5) The backup has not finished; a resumption is scheduled
1974.567 (6) Opened log file at time: Thu, 06 Apr 2017 09:37:16 +0000 on http://movilisimos.com
1974.571 (6) UpdraftPlus WordPress backup plugin (https://updraftplus.com): 1.12.40 WP: 4.6.4 PHP: 5.5.9-1ubuntu4.20 (apache2handler, Linux wp-verticales 4.9.7-x86_64-linode80 #2 SMP Thu Feb 2 15:43:55 EST 2017 x86_64) MySQL: 5.5.52 WPLANG: en_US Server: Apache safe_mode: 0 max_execution_time: 900 memory_limit: 256M (used: 27.2M | 27.8M) multisite: N openssl: OpenSSL 1.0.1f 6 Jan 2014 mcrypt: Y LANG: C ZipArchive::addFile: Y
1974.573 (6) Free space on disk containing Updraft's temporary directory: 11587.9 MB
1974.577 (6) Backup run: resumption=6, nonce=66c809ab72b1, begun at=1491469462 (1974s ago), job type=backup
1974.579 (6) Scheduling a resumption (7) after 300 seconds (1491471736) in case this run gets aborted
1974.588 (6) Checking if we have a zip executable available
1974.590 (6) Creation of backups of directories: already finished
1974.592 (6) Saving backup status to database (elements: 8)
1974.595 (6) Database dump (WordPress DB): Creation was completed already
1974.600 (6) backup_2017-04-06-1004__gt_movilsimos_66c809ab72b1-plugins.zip: plugins: This file has not yet been successfully uploaded: will queue
1974.601 (6) backup_2017-04-06-1004__gt_movilsimos_66c809ab72b1-themes.zip: themes: This file has not yet been successfully uploaded: will queue
1974.602 (6) backup_2017-04-06-1004__gt_movilsimos_66c809ab72b1-uploads.zip: uploads: This file has not yet been successfully uploaded: will queue
1974.603 (6) backup_2017-04-06-1004__gt_movilsimos_66c809ab72b1-others.zip: others: This file has not yet been successfully uploaded: will queue
1974.604 (6) backup_2017-04-06-1004__gt_movilsimos_66c809ab72b1-db.gz: db: This file has not yet been successfully uploaded: will queue
1974.605 (6) Saving backup history. Total backup size: 12.5 MB
1974.607 (6) Requesting upload of the files that have not yet been successfully uploaded (5)
1974.610 (6) Cloud backup selection (1/1): ftp (last)
1974.612 (6) Beginning dispatch of backup to remote (ftp)
1975.454 (6) FTP upload attempt: backup_2017-04-06-1004__gt_movilsimos_66c809ab72b1-plugins.zip -> ftp://ftp_wp_verticales@ftp.netsales.es//mnt/array1/BU_wp_verticales/backup_2017-04-06-1004__gt_movilsimos_66c809ab72b1-plugins.zip
2035.632 (6) PHP event: code E_WARNING: ftp_nb_fput(): PORT command successful (line 78, wp-content/plugins/updraftplus/includes/ftp.class.php)
2035.634 (6) FTP upload: error (0)
2035.635 (6) ERROR: FTP upload failed
2035.636 (6) An error condition has occurred for the first time during this job
2035.637 (6) FTP upload attempt: backup_2017-04-06-1004__gt_movilsimos_66c809ab72b1-themes.zip -> ftp://ftp_wp_verticales@ftp.netsales.es//mnt/array1/BU_wp_verticales/backup_2017-04-06-1004__gt_movilsimos_66c809ab72b1-themes.zip
2038.739 (6) PHP event: code E_WARNING: ftp_nb_fput(): 0 (line 78, wp-content/plugins/updraftplus/includes/ftp.class.php)
2038.741 (6) FTP upload: error (0)
2038.743 (6) ERROR: FTP upload failed
2038.744 (6) FTP upload attempt: backup_2017-04-06-1004__gt_movilsimos_66c809ab72b1-uploads.zip -> ftp://ftp_wp_verticales@ftp.netsales.es//mnt/array1/BU_wp_verticales/backup_2017-04-06-1004__gt_movilsimos_66c809ab72b1-uploads.zip
2038.813 (6) PHP event: code E_WARNING: ftp_nb_fput(): /mnt/array1/BU_wp_verticales/backup_2017-04-06-1004__gt_movilsimos_66c809ab72b1-uploads.zip: No such file or directory (line 78, wp-content/plugins/updraftplus/includes/ftp.class.php)
2038.816 (6) FTP upload: error (0)
2038.817 (6) ERROR: FTP upload failed
2038.818 (6) FTP upload attempt: backup_2017-04-06-1004__gt_movilsimos_66c809ab72b1-others.zip -> ftp://ftp_wp_verticales@ftp.netsales.es//mnt/array1/BU_wp_verticales/backup_2017-04-06-1004__gt_movilsimos_66c809ab72b1-others.zip
2038.889 (6) PHP event: code E_WARNING: ftp_nb_fput(): /mnt/array1/BU_wp_verticales/backup_2017-04-06-1004__gt_movilsimos_66c809ab72b1-others.zip: No such file or directory (line 78, wp-content/plugins/updraftplus/includes/ftp.class.php)
2038.892 (6) FTP upload: error (0)
2038.892 (6) ERROR: FTP upload failed
2038.893 (6) FTP upload attempt: backup_2017-04-06-1004__gt_movilsimos_66c809ab72b1-db.gz -> ftp://ftp_wp_verticales@ftp.netsales.es//mnt/array1/BU_wp_verticales/backup_2017-04-06-1004__gt_movilsimos_66c809ab72b1-db.gz
2038.965 (6) PHP event: code E_WARNING: ftp_nb_fput(): /mnt/array1/BU_wp_verticales/backup_2017-04-06-1004__gt_movilsimos_66c809ab72b1-db.gz: No such file or directory (line 78, wp-content/plugins/updraftplus/includes/ftp.class.php)
2038.968 (6) FTP upload: error (0)
2038.969 (6) ERROR: FTP upload failed
2038.971 (6) Retain: beginning examination of existing backup sets; user setting: retain_files=2, retain_db=2
2038.972 (6) Number of backup sets in history: 1; groups (db): 1
2038.973 (6) Examining (for databases) backup set with group_id=0, nonce=66c809ab72b1, datestamp=1491469462 (Apr 06 2017 09:04:22)
2038.975 (6) This backup set is the backup set just made, so will not be deleted.
2038.976 (6) Number of backup sets in history: 1; groups (files): 1
2038.976 (6) Examining (for files) backup set with nonce=66c809ab72b1, datestamp=1491469462 (Apr 06 2017 09:04:22)
2038.977 (6) This backup set is the backup set just made, so will not be deleted.
2038.978 (6) This backup set is the backup set just made, so will not be deleted.
2038.979 (6) This backup set is the backup set just made, so will not be deleted.
2038.979 (6) This backup set is the backup set just made, so will not be deleted.
2038.979 (6) This backup set remains non-empty (f=1/d=1); will retain in history
2038.980 (6) Retain: saving new backup history (sets now: 1) and finishing retain operation
2039.003 (6) Resume backup (66c809ab72b1, 6): finish run
2039.008 (6) There were errors in the uploads, so the 'resume' event is remaining scheduled
2039.012 (6) No email will/can be sent - the user has not configured an email address.
2039.012 (6) The backup has not finished; a resumption is scheduled
2274.603 (7) Opened log file at time: Thu, 06 Apr 2017 09:42:16 +0000 on http://movilisimos.com
2274.604 (7) UpdraftPlus WordPress backup plugin (https://updraftplus.com): 1.12.40 WP: 4.6.4 PHP: 5.5.9-1ubuntu4.20 (apache2handler, Linux wp-verticales 4.9.7-x86_64-linode80 #2 SMP Thu Feb 2 15:43:55 EST 2017 x86_64) MySQL: 5.5.52 WPLANG: en_US Server: Apache safe_mode: 0 max_execution_time: 900 memory_limit: 256M (used: 27.2M | 27.8M) multisite: N openssl: OpenSSL 1.0.1f 6 Jan 2014 mcrypt: Y LANG: C ZipArchive::addFile: Y
2274.605 (7) Free space on disk containing Updraft's temporary directory: 11587.8 MB
2274.607 (7) Backup run: resumption=7, nonce=66c809ab72b1, begun at=1491469462 (2274s ago), job type=backup
2274.610 (7) Scheduling a resumption (8) after 300 seconds (1491472036) in case this run gets aborted
2274.623 (7) Checking if we have a zip executable available
2274.625 (7) Creation of backups of directories: already finished
2274.626 (7) Saving backup status to database (elements: 8)
2274.628 (7) Database dump (WordPress DB): Creation was completed already
2274.632 (7) backup_2017-04-06-1004__gt_movilsimos_66c809ab72b1-plugins.zip: plugins: This file has not yet been successfully uploaded: will queue
2274.633 (7) backup_2017-04-06-1004__gt_movilsimos_66c809ab72b1-themes.zip: themes: This file has not yet been successfully uploaded: will queue
2274.634 (7) backup_2017-04-06-1004__gt_movilsimos_66c809ab72b1-uploads.zip: uploads: This file has not yet been successfully uploaded: will queue
2274.635 (7) backup_2017-04-06-1004__gt_movilsimos_66c809ab72b1-others.zip: others: This file has not yet been successfully uploaded: will queue
2274.636 (7) backup_2017-04-06-1004__gt_movilsimos_66c809ab72b1-db.gz: db: This file has not yet been successfully uploaded: will queue
2274.636 (7) Saving backup history. Total backup size: 12.5 MB
2274.639 (7) Requesting upload of the files that have not yet been successfully uploaded (5)
2274.641 (7) Cloud backup selection (1/1): ftp (last)
2274.643 (7) Beginning dispatch of backup to remote (ftp)
2275.494 (7) FTP upload attempt: backup_2017-04-06-1004__gt_movilsimos_66c809ab72b1-plugins.zip -> ftp://ftp_wp_verticales@ftp.netsales.es//mnt/array1/BU_wp_verticales/backup_2017-04-06-1004__gt_movilsimos_66c809ab72b1-plugins.zip
2335.656 (7) PHP event: code E_WARNING: ftp_nb_fput(): PORT command successful (line 78, wp-content/plugins/updraftplus/includes/ftp.class.php)
2335.659 (7) FTP upload: error (0)
2335.661 (7) ERROR: FTP upload failed
2335.662 (7) An error condition has occurred for the first time during this job
2335.663 (7) FTP upload attempt: backup_2017-04-06-1004__gt_movilsimos_66c809ab72b1-themes.zip -> ftp://ftp_wp_verticales@ftp.netsales.es//mnt/array1/BU_wp_verticales/backup_2017-04-06-1004__gt_movilsimos_66c809ab72b1-themes.zip
2338.818 (7) PHP event: code E_WARNING: ftp_nb_fput(): 0 (line 78, wp-content/plugins/updraftplus/includes/ftp.class.php)
2338.820 (7) FTP upload: error (0)
2338.822 (7) ERROR: FTP upload failed
2338.823 (7) FTP upload attempt: backup_2017-04-06-1004__gt_movilsimos_66c809ab72b1-uploads.zip -> ftp://ftp_wp_verticales@ftp.netsales.es//mnt/array1/BU_wp_verticales/backup_2017-04-06-1004__gt_movilsimos_66c809ab72b1-uploads.zip
2338.883 (7) PHP event: code E_WARNING: ftp_nb_fput(): /mnt/array1/BU_wp_verticales/backup_2017-04-06-1004__gt_movilsimos_66c809ab72b1-uploads.zip: No such file or directory (line 78, wp-content/plugins/updraftplus/includes/ftp.class.php)
2338.885 (7) FTP upload: error (0)
2338.886 (7) ERROR: FTP upload failed
2338.887 (7) FTP upload attempt: backup_2017-04-06-1004__gt_movilsimos_66c809ab72b1-others.zip -> ftp://ftp_wp_verticales@ftp.netsales.es//mnt/array1/BU_wp_verticales/backup_2017-04-06-1004__gt_movilsimos_66c809ab72b1-others.zip
2338.949 (7) PHP event: code E_WARNING: ftp_nb_fput(): /mnt/array1/BU_wp_verticales/backup_2017-04-06-1004__gt_movilsimos_66c809ab72b1-others.zip: No such file or directory (line 78, wp-content/plugins/updraftplus/includes/ftp.class.php)
2338.951 (7) FTP upload: error (0)
2338.952 (7) ERROR: FTP upload failed
2338.953 (7) FTP upload attempt: backup_2017-04-06-1004__gt_movilsimos_66c809ab72b1-db.gz -> ftp://ftp_wp_verticales@ftp.netsales.es//mnt/array1/BU_wp_verticales/backup_2017-04-06-1004__gt_movilsimos_66c809ab72b1-db.gz
2339.015 (7) PHP event: code E_WARNING: ftp_nb_fput(): /mnt/array1/BU_wp_verticales/backup_2017-04-06-1004__gt_movilsimos_66c809ab72b1-db.gz: No such file or directory (line 78, wp-content/plugins/updraftplus/includes/ftp.class.php)
2339.021 (7) FTP upload: error (0)
2339.025 (7) ERROR: FTP upload failed
2339.031 (7) Retain: beginning examination of existing backup sets; user setting: retain_files=2, retain_db=2
2339.036 (7) Number of backup sets in history: 1; groups (db): 1
2339.037 (7) Examining (for databases) backup set with group_id=0, nonce=66c809ab72b1, datestamp=1491469462 (Apr 06 2017 09:04:22)
2339.038 (7) This backup set is the backup set just made, so will not be deleted.
2339.039 (7) Number of backup sets in history: 1; groups (files): 1
2339.040 (7) Examining (for files) backup set with nonce=66c809ab72b1, datestamp=1491469462 (Apr 06 2017 09:04:22)
2339.041 (7) This backup set is the backup set just made, so will not be deleted.
2339.042 (7) This backup set is the backup set just made, so will not be deleted.
2339.042 (7) This backup set is the backup set just made, so will not be deleted.
2339.043 (7) This backup set is the backup set just made, so will not be deleted.
2339.043 (7) This backup set remains non-empty (f=1/d=1); will retain in history
2339.043 (7) Retain: saving new backup history (sets now: 1) and finishing retain operation
2339.048 (7) Resume backup (66c809ab72b1, 7): finish run
2339.057 (7) There were errors in the uploads, so the 'resume' event is remaining scheduled
2339.063 (7) No email will/can be sent - the user has not configured an email address.
2339.064 (7) The backup has not finished; a resumption is scheduled
2574.585 (8) Opened log file at time: Thu, 06 Apr 2017 09:47:16 +0000 on http://movilisimos.com
2574.586 (8) UpdraftPlus WordPress backup plugin (https://updraftplus.com): 1.12.40 WP: 4.6.4 PHP: 5.5.9-1ubuntu4.20 (apache2handler, Linux wp-verticales 4.9.7-x86_64-linode80 #2 SMP Thu Feb 2 15:43:55 EST 2017 x86_64) MySQL: 5.5.52 WPLANG: en_US Server: Apache safe_mode: 0 max_execution_time: 900 memory_limit: 256M (used: 27.2M | 27.8M) multisite: N openssl: OpenSSL 1.0.1f 6 Jan 2014 mcrypt: Y LANG: C ZipArchive::addFile: Y
2574.588 (8) Free space on disk containing Updraft's temporary directory: 11587.6 MB
2574.590 (8) Backup run: resumption=8, nonce=66c809ab72b1, begun at=1491469462 (2574s ago), job type=backup
2574.591 (8) Scheduling a resumption (9) after 300 seconds (1491472336) in case this run gets aborted
2574.606 (8) Checking if we have a zip executable available
2574.608 (8) Creation of backups of directories: already finished
2574.610 (8) Saving backup status to database (elements: 8)
2574.613 (8) Database dump (WordPress DB): Creation was completed already
2574.618 (8) backup_2017-04-06-1004__gt_movilsimos_66c809ab72b1-plugins.zip: plugins: This file has not yet been successfully uploaded: will queue
2574.619 (8) backup_2017-04-06-1004__gt_movilsimos_66c809ab72b1-themes.zip: themes: This file has not yet been successfully uploaded: will queue
2574.620 (8) backup_2017-04-06-1004__gt_movilsimos_66c809ab72b1-uploads.zip: uploads: This file has not yet been successfully uploaded: will queue
2574.622 (8) backup_2017-04-06-1004__gt_movilsimos_66c809ab72b1-others.zip: others: This file has not yet been successfully uploaded: will queue
2574.623 (8) backup_2017-04-06-1004__gt_movilsimos_66c809ab72b1-db.gz: db: This file has not yet been successfully uploaded: will queue
2574.624 (8) Saving backup history. Total backup size: 12.5 MB
2574.626 (8) Requesting upload of the files that have not yet been successfully uploaded (5)
2574.629 (8) Cloud backup selection (1/1): ftp (last)
2574.631 (8) Beginning dispatch of backup to remote (ftp)
2575.421 (8) FTP upload attempt: backup_2017-04-06-1004__gt_movilsimos_66c809ab72b1-plugins.zip -> ftp://ftp_wp_verticales@ftp.netsales.es//mnt/array1/BU_wp_verticales/backup_2017-04-06-1004__gt_movilsimos_66c809ab72b1-plugins.zip
2635.572 (8) PHP event: code E_WARNING: ftp_nb_fput(): PORT command successful (line 78, wp-content/plugins/updraftplus/includes/ftp.class.php)
2635.574 (8) FTP upload: error (0)
2635.576 (8) ERROR: FTP upload failed
2635.577 (8) An error condition has occurred for the first time during this job
2635.578 (8) FTP upload attempt: backup_2017-04-06-1004__gt_movilsimos_66c809ab72b1-themes.zip -> ftp://ftp_wp_verticales@ftp.netsales.es//mnt/array1/BU_wp_verticales/backup_2017-04-06-1004__gt_movilsimos_66c809ab72b1-themes.zip
2638.657 (8) PHP event: code E_WARNING: ftp_nb_fput(): 0 (line 78, wp-content/plugins/updraftplus/includes/ftp.class.php)
2638.659 (8) FTP upload: error (0)
2638.660 (8) ERROR: FTP upload failed
2638.662 (8) FTP upload attempt: backup_2017-04-06-1004__gt_movilsimos_66c809ab72b1-uploads.zip -> ftp://ftp_wp_verticales@ftp.netsales.es//mnt/array1/BU_wp_verticales/backup_2017-04-06-1004__gt_movilsimos_66c809ab72b1-uploads.zip
2638.715 (8) PHP event: code E_WARNING: ftp_nb_fput(): /mnt/array1/BU_wp_verticales/backup_2017-04-06-1004__gt_movilsimos_66c809ab72b1-uploads.zip: No such file or directory (line 78, wp-content/plugins/updraftplus/includes/ftp.class.php)
2638.717 (8) FTP upload: error (0)
2638.719 (8) ERROR: FTP upload failed
2638.720 (8) FTP upload attempt: backup_2017-04-06-1004__gt_movilsimos_66c809ab72b1-others.zip -> ftp://ftp_wp_verticales@ftp.netsales.es//mnt/array1/BU_wp_verticales/backup_2017-04-06-1004__gt_movilsimos_66c809ab72b1-others.zip
2638.775 (8) PHP event: code E_WARNING: ftp_nb_fput(): /mnt/array1/BU_wp_verticales/backup_2017-04-06-1004__gt_movilsimos_66c809ab72b1-others.zip: No such file or directory (line 78, wp-content/plugins/updraftplus/includes/ftp.class.php)
2638.777 (8) FTP upload: error (0)
2638.778 (8) ERROR: FTP upload failed
2638.779 (8) FTP upload attempt: backup_2017-04-06-1004__gt_movilsimos_66c809ab72b1-db.gz -> ftp://ftp_wp_verticales@ftp.netsales.es//mnt/array1/BU_wp_verticales/backup_2017-04-06-1004__gt_movilsimos_66c809ab72b1-db.gz
2638.834 (8) PHP event: code E_WARNING: ftp_nb_fput(): /mnt/array1/BU_wp_verticales/backup_2017-04-06-1004__gt_movilsimos_66c809ab72b1-db.gz: No such file or directory (line 78, wp-content/plugins/updraftplus/includes/ftp.class.php)
2638.837 (8) FTP upload: error (0)
2638.838 (8) ERROR: FTP upload failed
2638.840 (8) Retain: beginning examination of existing backup sets; user setting: retain_files=2, retain_db=2
2638.842 (8) Number of backup sets in history: 1; groups (db): 1
2638.843 (8) Examining (for databases) backup set with group_id=0, nonce=66c809ab72b1, datestamp=1491469462 (Apr 06 2017 09:04:22)
2638.845 (8) This backup set is the backup set just made, so will not be deleted.
2638.846 (8) Number of backup sets in history: 1; groups (files): 1
2638.847 (8) Examining (for files) backup set with nonce=66c809ab72b1, datestamp=1491469462 (Apr 06 2017 09:04:22)
2638.849 (8) This backup set is the backup set just made, so will not be deleted.
2638.850 (8) This backup set is the backup set just made, so will not be deleted.
2638.850 (8) This backup set is the backup set just made, so will not be deleted.
2638.850 (8) This backup set is the backup set just made, so will not be deleted.
2638.851 (8) This backup set remains non-empty (f=1/d=1); will retain in history
2638.852 (8) Retain: saving new backup history (sets now: 1) and finishing retain operation
2638.864 (8) Resume backup (66c809ab72b1, 8): finish run
2638.869 (8) There were errors in the uploads, so the 'resume' event is remaining scheduled
2638.872 (8) No email will/can be sent - the user has not configured an email address.
2638.873 (8) The backup has not finished; a resumption is scheduled
2874.610 (9) Opened log file at time: Thu, 06 Apr 2017 09:52:16 +0000 on http://movilisimos.com
2874.612 (9) UpdraftPlus WordPress backup plugin (https://updraftplus.com): 1.12.40 WP: 4.6.4 PHP: 5.5.9-1ubuntu4.20 (apache2handler, Linux wp-verticales 4.9.7-x86_64-linode80 #2 SMP Thu Feb 2 15:43:55 EST 2017 x86_64) MySQL: 5.5.52 WPLANG: en_US Server: Apache safe_mode: 0 max_execution_time: 900 memory_limit: 256M (used: 27.2M | 27.8M) multisite: N openssl: OpenSSL 1.0.1f 6 Jan 2014 mcrypt: Y LANG: C ZipArchive::addFile: Y
2874.613 (9) Free space on disk containing Updraft's temporary directory: 11587.4 MB
2874.616 (9) Backup run: resumption=9, nonce=66c809ab72b1, begun at=1491469462 (2874s ago), job type=backup
2874.619 (9) The current run is resumption number 9, and there was nothing useful done on the last run (last useful run: 0) - will not schedule a further attempt until we see something useful happening this time
2874.628 (9) Creation of backups of directories: already finished
2874.630 (9) Saving backup status to database (elements: 8)
2874.634 (9) Database dump (WordPress DB): Creation was completed already
2874.641 (9) backup_2017-04-06-1004__gt_movilsimos_66c809ab72b1-plugins.zip: plugins: This file has not yet been successfully uploaded: will queue
2874.643 (9) backup_2017-04-06-1004__gt_movilsimos_66c809ab72b1-themes.zip: themes: This file has not yet been successfully uploaded: will queue
2874.645 (9) backup_2017-04-06-1004__gt_movilsimos_66c809ab72b1-uploads.zip: uploads: This file has not yet been successfully uploaded: will queue
2874.646 (9) backup_2017-04-06-1004__gt_movilsimos_66c809ab72b1-others.zip: others: This file has not yet been successfully uploaded: will queue
2874.648 (9) backup_2017-04-06-1004__gt_movilsimos_66c809ab72b1-db.gz: db: This file has not yet been successfully uploaded: will queue
2874.650 (9) Saving backup history. Total backup size: 12.5 MB
2874.654 (9) Requesting upload of the files that have not yet been successfully uploaded (5)
2874.659 (9) Cloud backup selection (1/1): ftp (last)
2874.662 (9) Beginning dispatch of backup to remote (ftp)
2875.448 (9) FTP upload attempt: backup_2017-04-06-1004__gt_movilsimos_66c809ab72b1-plugins.zip -> ftp://ftp_wp_verticales@ftp.netsales.es//mnt/array1/BU_wp_verticales/backup_2017-04-06-1004__gt_movilsimos_66c809ab72b1-plugins.zip
2935.601 (9) PHP event: code E_WARNING: ftp_nb_fput(): PORT command successful (line 78, wp-content/plugins/updraftplus/includes/ftp.class.php)
2935.604 (9) FTP upload: error (0)
2935.606 (9) ERROR: FTP upload failed
2935.607 (9) An error condition has occurred for the first time during this job
2935.608 (9) FTP upload attempt: backup_2017-04-06-1004__gt_movilsimos_66c809ab72b1-themes.zip -> ftp://ftp_wp_verticales@ftp.netsales.es//mnt/array1/BU_wp_verticales/backup_2017-04-06-1004__gt_movilsimos_66c809ab72b1-themes.zip
2938.736 (9) PHP event: code E_WARNING: ftp_nb_fput(): 0 (line 78, wp-content/plugins/updraftplus/includes/ftp.class.php)
2938.738 (9) FTP upload: error (0)
2938.739 (9) ERROR: FTP upload failed
2938.740 (9) FTP upload attempt: backup_2017-04-06-1004__gt_movilsimos_66c809ab72b1-uploads.zip -> ftp://ftp_wp_verticales@ftp.netsales.es//mnt/array1/BU_wp_verticales/backup_2017-04-06-1004__gt_movilsimos_66c809ab72b1-uploads.zip
2938.794 (9) PHP event: code E_WARNING: ftp_nb_fput(): /mnt/array1/BU_wp_verticales/backup_2017-04-06-1004__gt_movilsimos_66c809ab72b1-uploads.zip: No such file or directory (line 78, wp-content/plugins/updraftplus/includes/ftp.class.php)
2938.796 (9) FTP upload: error (0)
2938.797 (9) ERROR: FTP upload failed
2938.798 (9) FTP upload attempt: backup_2017-04-06-1004__gt_movilsimos_66c809ab72b1-others.zip -> ftp://ftp_wp_verticales@ftp.netsales.es//mnt/array1/BU_wp_verticales/backup_2017-04-06-1004__gt_movilsimos_66c809ab72b1-others.zip
2938.853 (9) PHP event: code E_WARNING: ftp_nb_fput(): /mnt/array1/BU_wp_verticales/backup_2017-04-06-1004__gt_movilsimos_66c809ab72b1-others.zip: No such file or directory (line 78, wp-content/plugins/updraftplus/includes/ftp.class.php)
2938.855 (9) FTP upload: error (0)
2938.856 (9) ERROR: FTP upload failed
2938.857 (9) FTP upload attempt: backup_2017-04-06-1004__gt_movilsimos_66c809ab72b1-db.gz -> ftp://ftp_wp_verticales@ftp.netsales.es//mnt/array1/BU_wp_verticales/backup_2017-04-06-1004__gt_movilsimos_66c809ab72b1-db.gz
2938.911 (9) PHP event: code E_WARNING: ftp_nb_fput(): /mnt/array1/BU_wp_verticales/backup_2017-04-06-1004__gt_movilsimos_66c809ab72b1-db.gz: No such file or directory (line 78, wp-content/plugins/updraftplus/includes/ftp.class.php)
2938.913 (9) FTP upload: error (0)
2938.915 (9) ERROR: FTP upload failed
2938.918 (9) Retain: beginning examination of existing backup sets; user setting: retain_files=2, retain_db=2
2938.919 (9) Number of backup sets in history: 1; groups (db): 1
2938.920 (9) Examining (for databases) backup set with group_id=0, nonce=66c809ab72b1, datestamp=1491469462 (Apr 06 2017 09:04:22)
2938.922 (9) This backup set is the backup set just made, so will not be deleted.
2938.922 (9) Number of backup sets in history: 1; groups (files): 1
2938.923 (9) Examining (for files) backup set with nonce=66c809ab72b1, datestamp=1491469462 (Apr 06 2017 09:04:22)
2938.925 (9) This backup set is the backup set just made, so will not be deleted.
2938.926 (9) This backup set is the backup set just made, so will not be deleted.
2938.927 (9) This backup set is the backup set just made, so will not be deleted.
2938.927 (9) This backup set is the backup set just made, so will not be deleted.
2938.927 (9) This backup set remains non-empty (f=1/d=1); will retain in history
2938.929 (9) Retain: saving new backup history (sets now: 1) and finishing retain operation
2938.941 (9) Resume backup (66c809ab72b1, 9): finish run
2938.945 (9) There were errors in the uploads, so the 'resume' event is remaining scheduled
2938.949 (9) No email will/can be sent - the user has not configured an email address.
2938.950 (9) The backup attempt has finished, apparently unsuccessfully
