0000.000 (0) Opened log file at time: Thu, 23 Nov 2017 09:06:35 +0000 on http://singlesday.es
0000.003 (0) UpdraftPlus WordPress backup plugin (https://updraftplus.com): 1.12.40 WP: 4.6.8 PHP: 5.5.9-1ubuntu4.22 (apache2handler, Linux wp-verticales 4.9.50-x86_64-linode86 #1 SMP Thu Sep 14 19:28:20 UTC 2017 x86_64) MySQL: 5.5.57 WPLANG: es_ES Server: Apache safe_mode: 0 max_execution_time: 900 memory_limit: 256M (used: 17.8M | 20.8M) multisite: N openssl: OpenSSL 1.0.1f 6 Jan 2014 mcrypt: Y LANG: C ZipArchive::addFile: Y
0000.006 (0) Free space on disk containing Updraft's temporary directory: 5604.1 MB
0000.019 (0) Tasks: Backup files:  (schedule: manual) Backup DB: 1 (schedule: manual)
0000.028 (0) Processed schedules. Tasks now: Backup files:  Backup DB: 1
0000.035 (0) Requesting semaphore lock (d) (apparently via scheduler: last_scheduled_action_called_at=1510823448, seconds_ago=604547)
0000.047 (0) Set semaphore last lock (d) time to 2017-11-23 09:06:35
0000.050 (0) Semaphore lock (d) complete
0000.063 (0) Backup run: resumption=0, nonce=9f4d91bdd4f4, begun at=1511427995 (0s ago), job type=backup
0000.066 (0) Scheduling a resumption (1) after 300 seconds (1511428295) in case this run gets aborted
0000.075 (0) This backup run is not intended for files - skipping
0000.079 (0) Beginning creation of database dump (WordPress DB)
0000.089 (0) Testing: /usr/bin/mysqldump
0000.129 (0) Output: /*!40103 SET @OLD_TIME_ZONE=@@TIME_ZONE */;\n/*!40103 SET TIME_ZONE='+00:00' */;\n/*!40014 SET @OLD_UNIQUE_CHECKS=@@UNIQUE_CHECKS, UNIQUE_CHECKS=0 */;\n/*!40014 SET @OLD_FOREIGN_KEY_CHECKS=@@FOREIGN_KEY_CHECKS, FOREIGN_KEY_CHECKS=0 */;\n/*!40101 SET @OLD_SQL_MODE=@@SQL_MODE, SQL_MODE='NO_AUTO_VALUE_ON_ZERO' */;\n/*!40111 SET @OLD_SQL_NOTES=@@SQL_NOTES, SQL_NOTES=0 */;\nDROP TABLE IF EXISTS `wp_options`;\n/*!40101 SET @saved_cs_client     = @@character_set_client */;\n/*!40101 SET character_set_client = utf8 */;\nCRE (truncated - 1192 bytes total)
0000.145 (0) Working binary mysqldump found: /usr/bin/mysqldump
0000.178 (0) Table wp_options: Total expected rows (approximate): 3147
0000.259 (0) Table wp_options: Total rows added: 968 in 0.07 seconds
0000.263 (0) Table wp_options: finishing file (backup_2017-11-23-1106_SinglesDayes_9f4d91bdd4f4-db-table-wp_options.table.gz - 178.4 KB)
0000.276 (0) Table wp_users: Total expected rows (approximate): 4
0000.284 (0) Table wp_users: Total rows added: 4 in 0.00 seconds
0000.287 (0) Table wp_users: finishing file (backup_2017-11-23-1106_SinglesDayes_9f4d91bdd4f4-db-table-wp_users.table.gz - 0.8 KB)
0000.300 (0) Table wp_usermeta: Total expected rows (approximate): 63
0000.309 (0) Table wp_usermeta: Total rows added: 63 in 0.00 seconds
0000.314 (0) Table wp_usermeta: finishing file (backup_2017-11-23-1106_SinglesDayes_9f4d91bdd4f4-db-table-wp_usermeta.table.gz - 1.9 KB)
0000.332 (0) Table wp_commentmeta: Total expected rows (approximate): 6
0000.354 (0) Table wp_commentmeta: Total rows added: 6 in 0.00 seconds
0000.381 (0) Table wp_commentmeta: finishing file (backup_2017-11-23-1106_SinglesDayes_9f4d91bdd4f4-db-table-wp_commentmeta.table.gz - 0.4 KB)
0000.413 (0) Table wp_comments: Total expected rows (approximate): 107
0000.446 (0) Table wp_comments: Total rows added: 102 in 0.03 seconds
0000.451 (0) Table wp_comments: finishing file (backup_2017-11-23-1106_SinglesDayes_9f4d91bdd4f4-db-table-wp_comments.table.gz - 72 KB)
0000.486 (0) Table wp_links: Total expected rows (approximate): 0
0000.494 (0) Table wp_links: Total rows added: 0 in 0.00 seconds
0000.497 (0) Table wp_links: finishing file (backup_2017-11-23-1106_SinglesDayes_9f4d91bdd4f4-db-table-wp_links.table.gz - 0.4 KB)
0000.522 (0) Table wp_postmeta: Total expected rows (approximate): 7154
0000.766 (0) Table wp_postmeta: Total rows added: 6893 in 0.23 seconds
0000.778 (0) Table wp_postmeta: finishing file (backup_2017-11-23-1106_SinglesDayes_9f4d91bdd4f4-db-table-wp_postmeta.table.gz - 189.8 KB)
0000.803 (0) Table wp_posts: Total expected rows (approximate): 638
0000.957 (0) Table wp_posts: Total rows added: 653 in 0.15 seconds
0000.962 (0) Table wp_posts: finishing file (backup_2017-11-23-1106_SinglesDayes_9f4d91bdd4f4-db-table-wp_posts.table.gz - 136 KB)
0000.994 (0) Table wp_term_relationships: Total expected rows (approximate): 274
0001.003 (0) Table wp_term_relationships: Total rows added: 274 in 0.01 seconds
0001.006 (0) Table wp_term_relationships: finishing file (backup_2017-11-23-1106_SinglesDayes_9f4d91bdd4f4-db-table-wp_term_relationships.table.gz - 1 KB)
0001.023 (0) Table wp_term_taxonomy: Total expected rows (approximate): 28
0001.030 (0) Table wp_term_taxonomy: Total rows added: 28 in 0.00 seconds
0001.035 (0) Table wp_term_taxonomy: finishing file (backup_2017-11-23-1106_SinglesDayes_9f4d91bdd4f4-db-table-wp_term_taxonomy.table.gz - 1.1 KB)
0001.056 (0) Table wp_termmeta: Total expected rows (approximate): 34
0001.063 (0) Table wp_termmeta: Total rows added: 34 in 0.00 seconds
0001.068 (0) Table wp_termmeta: finishing file (backup_2017-11-23-1106_SinglesDayes_9f4d91bdd4f4-db-table-wp_termmeta.table.gz - 0.6 KB)
0001.083 (0) Table wp_terms: Total expected rows (approximate): 28
0001.091 (0) Table wp_terms: Total rows added: 28 in 0.00 seconds
0001.094 (0) Table wp_terms: finishing file (backup_2017-11-23-1106_SinglesDayes_9f4d91bdd4f4-db-table-wp_terms.table.gz - 0.8 KB)
0001.109 (0) Table wp_woocommerce_order_itemmeta: Total expected rows (approximate): 0
0001.115 (0) Table wp_woocommerce_order_itemmeta: Total rows added: 0 in 0.00 seconds
0001.118 (0) Table wp_woocommerce_order_itemmeta: finishing file (backup_2017-11-23-1106_SinglesDayes_9f4d91bdd4f4-db-table-wp_woocommerce_order_itemmeta.table.gz - 0.4 KB)
0001.132 (0) Table wp_woocommerce_payment_tokenmeta: Total expected rows (approximate): 0
0001.141 (0) Table wp_woocommerce_payment_tokenmeta: Total rows added: 0 in 0.01 seconds
0001.144 (0) Table wp_woocommerce_payment_tokenmeta: finishing file (backup_2017-11-23-1106_SinglesDayes_9f4d91bdd4f4-db-table-wp_woocommerce_payment_tokenmeta.table.gz - 0.4 KB)
0001.158 (0) Table wp_aiowps_events: Total expected rows (approximate): 0
0001.163 (0) Table wp_aiowps_events: Total rows added: 0 in 0.00 seconds
0001.166 (0) Table wp_aiowps_events: finishing file (backup_2017-11-23-1106_SinglesDayes_9f4d91bdd4f4-db-table-wp_aiowps_events.table.gz - 0.4 KB)
0001.185 (0) Table wp_aiowps_failed_logins: Total expected rows (approximate): 5242
0001.327 (0) Table wp_aiowps_failed_logins: Total rows added: 5000 in 0.14 seconds
0001.331 (0) Table wp_aiowps_failed_logins: finishing file (backup_2017-11-23-1106_SinglesDayes_9f4d91bdd4f4-db-table-wp_aiowps_failed_logins.table.gz - 27.2 KB)
0001.341 (0) Table wp_aiowps_global_meta: Total expected rows (approximate): 0
0001.347 (0) Table wp_aiowps_global_meta: Total rows added: 0 in 0.00 seconds
0001.349 (0) Table wp_aiowps_global_meta: finishing file (backup_2017-11-23-1106_SinglesDayes_9f4d91bdd4f4-db-table-wp_aiowps_global_meta.table.gz - 0.4 KB)
0001.359 (0) Table wp_aiowps_login_activity: Total expected rows (approximate): 0
0001.364 (0) Table wp_aiowps_login_activity: Total rows added: 0 in 0.00 seconds
0001.366 (0) Table wp_aiowps_login_activity: finishing file (backup_2017-11-23-1106_SinglesDayes_9f4d91bdd4f4-db-table-wp_aiowps_login_activity.table.gz - 0.4 KB)
0001.376 (0) Table wp_aiowps_login_lockdown: Total expected rows (approximate): 0
0001.380 (0) Table wp_aiowps_login_lockdown: Total rows added: 0 in 0.00 seconds
0001.382 (0) Table wp_aiowps_login_lockdown: finishing file (backup_2017-11-23-1106_SinglesDayes_9f4d91bdd4f4-db-table-wp_aiowps_login_lockdown.table.gz - 0.4 KB)
0001.395 (0) Table wp_aiowps_permanent_block: Total expected rows (approximate): 0
0001.400 (0) Table wp_aiowps_permanent_block: Total rows added: 0 in 0.00 seconds
0001.402 (0) Table wp_aiowps_permanent_block: finishing file (backup_2017-11-23-1106_SinglesDayes_9f4d91bdd4f4-db-table-wp_aiowps_permanent_block.table.gz - 0.4 KB)
0001.436 (0) Table wp_cegg_autoblog: Total expected rows (approximate): 0
0001.453 (0) Table wp_cegg_autoblog: Total rows added: 0 in 0.00 seconds
0001.457 (0) Table wp_cegg_autoblog: finishing file (backup_2017-11-23-1106_SinglesDayes_9f4d91bdd4f4-db-table-wp_cegg_autoblog.table.gz - 0.5 KB)
0001.478 (0) Table wp_cegg_price_alert: Total expected rows (approximate): 0
0001.487 (0) Table wp_cegg_price_alert: Total rows added: 0 in 0.00 seconds
0001.492 (0) Table wp_cegg_price_alert: finishing file (backup_2017-11-23-1106_SinglesDayes_9f4d91bdd4f4-db-table-wp_cegg_price_alert.table.gz - 0.5 KB)
0001.511 (0) Table wp_cegg_price_history: Total expected rows (approximate): 0
0001.518 (0) Table wp_cegg_price_history: Total rows added: 0 in 0.00 seconds
0001.522 (0) Table wp_cegg_price_history: finishing file (backup_2017-11-23-1106_SinglesDayes_9f4d91bdd4f4-db-table-wp_cegg_price_history.table.gz - 0.4 KB)
0001.538 (0) Table wp_newsletter: Total expected rows (approximate): 11
0001.553 (0) Table wp_newsletter: Total rows added: 11 in 0.01 seconds
0001.558 (0) Table wp_newsletter: finishing file (backup_2017-11-23-1106_SinglesDayes_9f4d91bdd4f4-db-table-wp_newsletter.table.gz - 1.3 KB)
0001.576 (0) Table wp_newsletter_emails: Total expected rows (approximate): 0
0001.584 (0) Table wp_newsletter_emails: Total rows added: 0 in 0.00 seconds
0001.587 (0) Table wp_newsletter_emails: finishing file (backup_2017-11-23-1106_SinglesDayes_9f4d91bdd4f4-db-table-wp_newsletter_emails.table.gz - 0.5 KB)
0001.604 (0) Table wp_newsletter_sent: Total expected rows (approximate): 0
0001.611 (0) Table wp_newsletter_sent: Total rows added: 0 in 0.00 seconds
0001.615 (0) Table wp_newsletter_sent: finishing file (backup_2017-11-23-1106_SinglesDayes_9f4d91bdd4f4-db-table-wp_newsletter_sent.table.gz - 0.3 KB)
0001.633 (0) Table wp_newsletter_stats: Total expected rows (approximate): 0
0001.640 (0) Table wp_newsletter_stats: Total rows added: 0 in 0.00 seconds
0001.644 (0) Table wp_newsletter_stats: finishing file (backup_2017-11-23-1106_SinglesDayes_9f4d91bdd4f4-db-table-wp_newsletter_stats.table.gz - 0.4 KB)
0001.661 (0) Table wp_pmxi_files: Total expected rows (approximate): 2
0001.668 (0) Table wp_pmxi_files: Total rows added: 2 in 0.00 seconds
0001.672 (0) Table wp_pmxi_files: finishing file (backup_2017-11-23-1106_SinglesDayes_9f4d91bdd4f4-db-table-wp_pmxi_files.table.gz - 0.5 KB)
0001.689 (0) Table wp_pmxi_history: Total expected rows (approximate): 2
0001.696 (0) Table wp_pmxi_history: Total rows added: 2 in 0.00 seconds
0001.701 (0) Table wp_pmxi_history: finishing file (backup_2017-11-23-1106_SinglesDayes_9f4d91bdd4f4-db-table-wp_pmxi_history.table.gz - 0.5 KB)
0001.719 (0) Table wp_pmxi_imports: Total expected rows (approximate): 1
0001.730 (0) Table wp_pmxi_imports: Total rows added: 2 in 0.01 seconds
0001.743 (0) Table wp_pmxi_imports: finishing file (backup_2017-11-23-1106_SinglesDayes_9f4d91bdd4f4-db-table-wp_pmxi_imports.table.gz - 4.3 KB)
0001.761 (0) Table wp_pmxi_posts: Total expected rows (approximate): 93
0001.782 (0) Table wp_pmxi_posts: Total rows added: 93 in 0.02 seconds
0001.786 (0) Table wp_pmxi_posts: finishing file (backup_2017-11-23-1106_SinglesDayes_9f4d91bdd4f4-db-table-wp_pmxi_posts.table.gz - 1.4 KB)
0001.801 (0) Table wp_pmxi_templates: Total expected rows (approximate): 0
0001.807 (0) Table wp_pmxi_templates: Total rows added: 0 in 0.00 seconds
0001.810 (0) Table wp_pmxi_templates: finishing file (backup_2017-11-23-1106_SinglesDayes_9f4d91bdd4f4-db-table-wp_pmxi_templates.table.gz - 0.4 KB)
0001.821 (0) Table wp_woocommerce_api_keys: Total expected rows (approximate): 0
0001.826 (0) Table wp_woocommerce_api_keys: Total rows added: 0 in 0.00 seconds
0001.829 (0) Table wp_woocommerce_api_keys: finishing file (backup_2017-11-23-1106_SinglesDayes_9f4d91bdd4f4-db-table-wp_woocommerce_api_keys.table.gz - 0.4 KB)
0001.842 (0) Table wp_woocommerce_attribute_taxonomies: Total expected rows (approximate): 0
0001.847 (0) Table wp_woocommerce_attribute_taxonomies: Total rows added: 0 in 0.00 seconds
0001.850 (0) Table wp_woocommerce_attribute_taxonomies: finishing file (backup_2017-11-23-1106_SinglesDayes_9f4d91bdd4f4-db-table-wp_woocommerce_attribute_taxonomies.table.gz - 0.4 KB)
0001.860 (0) Table wp_woocommerce_downloadable_product_permissions: Total expected rows (approximate): 0
0001.864 (0) Table wp_woocommerce_downloadable_product_permissions: Total rows added: 0 in 0.00 seconds
0001.866 (0) Table wp_woocommerce_downloadable_product_permissions: finishing file (backup_2017-11-23-1106_SinglesDayes_9f4d91bdd4f4-db-table-wp_woocommerce_downloadable_product_permissions.table.gz - 0.5 KB)
0001.880 (0) Table wp_woocommerce_order_items: Total expected rows (approximate): 0
0001.884 (0) Table wp_woocommerce_order_items: Total rows added: 0 in 0.00 seconds
0001.887 (0) Table wp_woocommerce_order_items: finishing file (backup_2017-11-23-1106_SinglesDayes_9f4d91bdd4f4-db-table-wp_woocommerce_order_items.table.gz - 0.3 KB)
0001.900 (0) Table wp_woocommerce_payment_tokens: Total expected rows (approximate): 0
0001.906 (0) Table wp_woocommerce_payment_tokens: Total rows added: 0 in 0.00 seconds
0001.909 (0) Table wp_woocommerce_payment_tokens: finishing file (backup_2017-11-23-1106_SinglesDayes_9f4d91bdd4f4-db-table-wp_woocommerce_payment_tokens.table.gz - 0.4 KB)
0001.921 (0) Table wp_woocommerce_sessions: Total expected rows (approximate): 133
0001.934 (0) Table wp_woocommerce_sessions: Total rows added: 100 in 0.01 seconds
0001.937 (0) Table wp_woocommerce_sessions: finishing file (backup_2017-11-23-1106_SinglesDayes_9f4d91bdd4f4-db-table-wp_woocommerce_sessions.table.gz - 11.5 KB)
0001.947 (0) Table wp_woocommerce_shipping_zone_locations: Total expected rows (approximate): 0
0001.952 (0) Table wp_woocommerce_shipping_zone_locations: Total rows added: 0 in 0.00 seconds
0001.954 (0) Table wp_woocommerce_shipping_zone_locations: finishing file (backup_2017-11-23-1106_SinglesDayes_9f4d91bdd4f4-db-table-wp_woocommerce_shipping_zone_locations.table.gz - 0.4 KB)
0001.966 (0) Table wp_woocommerce_shipping_zone_methods: Total expected rows (approximate): 0
0001.969 (0) Table wp_woocommerce_shipping_zone_methods: Total rows added: 0 in 0.00 seconds
0001.972 (0) Table wp_woocommerce_shipping_zone_methods: finishing file (backup_2017-11-23-1106_SinglesDayes_9f4d91bdd4f4-db-table-wp_woocommerce_shipping_zone_methods.table.gz - 0.4 KB)
0002.005 (0) Table wp_woocommerce_shipping_zones: Total expected rows (approximate): 0
0002.011 (0) Table wp_woocommerce_shipping_zones: Total rows added: 0 in 0.00 seconds
0002.014 (0) Table wp_woocommerce_shipping_zones: finishing file (backup_2017-11-23-1106_SinglesDayes_9f4d91bdd4f4-db-table-wp_woocommerce_shipping_zones.table.gz - 0.3 KB)
0002.028 (0) Table wp_woocommerce_tax_rate_locations: Total expected rows (approximate): 0
0002.033 (0) Table wp_woocommerce_tax_rate_locations: Total rows added: 0 in 0.00 seconds
0002.037 (0) Table wp_woocommerce_tax_rate_locations: finishing file (backup_2017-11-23-1106_SinglesDayes_9f4d91bdd4f4-db-table-wp_woocommerce_tax_rate_locations.table.gz - 0.4 KB)
0002.055 (0) Table wp_woocommerce_tax_rates: Total expected rows (approximate): 0
0002.060 (0) Table wp_woocommerce_tax_rates: Total rows added: 0 in 0.00 seconds
0002.064 (0) Table wp_woocommerce_tax_rates: finishing file (backup_2017-11-23-1106_SinglesDayes_9f4d91bdd4f4-db-table-wp_woocommerce_tax_rates.table.gz - 0.4 KB)
0002.077 (0) Table wp_yith_wcwl: Total expected rows (approximate): 0
0002.081 (0) Table wp_yith_wcwl: Total rows added: 0 in 0.00 seconds
0002.084 (0) Table wp_yith_wcwl: finishing file (backup_2017-11-23-1106_SinglesDayes_9f4d91bdd4f4-db-table-wp_yith_wcwl.table.gz - 0.3 KB)
0002.094 (0) Table wp_yith_wcwl_lists: Total expected rows (approximate): 0
0002.098 (0) Table wp_yith_wcwl_lists: Total rows added: 0 in 0.00 seconds
0002.101 (0) Table wp_yith_wcwl_lists: finishing file (backup_2017-11-23-1106_SinglesDayes_9f4d91bdd4f4-db-table-wp_yith_wcwl_lists.table.gz - 0.4 KB)
0002.130 (0) backup_2017-11-23-1106_SinglesDayes_9f4d91bdd4f4-db-table-wp_options.table.gz (1/45): adding to final database dump
0002.183 (0) backup_2017-11-23-1106_SinglesDayes_9f4d91bdd4f4-db-table-wp_users.table.gz (2/45): adding to final database dump
0002.186 (0) backup_2017-11-23-1106_SinglesDayes_9f4d91bdd4f4-db-table-wp_usermeta.table.gz (3/45): adding to final database dump
0002.189 (0) backup_2017-11-23-1106_SinglesDayes_9f4d91bdd4f4-db-table-wp_commentmeta.table.gz (4/45): adding to final database dump
0002.191 (0) backup_2017-11-23-1106_SinglesDayes_9f4d91bdd4f4-db-table-wp_comments.table.gz (5/45): adding to final database dump
0002.211 (0) backup_2017-11-23-1106_SinglesDayes_9f4d91bdd4f4-db-table-wp_links.table.gz (6/45): adding to final database dump
0002.214 (0) backup_2017-11-23-1106_SinglesDayes_9f4d91bdd4f4-db-table-wp_postmeta.table.gz (7/45): adding to final database dump
0002.297 (0) backup_2017-11-23-1106_SinglesDayes_9f4d91bdd4f4-db-table-wp_posts.table.gz (8/45): adding to final database dump
0002.335 (0) backup_2017-11-23-1106_SinglesDayes_9f4d91bdd4f4-db-table-wp_term_relationships.table.gz (9/45): adding to final database dump
0002.341 (0) backup_2017-11-23-1106_SinglesDayes_9f4d91bdd4f4-db-table-wp_term_taxonomy.table.gz (10/45): adding to final database dump
0002.344 (0) backup_2017-11-23-1106_SinglesDayes_9f4d91bdd4f4-db-table-wp_termmeta.table.gz (11/45): adding to final database dump
0002.346 (0) backup_2017-11-23-1106_SinglesDayes_9f4d91bdd4f4-db-table-wp_terms.table.gz (12/45): adding to final database dump
0002.348 (0) backup_2017-11-23-1106_SinglesDayes_9f4d91bdd4f4-db-table-wp_woocommerce_order_itemmeta.table.gz (13/45): adding to final database dump
0002.351 (0) backup_2017-11-23-1106_SinglesDayes_9f4d91bdd4f4-db-table-wp_woocommerce_payment_tokenmeta.table.gz (14/45): adding to final database dump
0002.377 (0) backup_2017-11-23-1106_SinglesDayes_9f4d91bdd4f4-db-table-wp_aiowps_events.table.gz (15/45): adding to final database dump
0002.389 (0) backup_2017-11-23-1106_SinglesDayes_9f4d91bdd4f4-db-table-wp_aiowps_failed_logins.table.gz (16/45): adding to final database dump
0002.417 (0) backup_2017-11-23-1106_SinglesDayes_9f4d91bdd4f4-db-table-wp_aiowps_global_meta.table.gz (17/45): adding to final database dump
0002.421 (0) backup_2017-11-23-1106_SinglesDayes_9f4d91bdd4f4-db-table-wp_aiowps_login_activity.table.gz (18/45): adding to final database dump
0002.423 (0) backup_2017-11-23-1106_SinglesDayes_9f4d91bdd4f4-db-table-wp_aiowps_login_lockdown.table.gz (19/45): adding to final database dump
0002.425 (0) backup_2017-11-23-1106_SinglesDayes_9f4d91bdd4f4-db-table-wp_aiowps_permanent_block.table.gz (20/45): adding to final database dump
0002.439 (0) backup_2017-11-23-1106_SinglesDayes_9f4d91bdd4f4-db-table-wp_cegg_autoblog.table.gz (21/45): adding to final database dump
0002.450 (0) backup_2017-11-23-1106_SinglesDayes_9f4d91bdd4f4-db-table-wp_cegg_price_alert.table.gz (22/45): adding to final database dump
0002.464 (0) backup_2017-11-23-1106_SinglesDayes_9f4d91bdd4f4-db-table-wp_cegg_price_history.table.gz (23/45): adding to final database dump
0002.468 (0) backup_2017-11-23-1106_SinglesDayes_9f4d91bdd4f4-db-table-wp_newsletter.table.gz (24/45): adding to final database dump
0002.472 (0) backup_2017-11-23-1106_SinglesDayes_9f4d91bdd4f4-db-table-wp_newsletter_emails.table.gz (25/45): adding to final database dump
0002.476 (0) backup_2017-11-23-1106_SinglesDayes_9f4d91bdd4f4-db-table-wp_newsletter_sent.table.gz (26/45): adding to final database dump
0002.488 (0) backup_2017-11-23-1106_SinglesDayes_9f4d91bdd4f4-db-table-wp_newsletter_stats.table.gz (27/45): adding to final database dump
0002.492 (0) backup_2017-11-23-1106_SinglesDayes_9f4d91bdd4f4-db-table-wp_pmxi_files.table.gz (28/45): adding to final database dump
0002.494 (0) backup_2017-11-23-1106_SinglesDayes_9f4d91bdd4f4-db-table-wp_pmxi_history.table.gz (29/45): adding to final database dump
0002.497 (0) backup_2017-11-23-1106_SinglesDayes_9f4d91bdd4f4-db-table-wp_pmxi_imports.table.gz (30/45): adding to final database dump
0002.500 (0) backup_2017-11-23-1106_SinglesDayes_9f4d91bdd4f4-db-table-wp_pmxi_posts.table.gz (31/45): adding to final database dump
0002.513 (0) backup_2017-11-23-1106_SinglesDayes_9f4d91bdd4f4-db-table-wp_pmxi_templates.table.gz (32/45): adding to final database dump
0002.516 (0) backup_2017-11-23-1106_SinglesDayes_9f4d91bdd4f4-db-table-wp_woocommerce_api_keys.table.gz (33/45): adding to final database dump
0002.519 (0) backup_2017-11-23-1106_SinglesDayes_9f4d91bdd4f4-db-table-wp_woocommerce_attribute_taxonomies.table.gz (34/45): adding to final database dump
0002.521 (0) backup_2017-11-23-1106_SinglesDayes_9f4d91bdd4f4-db-table-wp_woocommerce_downloadable_product_permissions.table.gz (35/45): adding to final database dump
0002.525 (0) backup_2017-11-23-1106_SinglesDayes_9f4d91bdd4f4-db-table-wp_woocommerce_order_items.table.gz (36/45): adding to final database dump
0002.537 (0) backup_2017-11-23-1106_SinglesDayes_9f4d91bdd4f4-db-table-wp_woocommerce_payment_tokens.table.gz (37/45): adding to final database dump
0002.540 (0) backup_2017-11-23-1106_SinglesDayes_9f4d91bdd4f4-db-table-wp_woocommerce_sessions.table.gz (38/45): adding to final database dump
0002.548 (0) backup_2017-11-23-1106_SinglesDayes_9f4d91bdd4f4-db-table-wp_woocommerce_shipping_zone_locations.table.gz (39/45): adding to final database dump
0002.552 (0) backup_2017-11-23-1106_SinglesDayes_9f4d91bdd4f4-db-table-wp_woocommerce_shipping_zone_methods.table.gz (40/45): adding to final database dump
0002.564 (0) backup_2017-11-23-1106_SinglesDayes_9f4d91bdd4f4-db-table-wp_woocommerce_shipping_zones.table.gz (41/45): adding to final database dump
0002.567 (0) backup_2017-11-23-1106_SinglesDayes_9f4d91bdd4f4-db-table-wp_woocommerce_tax_rate_locations.table.gz (42/45): adding to final database dump
0002.570 (0) backup_2017-11-23-1106_SinglesDayes_9f4d91bdd4f4-db-table-wp_woocommerce_tax_rates.table.gz (43/45): adding to final database dump
0002.575 (0) backup_2017-11-23-1106_SinglesDayes_9f4d91bdd4f4-db-table-wp_yith_wcwl.table.gz (44/45): adding to final database dump
0002.578 (0) backup_2017-11-23-1106_SinglesDayes_9f4d91bdd4f4-db-table-wp_yith_wcwl_lists.table.gz (45/45): adding to final database dump
0002.580 (0) backup_2017-11-23-1106_SinglesDayes_9f4d91bdd4f4-db.gz: finished writing out complete database file (624 KB)
0002.620 (0) Total database tables backed up: 45 (backup_2017-11-23-1106_SinglesDayes_9f4d91bdd4f4-db.gz, size: 646673, sha256)
0002.664 (0) backup_2017-11-23-1106_SinglesDayes_9f4d91bdd4f4-db.gz: db: This file has not yet been successfully uploaded: will queue
0002.667 (0) Saving backup history. Total backup size: 631.5 KB
0002.682 (0) Requesting upload of the files that have not yet been successfully uploaded (1)
0002.698 (0) Cloud backup selection (1/1): ftp (last)
0002.701 (0) Beginning dispatch of backup to remote (ftp)
0003.601 (0) FTP upload attempt: backup_2017-11-23-1106_SinglesDayes_9f4d91bdd4f4-db.gz -> ftp://ftp_wp_verticales@ftp.netsales.es//mnt/array1/BU_wp_verticales/backup_2017-11-23-1106_SinglesDayes_9f4d91bdd4f4-db.gz
0063.735 (0) PHP event: code E_WARNING: ftp_nb_fput(): PORT command successful (line 78, wp-content/plugins/updraftplus/includes/ftp.class.php)
0063.775 (0) FTP upload: error (0)
0063.785 (0) ERROR: FTP upload failed
0063.800 (0) Retain: beginning examination of existing backup sets; user setting: retain_files=2, retain_db=2
0063.803 (0) Number of backup sets in history: 5; groups (db): 1
0063.805 (0) Examining (for databases) backup set with group_id=0, nonce=9f4d91bdd4f4, datestamp=1511427995 (Nov 23 2017 09:06:35)
0063.807 (0) This backup set is the backup set just made, so will not be deleted.
0063.809 (0) Examining (for databases) backup set with group_id=0, nonce=254505239189, datestamp=1511427801 (Nov 23 2017 09:03:21)
0063.811 (0) Examining (for databases) backup set with group_id=0, nonce=061b996b3f1b, datestamp=1510823448 (Nov 16 2017 09:10:48)
0063.813 (0) This backup set remains non-empty (f=0/d=1); will retain in history
0063.815 (0) Examining (for databases) backup set with group_id=0, nonce=a9ce099410ae, datestamp=1510823288 (Nov 16 2017 09:08:08)
0063.821 (0) Examining (for databases) backup set with group_id=0, nonce=1e6287c9ee65, datestamp=1510218338 (Nov 09 2017 09:05:38)
0063.823 (0) 1510218338: db: this set includes a database (backup_2017-11-09-1105_SinglesDayes_1e6287c9ee65-db.gz); db count is now 2
0063.825 (0) 1510218338: db: over retain limit (2); will delete this database
0063.827 (0) Delete file: backup_2017-11-09-1105_SinglesDayes_1e6287c9ee65-db.gz, service=ftp
0066.851 (0) FTP delete: failed (/mnt/array1/BU_wp_verticales/backup_2017-11-09-1105_SinglesDayes_1e6287c9ee65-db.gz)
0066.858 (0) This backup set is now empty; will remove from history
0066.861 (0) Deleting log file (log.1e6287c9ee65.txt)
0066.863 (0) Retain: saving new backup history, because at least 10 seconds have passed since the last save (sets now: 4)
0066.872 (0) Number of backup sets in history: 4; groups (files): 1
0066.874 (0) Examining (for files) backup set with nonce=9f4d91bdd4f4, datestamp=1511427995 (Nov 23 2017 09:06:35)
0066.876 (0) This backup set remains non-empty (f=0/d=1); will retain in history
0066.879 (0) Examining (for files) backup set with nonce=254505239189, datestamp=1511427801 (Nov 23 2017 09:03:21)
0066.880 (0) This backup set remains non-empty (f=1/d=0); will retain in history
0066.883 (0) Examining (for files) backup set with nonce=061b996b3f1b, datestamp=1510823448 (Nov 16 2017 09:10:48)
0066.885 (0) This backup set remains non-empty (f=0/d=1); will retain in history
0066.887 (0) Examining (for files) backup set with nonce=a9ce099410ae, datestamp=1510823288 (Nov 16 2017 09:08:08)
0066.889 (0) This backup set remains non-empty (f=1/d=0); will retain in history
0066.891 (0) Retain: saving new backup history (sets now: 4) and finishing retain operation
0066.899 (0) Resume backup (9f4d91bdd4f4, 0): finish run
0066.911 (0) Decremented the semaphore (d) by 1
0066.916 (0) Semaphore (d) unlocked
0066.917 (0) There were errors in the uploads, so the 'resume' event is remaining scheduled
0066.923 (0) No email will/can be sent - the user has not configured an email address.
0066.925 (0) El respaldo no ha terminado; una reanudación está programada
0664.230 (1) Opened log file at time: Thu, 23 Nov 2017 09:14:25 +0000 on http://singlesday.es
0664.232 (1) UpdraftPlus WordPress backup plugin (https://updraftplus.com): 1.12.40 WP: 4.6.8 PHP: 5.5.9-1ubuntu4.22 (apache2handler, Linux wp-verticales 4.9.50-x86_64-linode86 #1 SMP Thu Sep 14 19:28:20 UTC 2017 x86_64) MySQL: 5.5.57 WPLANG: es_ES Server: Apache safe_mode: 0 max_execution_time: 900 memory_limit: 256M (used: 17.7M | 18.5M) multisite: N openssl: OpenSSL 1.0.1f 6 Jan 2014 mcrypt: Y LANG: C ZipArchive::addFile: Y
0664.234 (1) Free space on disk containing Updraft's temporary directory: 5619.4 MB
0664.238 (1) Backup run: resumption=1, nonce=9f4d91bdd4f4, begun at=1511427801 (664s ago), job type=backup, previous check-in=194.4s
0664.240 (1) Scheduling a resumption (2) after 300 seconds (1511428765) in case this run gets aborted
0664.244 (1) Checking if we have a zip executable available
0664.246 (1) Creation of backups of directories: already finished
0664.248 (1) Saving backup status to database (elements: 8)
0664.254 (1) No database backup (wp) - not part of this run
0664.258 (1) backup_2017-11-23-1103_SinglesDayes_254505239189-plugins.zip: plugins: This file has already been successfully uploaded
0664.260 (1) backup_2017-11-23-1103_SinglesDayes_254505239189-themes.zip: themes: This file has not yet been successfully uploaded: will queue
0664.262 (1) backup_2017-11-23-1103_SinglesDayes_254505239189-uploads.zip: uploads: This file has not yet been successfully uploaded: will queue
0664.264 (1) backup_2017-11-23-1103_SinglesDayes_254505239189-others.zip: others: This file has not yet been successfully uploaded: will queue
0664.265 (1) Saving backup history. Total backup size: 232.3 MB
0664.271 (1) Requesting upload of the files that have not yet been successfully uploaded (3)
0664.275 (1) Cloud backup selection (1/1): ftp (last)
0664.286 (1) Beginning dispatch of backup to remote (ftp)
0665.164 (1) FTP upload attempt: backup_2017-11-23-1103_SinglesDayes_254505239189-themes.zip -> ftp://ftp_wp_verticales@ftp.netsales.es//mnt/array1/BU_wp_verticales/backup_2017-11-23-1103_SinglesDayes_254505239189-themes.zip
0665.463 (1) Ftp chunked upload: 4.7 % uploaded
0665.597 (1) Ftp chunked upload: 9.3 % uploaded
0665.732 (1) Ftp chunked upload: 14 % uploaded
0665.871 (1) Ftp chunked upload: 18.7 % uploaded
0666.169 (1) Ftp chunked upload: 28 % uploaded
0666.450 (1) Ftp chunked upload: 37.2 % uploaded
0666.997 (1) Ftp chunked upload: 55.8 % uploaded
0667.570 (1) Ftp chunked upload: 74.3 % uploaded
0668.119 (1) Ftp chunked upload: 92.9 % uploaded
0668.415 (1) FTP upload attempt successful (11058.7KB in 3.25s)
0668.423 (1) Recording as successfully uploaded: backup_2017-11-23-1103_SinglesDayes_254505239189-themes.zip (f43f0e18ea8d8552aa4f43d513b6bb3c)
0668.474 (1) Deleting local file: backup_2017-11-23-1103_SinglesDayes_254505239189-themes.zip: OK
0668.478 (1) FTP upload attempt: backup_2017-11-23-1103_SinglesDayes_254505239189-uploads.zip -> ftp://ftp_wp_verticales@ftp.netsales.es//mnt/array1/BU_wp_verticales/backup_2017-11-23-1103_SinglesDayes_254505239189-uploads.zip
0728.596 (1) PHP event: code E_WARNING: ftp_nb_fput(): PORT command successful (line 78, wp-content/plugins/updraftplus/includes/ftp.class.php)
0728.599 (1) FTP upload: error (0)
0728.602 (1) ERROR: FTP upload failed
0728.605 (1) FTP upload attempt: backup_2017-11-23-1103_SinglesDayes_254505239189-others.zip -> ftp://ftp_wp_verticales@ftp.netsales.es//mnt/array1/BU_wp_verticales/backup_2017-11-23-1103_SinglesDayes_254505239189-others.zip
0731.729 (1) PHP event: code E_WARNING: ftp_nb_fput(): 0 (line 78, wp-content/plugins/updraftplus/includes/ftp.class.php)
0731.732 (1) FTP upload: error (0)
0731.744 (1) ERROR: FTP upload failed
0731.751 (1) Retain: beginning examination of existing backup sets; user setting: retain_files=2, retain_db=2
0731.755 (1) Number of backup sets in history: 4; groups (db): 1
0731.758 (1) Examining (for databases) backup set with group_id=0, nonce=9f4d91bdd4f4, datestamp=1511427995 (Nov 23 2017 09:06:35)
0731.760 (1) This backup set is the backup set just made, so will not be deleted.
0731.764 (1) Examining (for databases) backup set with group_id=0, nonce=9f4d91bdd4f4, datestamp=1511427801 (Nov 23 2017 09:03:21)
0731.767 (1) Examining (for databases) backup set with group_id=0, nonce=061b996b3f1b, datestamp=1510823448 (Nov 16 2017 09:10:48)
0731.770 (1) This backup set remains non-empty (f=0/d=1); will retain in history
0731.772 (1) Examining (for databases) backup set with group_id=0, nonce=a9ce099410ae, datestamp=1510823288 (Nov 16 2017 09:08:08)
0731.776 (1) Number of backup sets in history: 4; groups (files): 1
0731.778 (1) Examining (for files) backup set with nonce=9f4d91bdd4f4, datestamp=1511427995 (Nov 23 2017 09:06:35)
0731.781 (1) This backup set remains non-empty (f=0/d=1); will retain in history
0731.783 (1) Examining (for files) backup set with nonce=9f4d91bdd4f4, datestamp=1511427801 (Nov 23 2017 09:03:21)
0731.785 (1) This backup set is the backup set just made, so will not be deleted.
0731.787 (1) This backup set is the backup set just made, so will not be deleted.
0731.788 (1) This backup set is the backup set just made, so will not be deleted.
0731.788 (1) This backup set is the backup set just made, so will not be deleted.
0731.788 (1) This backup set remains non-empty (f=1/d=0); will retain in history
0731.791 (1) Examining (for files) backup set with nonce=061b996b3f1b, datestamp=1510823448 (Nov 16 2017 09:10:48)
0731.793 (1) This backup set remains non-empty (f=0/d=1); will retain in history
0731.795 (1) Examining (for files) backup set with nonce=a9ce099410ae, datestamp=1510823288 (Nov 16 2017 09:08:08)
0731.798 (1) This backup set remains non-empty (f=1/d=0); will retain in history
0731.801 (1) Retain: saving new backup history (sets now: 4) and finishing retain operation
0731.810 (1) Resume backup (9f4d91bdd4f4, 1): finish run
0731.821 (1) There were errors in the uploads, so the 'resume' event is remaining scheduled
0731.846 (1) No email will/can be sent - the user has not configured an email address.
0731.849 (1) El respaldo no ha terminado; una reanudación está programada
1199.982 (2) Opened log file at time: Thu, 23 Nov 2017 09:23:21 +0000 on http://singlesday.es
1199.992 (2) UpdraftPlus WordPress backup plugin (https://updraftplus.com): 1.12.40 WP: 4.6.8 PHP: 5.5.9-1ubuntu4.22 (apache2handler, Linux wp-verticales 4.9.50-x86_64-linode86 #1 SMP Thu Sep 14 19:28:20 UTC 2017 x86_64) MySQL: 5.5.57 WPLANG: es_ES Server: Apache safe_mode: 0 max_execution_time: 900 memory_limit: 256M (used: 16.3M | 16.8M) multisite: N openssl: OpenSSL 1.0.1f 6 Jan 2014 mcrypt: Y LANG: C ZipArchive::addFile: Y
1199.997 (2) Free space on disk containing Updraft's temporary directory: 5619.4 MB
1200.013 (2) Backup run: resumption=2, nonce=9f4d91bdd4f4, begun at=1511427801 (1200s ago), job type=backup, previous check-in=3.9s
1200.019 (2) Scheduling a resumption (3) after 300 seconds (1511429301) in case this run gets aborted
1200.042 (2) Checking if we have a zip executable available
1200.045 (2) Creation of backups of directories: already finished
1200.047 (2) Saving backup status to database (elements: 8)
1200.053 (2) No database backup (wp) - not part of this run
1200.063 (2) backup_2017-11-23-1103_SinglesDayes_254505239189-plugins.zip: plugins: This file has already been successfully uploaded
1200.067 (2) backup_2017-11-23-1103_SinglesDayes_254505239189-themes.zip: themes: This file has already been successfully uploaded
1200.069 (2) backup_2017-11-23-1103_SinglesDayes_254505239189-uploads.zip: uploads: This file has not yet been successfully uploaded: will queue
1200.073 (2) backup_2017-11-23-1103_SinglesDayes_254505239189-others.zip: others: This file has not yet been successfully uploaded: will queue
1200.077 (2) Saving backup history. Total backup size: 232.3 MB
1200.084 (2) Requesting upload of the files that have not yet been successfully uploaded (2)
1200.097 (2) Cloud backup selection (1/1): ftp (last)
1200.104 (2) Beginning dispatch of backup to remote (ftp)
1201.067 (2) FTP upload attempt: backup_2017-11-23-1103_SinglesDayes_254505239189-uploads.zip -> ftp://ftp_wp_verticales@ftp.netsales.es//mnt/array1/BU_wp_verticales/backup_2017-11-23-1103_SinglesDayes_254505239189-uploads.zip
1201.460 (2) Ftp chunked upload: 0.3 % uploaded
1201.595 (2) Ftp chunked upload: 0.5 % uploaded
1201.755 (2) Ftp chunked upload: 0.8 % uploaded
1201.895 (2) Ftp chunked upload: 1.1 % uploaded
1202.191 (2) Ftp chunked upload: 1.6 % uploaded
1202.478 (2) Ftp chunked upload: 2.1 % uploaded
1203.046 (2) Ftp chunked upload: 3.2 % uploaded
1203.633 (2) Ftp chunked upload: 4.2 % uploaded
1204.207 (2) Ftp chunked upload: 5.3 % uploaded
1204.783 (2) Ftp chunked upload: 6.3 % uploaded
1205.367 (2) Ftp chunked upload: 7.4 % uploaded
1205.946 (2) Ftp chunked upload: 8.4 % uploaded
1206.531 (2) Ftp chunked upload: 9.4 % uploaded
1207.098 (2) Ftp chunked upload: 10.5 % uploaded
1207.700 (2) Ftp chunked upload: 11.5 % uploaded
1208.293 (2) Ftp chunked upload: 12.6 % uploaded
1208.861 (2) Ftp chunked upload: 13.6 % uploaded
1209.423 (2) Ftp chunked upload: 14.7 % uploaded
1210.041 (2) Ftp chunked upload: 15.7 % uploaded
1210.616 (2) Ftp chunked upload: 16.8 % uploaded
1211.197 (2) Ftp chunked upload: 17.8 % uploaded
1211.759 (2) Ftp chunked upload: 18.9 % uploaded
1212.336 (2) Ftp chunked upload: 19.9 % uploaded
1212.911 (2) Ftp chunked upload: 21 % uploaded
1213.476 (2) Ftp chunked upload: 22 % uploaded
1214.056 (2) Ftp chunked upload: 23.1 % uploaded
1214.634 (2) Ftp chunked upload: 24.1 % uploaded
1215.207 (2) Ftp chunked upload: 25.2 % uploaded
1215.775 (2) Ftp chunked upload: 26.2 % uploaded
1216.365 (2) Ftp chunked upload: 27.3 % uploaded
1216.935 (2) Ftp chunked upload: 28.3 % uploaded
1217.497 (2) Ftp chunked upload: 29.4 % uploaded
1218.091 (2) Ftp chunked upload: 30.4 % uploaded
1218.650 (2) Ftp chunked upload: 31.5 % uploaded
1219.273 (2) Ftp chunked upload: 32.5 % uploaded
1219.805 (2) Ftp chunked upload: 33.6 % uploaded
1220.369 (2) Ftp chunked upload: 34.6 % uploaded
1220.942 (2) Ftp chunked upload: 35.7 % uploaded
1221.519 (2) Ftp chunked upload: 36.7 % uploaded
1222.106 (2) Ftp chunked upload: 37.8 % uploaded
1222.672 (2) Ftp chunked upload: 38.8 % uploaded
1223.240 (2) Ftp chunked upload: 39.9 % uploaded
1223.816 (2) Ftp chunked upload: 40.9 % uploaded
1224.389 (2) Ftp chunked upload: 42 % uploaded
1225.227 (2) Ftp chunked upload: 43 % uploaded
1225.791 (2) Ftp chunked upload: 44.1 % uploaded
1226.377 (2) Ftp chunked upload: 45.1 % uploaded
1226.945 (2) Ftp chunked upload: 46.2 % uploaded
1227.510 (2) Ftp chunked upload: 47.2 % uploaded
1228.097 (2) Ftp chunked upload: 48.3 % uploaded
1228.658 (2) Ftp chunked upload: 49.3 % uploaded
1229.229 (2) Ftp chunked upload: 50.4 % uploaded
1229.796 (2) Ftp chunked upload: 51.4 % uploaded
1230.381 (2) Ftp chunked upload: 52.5 % uploaded
1230.952 (2) Ftp chunked upload: 53.5 % uploaded
1231.535 (2) Ftp chunked upload: 54.6 % uploaded
1232.104 (2) Ftp chunked upload: 55.6 % uploaded
1232.697 (2) Ftp chunked upload: 56.7 % uploaded
1233.419 (2) Ftp chunked upload: 57.7 % uploaded
1234.138 (2) Ftp chunked upload: 58.8 % uploaded
1234.890 (2) Ftp chunked upload: 59.8 % uploaded
1235.530 (2) Ftp chunked upload: 60.8 % uploaded
1236.082 (2) Ftp chunked upload: 61.9 % uploaded
1236.653 (2) Ftp chunked upload: 62.9 % uploaded
1237.220 (2) Ftp chunked upload: 64 % uploaded
1237.802 (2) Ftp chunked upload: 65 % uploaded
1238.374 (2) Ftp chunked upload: 66.1 % uploaded
1238.933 (2) Ftp chunked upload: 67.1 % uploaded
1239.517 (2) Ftp chunked upload: 68.2 % uploaded
1240.096 (2) Ftp chunked upload: 69.2 % uploaded
1240.668 (2) Ftp chunked upload: 70.3 % uploaded
1241.243 (2) Ftp chunked upload: 71.3 % uploaded
1241.827 (2) Ftp chunked upload: 72.4 % uploaded
1242.402 (2) Ftp chunked upload: 73.4 % uploaded
1242.973 (2) Ftp chunked upload: 74.5 % uploaded
1243.548 (2) Ftp chunked upload: 75.5 % uploaded
1244.128 (2) Ftp chunked upload: 76.6 % uploaded
1244.689 (2) Ftp chunked upload: 77.6 % uploaded
1245.260 (2) Ftp chunked upload: 78.7 % uploaded
1245.843 (2) Ftp chunked upload: 79.7 % uploaded
1246.409 (2) Ftp chunked upload: 80.8 % uploaded
1246.985 (2) Ftp chunked upload: 81.8 % uploaded
1247.559 (2) Ftp chunked upload: 82.9 % uploaded
1248.132 (2) Ftp chunked upload: 83.9 % uploaded
1248.691 (2) Ftp chunked upload: 85 % uploaded
1249.268 (2) Ftp chunked upload: 86 % uploaded
1249.855 (2) Ftp chunked upload: 87.1 % uploaded
1250.442 (2) Ftp chunked upload: 88.1 % uploaded
1250.992 (2) Ftp chunked upload: 89.2 % uploaded
1251.579 (2) Ftp chunked upload: 90.2 % uploaded
1252.145 (2) Ftp chunked upload: 91.3 % uploaded
1252.710 (2) Ftp chunked upload: 92.3 % uploaded
1253.295 (2) Ftp chunked upload: 93.4 % uploaded
1253.863 (2) Ftp chunked upload: 94.4 % uploaded
1254.428 (2) Ftp chunked upload: 95.5 % uploaded
1255.003 (2) Ftp chunked upload: 96.5 % uploaded
1255.590 (2) Ftp chunked upload: 97.6 % uploaded
1256.153 (2) Ftp chunked upload: 98.6 % uploaded
1256.750 (2) Ftp chunked upload: 99.7 % uploaded
1257.007 (2) FTP upload attempt successful (195574.3KB in 55.94s)
1257.014 (2) Recording as successfully uploaded: backup_2017-11-23-1103_SinglesDayes_254505239189-uploads.zip (9b1d32ba4cbe27d96da654ce0f81abe4)
1257.074 (2) Deleting local file: backup_2017-11-23-1103_SinglesDayes_254505239189-uploads.zip: OK
1257.085 (2) FTP upload attempt: backup_2017-11-23-1103_SinglesDayes_254505239189-others.zip -> ftp://ftp_wp_verticales@ftp.netsales.es//mnt/array1/BU_wp_verticales/backup_2017-11-23-1103_SinglesDayes_254505239189-others.zip
1257.424 (2) Ftp chunked upload: 51.9 % uploaded
1257.610 (2) FTP upload attempt successful (993.2KB in 0.52s)
1257.617 (2) Recording as successfully uploaded: backup_2017-11-23-1103_SinglesDayes_254505239189-others.zip (43e0010b11b79452fd0c411a8cfb7d39)
1257.625 (2) Deleting local file: backup_2017-11-23-1103_SinglesDayes_254505239189-others.zip: OK
1257.631 (2) Retain: beginning examination of existing backup sets; user setting: retain_files=2, retain_db=2
1257.634 (2) Number of backup sets in history: 4; groups (db): 1
1257.637 (2) Examining (for databases) backup set with group_id=0, nonce=9f4d91bdd4f4, datestamp=1511427995 (Nov 23 2017 09:06:35)
1257.638 (2) This backup set is the backup set just made, so will not be deleted.
1257.640 (2) Examining (for databases) backup set with group_id=0, nonce=9f4d91bdd4f4, datestamp=1511427801 (Nov 23 2017 09:03:21)
1257.641 (2) Examining (for databases) backup set with group_id=0, nonce=061b996b3f1b, datestamp=1510823448 (Nov 16 2017 09:10:48)
1257.644 (2) This backup set remains non-empty (f=0/d=1); will retain in history
1257.645 (2) Examining (for databases) backup set with group_id=0, nonce=a9ce099410ae, datestamp=1510823288 (Nov 16 2017 09:08:08)
1257.647 (2) Number of backup sets in history: 4; groups (files): 1
1257.649 (2) Examining (for files) backup set with nonce=9f4d91bdd4f4, datestamp=1511427995 (Nov 23 2017 09:06:35)
1257.651 (2) This backup set remains non-empty (f=0/d=1); will retain in history
1257.653 (2) Examining (for files) backup set with nonce=9f4d91bdd4f4, datestamp=1511427801 (Nov 23 2017 09:03:21)
1257.655 (2) This backup set is the backup set just made, so will not be deleted.
1257.657 (2) This backup set is the backup set just made, so will not be deleted.
1257.657 (2) This backup set is the backup set just made, so will not be deleted.
1257.657 (2) This backup set is the backup set just made, so will not be deleted.
1257.657 (2) This backup set remains non-empty (f=1/d=0); will retain in history
1257.659 (2) Examining (for files) backup set with nonce=061b996b3f1b, datestamp=1510823448 (Nov 16 2017 09:10:48)
1257.661 (2) This backup set remains non-empty (f=0/d=1); will retain in history
1257.663 (2) Examining (for files) backup set with nonce=a9ce099410ae, datestamp=1510823288 (Nov 16 2017 09:08:08)
1257.665 (2) This backup set remains non-empty (f=1/d=0); will retain in history
1257.667 (2) Retain: saving new backup history (sets now: 4) and finishing retain operation
1257.708 (2) Resume backup (9f4d91bdd4f4, 2): finish run
1257.717 (2) There were no errors in the uploads, so the 'resume' event (3) is being unscheduled
1257.725 (2) The backup apparently succeeded and is now complete
1257.727 (2) No email will/can be sent - the user has not configured an email address.
1257.728 (2) El respaldo parece haber tenido éxito y ahora está completado
