0000.000 (0) Opened log file at time: Thu, 26 Oct 2017 09:07:31 +0000 on http://singlesday.es
0000.001 (0) UpdraftPlus WordPress backup plugin (https://updraftplus.com): 1.12.40 WP: 4.6.7 PHP: 5.5.9-1ubuntu4.22 (apache2handler, Linux wp-verticales 4.9.50-x86_64-linode86 #1 SMP Thu Sep 14 19:28:20 UTC 2017 x86_64) MySQL: 5.5.57 WPLANG: es_ES Server: Apache safe_mode: 0 max_execution_time: 900 memory_limit: 256M (used: 57.2M | 60.3M) multisite: N openssl: OpenSSL 1.0.1f 6 Jan 2014 mcrypt: Y LANG: C ZipArchive::addFile: Y
0000.003 (0) Free space on disk containing Updraft's temporary directory: 6634.4 MB
0000.008 (0) Tasks: Backup files:  (schedule: manual) Backup DB: 1 (schedule: manual)
0000.010 (0) Processed schedules. Tasks now: Backup files:  Backup DB: 1
0000.015 (0) Requesting semaphore lock (d) (apparently via scheduler: last_scheduled_action_called_at=1508404137, seconds_ago=604714)
0000.030 (0) Set semaphore last lock (d) time to 2017-10-26 09:07:31
0000.032 (0) Semaphore lock (d) complete
0000.047 (0) Backup run: resumption=0, nonce=f90235b047f5, begun at=1509008851 (0s ago), job type=backup
0000.048 (0) Scheduling a resumption (1) after 300 seconds (1509009151) in case this run gets aborted
0000.052 (0) This backup run is not intended for files - skipping
0000.053 (0) Beginning creation of database dump (WordPress DB)
0000.055 (0) Testing: /usr/bin/mysqldump
0000.094 (0) Output: /*!40103 SET @OLD_TIME_ZONE=@@TIME_ZONE */;\n/*!40103 SET TIME_ZONE='+00:00' */;\n/*!40014 SET @OLD_UNIQUE_CHECKS=@@UNIQUE_CHECKS, UNIQUE_CHECKS=0 */;\n/*!40014 SET @OLD_FOREIGN_KEY_CHECKS=@@FOREIGN_KEY_CHECKS, FOREIGN_KEY_CHECKS=0 */;\n/*!40101 SET @OLD_SQL_MODE=@@SQL_MODE, SQL_MODE='NO_AUTO_VALUE_ON_ZERO' */;\n/*!40111 SET @OLD_SQL_NOTES=@@SQL_NOTES, SQL_NOTES=0 */;\nDROP TABLE IF EXISTS `wp_options`;\n/*!40101 SET @saved_cs_client     = @@character_set_client */;\n/*!40101 SET character_set_client = utf8 */;\nCRE (truncated - 1192 bytes total)
0000.096 (0) Working binary mysqldump found: /usr/bin/mysqldump
0000.124 (0) Table wp_options: Total expected rows (approximate): 2715
0000.197 (0) Table wp_options: Total rows added: 964 in 0.06 seconds
0000.200 (0) Table wp_options: finishing file (backup_2017-10-26-1107_SinglesDayes_f90235b047f5-db-table-wp_options.table.gz - 178.6 KB)
0000.206 (0) Table wp_users: Total expected rows (approximate): 4
0000.210 (0) Table wp_users: Total rows added: 4 in 0.00 seconds
0000.212 (0) Table wp_users: finishing file (backup_2017-10-26-1107_SinglesDayes_f90235b047f5-db-table-wp_users.table.gz - 0.8 KB)
0000.218 (0) Table wp_usermeta: Total expected rows (approximate): 63
0000.222 (0) Table wp_usermeta: Total rows added: 63 in 0.00 seconds
0000.224 (0) Table wp_usermeta: finishing file (backup_2017-10-26-1107_SinglesDayes_f90235b047f5-db-table-wp_usermeta.table.gz - 1.9 KB)
0000.230 (0) Table wp_commentmeta: Total expected rows (approximate): 6
0000.234 (0) Table wp_commentmeta: Total rows added: 6 in 0.00 seconds
0000.235 (0) Table wp_commentmeta: finishing file (backup_2017-10-26-1107_SinglesDayes_f90235b047f5-db-table-wp_commentmeta.table.gz - 0.4 KB)
0000.243 (0) Table wp_comments: Total expected rows (approximate): 97
0000.267 (0) Table wp_comments: Total rows added: 88 in 0.02 seconds
0000.270 (0) Table wp_comments: finishing file (backup_2017-10-26-1107_SinglesDayes_f90235b047f5-db-table-wp_comments.table.gz - 62.3 KB)
0000.278 (0) Table wp_links: Total expected rows (approximate): 0
0000.282 (0) Table wp_links: Total rows added: 0 in 0.00 seconds
0000.283 (0) Table wp_links: finishing file (backup_2017-10-26-1107_SinglesDayes_f90235b047f5-db-table-wp_links.table.gz - 0.4 KB)
0000.296 (0) Table wp_postmeta: Total expected rows (approximate): 3480
0000.481 (0) Table wp_postmeta: Total rows added: 6758 in 0.18 seconds
0000.492 (0) Table wp_postmeta: finishing file (backup_2017-10-26-1107_SinglesDayes_f90235b047f5-db-table-wp_postmeta.table.gz - 173.1 KB)
0000.512 (0) Table wp_posts: Total expected rows (approximate): 396
0000.591 (0) Table wp_posts: Total rows added: 638 in 0.08 seconds
0000.594 (0) Table wp_posts: finishing file (backup_2017-10-26-1107_SinglesDayes_f90235b047f5-db-table-wp_posts.table.gz - 125 KB)
0000.600 (0) Table wp_term_relationships: Total expected rows (approximate): 274
0000.607 (0) Table wp_term_relationships: Total rows added: 274 in 0.01 seconds
0000.609 (0) Table wp_term_relationships: finishing file (backup_2017-10-26-1107_SinglesDayes_f90235b047f5-db-table-wp_term_relationships.table.gz - 1 KB)
0000.617 (0) Table wp_term_taxonomy: Total expected rows (approximate): 28
0000.621 (0) Table wp_term_taxonomy: Total rows added: 28 in 0.00 seconds
0000.622 (0) Table wp_term_taxonomy: finishing file (backup_2017-10-26-1107_SinglesDayes_f90235b047f5-db-table-wp_term_taxonomy.table.gz - 1.1 KB)
0000.627 (0) Table wp_termmeta: Total expected rows (approximate): 34
0000.632 (0) Table wp_termmeta: Total rows added: 34 in 0.00 seconds
0000.642 (0) Table wp_termmeta: finishing file (backup_2017-10-26-1107_SinglesDayes_f90235b047f5-db-table-wp_termmeta.table.gz - 0.6 KB)
0000.649 (0) Table wp_terms: Total expected rows (approximate): 28
0000.653 (0) Table wp_terms: Total rows added: 28 in 0.00 seconds
0000.654 (0) Table wp_terms: finishing file (backup_2017-10-26-1107_SinglesDayes_f90235b047f5-db-table-wp_terms.table.gz - 0.8 KB)
0000.662 (0) Table wp_woocommerce_order_itemmeta: Total expected rows (approximate): 0
0000.667 (0) Table wp_woocommerce_order_itemmeta: Total rows added: 0 in 0.00 seconds
0000.669 (0) Table wp_woocommerce_order_itemmeta: finishing file (backup_2017-10-26-1107_SinglesDayes_f90235b047f5-db-table-wp_woocommerce_order_itemmeta.table.gz - 0.4 KB)
0000.678 (0) Table wp_woocommerce_payment_tokenmeta: Total expected rows (approximate): 0
0000.682 (0) Table wp_woocommerce_payment_tokenmeta: Total rows added: 0 in 0.00 seconds
0000.684 (0) Table wp_woocommerce_payment_tokenmeta: finishing file (backup_2017-10-26-1107_SinglesDayes_f90235b047f5-db-table-wp_woocommerce_payment_tokenmeta.table.gz - 0.4 KB)
0000.689 (0) Table wp_aiowps_events: Total expected rows (approximate): 0
0000.692 (0) Table wp_aiowps_events: Total rows added: 0 in 0.00 seconds
0000.694 (0) Table wp_aiowps_events: finishing file (backup_2017-10-26-1107_SinglesDayes_f90235b047f5-db-table-wp_aiowps_events.table.gz - 0.4 KB)
0000.701 (0) Table wp_aiowps_failed_logins: Total expected rows (approximate): 5322
0000.818 (0) Table wp_aiowps_failed_logins: Total rows added: 5000 in 0.12 seconds
0000.821 (0) Table wp_aiowps_failed_logins: finishing file (backup_2017-10-26-1107_SinglesDayes_f90235b047f5-db-table-wp_aiowps_failed_logins.table.gz - 30.2 KB)
0000.828 (0) Table wp_aiowps_global_meta: Total expected rows (approximate): 0
0000.831 (0) Table wp_aiowps_global_meta: Total rows added: 0 in 0.00 seconds
0000.834 (0) Table wp_aiowps_global_meta: finishing file (backup_2017-10-26-1107_SinglesDayes_f90235b047f5-db-table-wp_aiowps_global_meta.table.gz - 0.4 KB)
0000.841 (0) Table wp_aiowps_login_activity: Total expected rows (approximate): 0
0000.845 (0) Table wp_aiowps_login_activity: Total rows added: 0 in 0.00 seconds
0000.847 (0) Table wp_aiowps_login_activity: finishing file (backup_2017-10-26-1107_SinglesDayes_f90235b047f5-db-table-wp_aiowps_login_activity.table.gz - 0.4 KB)
0000.852 (0) Table wp_aiowps_login_lockdown: Total expected rows (approximate): 0
0000.855 (0) Table wp_aiowps_login_lockdown: Total rows added: 0 in 0.00 seconds
0000.857 (0) Table wp_aiowps_login_lockdown: finishing file (backup_2017-10-26-1107_SinglesDayes_f90235b047f5-db-table-wp_aiowps_login_lockdown.table.gz - 0.4 KB)
0000.867 (0) Table wp_aiowps_permanent_block: Total expected rows (approximate): 0
0000.873 (0) Table wp_aiowps_permanent_block: Total rows added: 0 in 0.00 seconds
0000.876 (0) Table wp_aiowps_permanent_block: finishing file (backup_2017-10-26-1107_SinglesDayes_f90235b047f5-db-table-wp_aiowps_permanent_block.table.gz - 0.4 KB)
0000.887 (0) Table wp_cegg_autoblog: Total expected rows (approximate): 0
0000.893 (0) Table wp_cegg_autoblog: Total rows added: 0 in 0.00 seconds
0000.895 (0) Table wp_cegg_autoblog: finishing file (backup_2017-10-26-1107_SinglesDayes_f90235b047f5-db-table-wp_cegg_autoblog.table.gz - 0.5 KB)
0000.905 (0) Table wp_cegg_price_alert: Total expected rows (approximate): 0
0000.913 (0) Table wp_cegg_price_alert: Total rows added: 0 in 0.00 seconds
0000.915 (0) Table wp_cegg_price_alert: finishing file (backup_2017-10-26-1107_SinglesDayes_f90235b047f5-db-table-wp_cegg_price_alert.table.gz - 0.5 KB)
0000.926 (0) Table wp_cegg_price_history: Total expected rows (approximate): 0
0000.929 (0) Table wp_cegg_price_history: Total rows added: 0 in 0.00 seconds
0000.931 (0) Table wp_cegg_price_history: finishing file (backup_2017-10-26-1107_SinglesDayes_f90235b047f5-db-table-wp_cegg_price_history.table.gz - 0.4 KB)
0000.938 (0) Table wp_newsletter: Total expected rows (approximate): 11
0000.948 (0) Table wp_newsletter: Total rows added: 11 in 0.00 seconds
0000.950 (0) Table wp_newsletter: finishing file (backup_2017-10-26-1107_SinglesDayes_f90235b047f5-db-table-wp_newsletter.table.gz - 1.3 KB)
0000.956 (0) Table wp_newsletter_emails: Total expected rows (approximate): 0
0000.960 (0) Table wp_newsletter_emails: Total rows added: 0 in 0.00 seconds
0000.961 (0) Table wp_newsletter_emails: finishing file (backup_2017-10-26-1107_SinglesDayes_f90235b047f5-db-table-wp_newsletter_emails.table.gz - 0.5 KB)
0000.970 (0) Table wp_newsletter_sent: Total expected rows (approximate): 0
0000.973 (0) Table wp_newsletter_sent: Total rows added: 0 in 0.00 seconds
0000.974 (0) Table wp_newsletter_sent: finishing file (backup_2017-10-26-1107_SinglesDayes_f90235b047f5-db-table-wp_newsletter_sent.table.gz - 0.3 KB)
0000.982 (0) Table wp_newsletter_stats: Total expected rows (approximate): 0
0000.987 (0) Table wp_newsletter_stats: Total rows added: 0 in 0.00 seconds
0000.989 (0) Table wp_newsletter_stats: finishing file (backup_2017-10-26-1107_SinglesDayes_f90235b047f5-db-table-wp_newsletter_stats.table.gz - 0.4 KB)
0000.997 (0) Table wp_pmxi_files: Total expected rows (approximate): 2
0001.003 (0) Table wp_pmxi_files: Total rows added: 2 in 0.00 seconds
0001.005 (0) Table wp_pmxi_files: finishing file (backup_2017-10-26-1107_SinglesDayes_f90235b047f5-db-table-wp_pmxi_files.table.gz - 0.5 KB)
0001.015 (0) Table wp_pmxi_history: Total expected rows (approximate): 2
0001.019 (0) Table wp_pmxi_history: Total rows added: 2 in 0.00 seconds
0001.021 (0) Table wp_pmxi_history: finishing file (backup_2017-10-26-1107_SinglesDayes_f90235b047f5-db-table-wp_pmxi_history.table.gz - 0.5 KB)
0001.028 (0) Table wp_pmxi_imports: Total expected rows (approximate): 1
0001.036 (0) Table wp_pmxi_imports: Total rows added: 2 in 0.00 seconds
0001.040 (0) Table wp_pmxi_imports: finishing file (backup_2017-10-26-1107_SinglesDayes_f90235b047f5-db-table-wp_pmxi_imports.table.gz - 4.3 KB)
0001.050 (0) Table wp_pmxi_posts: Total expected rows (approximate): 93
0001.058 (0) Table wp_pmxi_posts: Total rows added: 93 in 0.00 seconds
0001.061 (0) Table wp_pmxi_posts: finishing file (backup_2017-10-26-1107_SinglesDayes_f90235b047f5-db-table-wp_pmxi_posts.table.gz - 1.4 KB)
0001.068 (0) Table wp_pmxi_templates: Total expected rows (approximate): 0
0001.076 (0) Table wp_pmxi_templates: Total rows added: 0 in 0.00 seconds
0001.078 (0) Table wp_pmxi_templates: finishing file (backup_2017-10-26-1107_SinglesDayes_f90235b047f5-db-table-wp_pmxi_templates.table.gz - 0.4 KB)
0001.088 (0) Table wp_woocommerce_api_keys: Total expected rows (approximate): 0
0001.093 (0) Table wp_woocommerce_api_keys: Total rows added: 0 in 0.00 seconds
0001.095 (0) Table wp_woocommerce_api_keys: finishing file (backup_2017-10-26-1107_SinglesDayes_f90235b047f5-db-table-wp_woocommerce_api_keys.table.gz - 0.4 KB)
0001.105 (0) Table wp_woocommerce_attribute_taxonomies: Total expected rows (approximate): 0
0001.109 (0) Table wp_woocommerce_attribute_taxonomies: Total rows added: 0 in 0.00 seconds
0001.111 (0) Table wp_woocommerce_attribute_taxonomies: finishing file (backup_2017-10-26-1107_SinglesDayes_f90235b047f5-db-table-wp_woocommerce_attribute_taxonomies.table.gz - 0.4 KB)
0001.124 (0) Table wp_woocommerce_downloadable_product_permissions: Total expected rows (approximate): 0
0001.129 (0) Table wp_woocommerce_downloadable_product_permissions: Total rows added: 0 in 0.00 seconds
0001.131 (0) Table wp_woocommerce_downloadable_product_permissions: finishing file (backup_2017-10-26-1107_SinglesDayes_f90235b047f5-db-table-wp_woocommerce_downloadable_product_permissions.table.gz - 0.5 KB)
0001.139 (0) Table wp_woocommerce_order_items: Total expected rows (approximate): 0
0001.148 (0) Table wp_woocommerce_order_items: Total rows added: 0 in 0.00 seconds
0001.151 (0) Table wp_woocommerce_order_items: finishing file (backup_2017-10-26-1107_SinglesDayes_f90235b047f5-db-table-wp_woocommerce_order_items.table.gz - 0.3 KB)
0001.162 (0) Table wp_woocommerce_payment_tokens: Total expected rows (approximate): 0
0001.168 (0) Table wp_woocommerce_payment_tokens: Total rows added: 0 in 0.00 seconds
0001.171 (0) Table wp_woocommerce_payment_tokens: finishing file (backup_2017-10-26-1107_SinglesDayes_f90235b047f5-db-table-wp_woocommerce_payment_tokens.table.gz - 0.4 KB)
0001.184 (0) Table wp_woocommerce_sessions: Total expected rows (approximate): 173
0001.199 (0) Table wp_woocommerce_sessions: Total rows added: 168 in 0.01 seconds
0001.202 (0) Table wp_woocommerce_sessions: finishing file (backup_2017-10-26-1107_SinglesDayes_f90235b047f5-db-table-wp_woocommerce_sessions.table.gz - 12.8 KB)
0001.211 (0) Table wp_woocommerce_shipping_zone_locations: Total expected rows (approximate): 0
0001.216 (0) Table wp_woocommerce_shipping_zone_locations: Total rows added: 0 in 0.00 seconds
0001.218 (0) Table wp_woocommerce_shipping_zone_locations: finishing file (backup_2017-10-26-1107_SinglesDayes_f90235b047f5-db-table-wp_woocommerce_shipping_zone_locations.table.gz - 0.4 KB)
0001.227 (0) Table wp_woocommerce_shipping_zone_methods: Total expected rows (approximate): 0
0001.232 (0) Table wp_woocommerce_shipping_zone_methods: Total rows added: 0 in 0.00 seconds
0001.235 (0) Table wp_woocommerce_shipping_zone_methods: finishing file (backup_2017-10-26-1107_SinglesDayes_f90235b047f5-db-table-wp_woocommerce_shipping_zone_methods.table.gz - 0.4 KB)
0001.244 (0) Table wp_woocommerce_shipping_zones: Total expected rows (approximate): 0
0001.246 (0) Table wp_woocommerce_shipping_zones: Total rows added: 0 in 0.00 seconds
0001.248 (0) Table wp_woocommerce_shipping_zones: finishing file (backup_2017-10-26-1107_SinglesDayes_f90235b047f5-db-table-wp_woocommerce_shipping_zones.table.gz - 0.3 KB)
0001.257 (0) Table wp_woocommerce_tax_rate_locations: Total expected rows (approximate): 0
0001.260 (0) Table wp_woocommerce_tax_rate_locations: Total rows added: 0 in 0.00 seconds
0001.262 (0) Table wp_woocommerce_tax_rate_locations: finishing file (backup_2017-10-26-1107_SinglesDayes_f90235b047f5-db-table-wp_woocommerce_tax_rate_locations.table.gz - 0.4 KB)
0001.268 (0) Table wp_woocommerce_tax_rates: Total expected rows (approximate): 0
0001.272 (0) Table wp_woocommerce_tax_rates: Total rows added: 0 in 0.00 seconds
0001.274 (0) Table wp_woocommerce_tax_rates: finishing file (backup_2017-10-26-1107_SinglesDayes_f90235b047f5-db-table-wp_woocommerce_tax_rates.table.gz - 0.4 KB)
0001.286 (0) Table wp_yith_wcwl: Total expected rows (approximate): 0
0001.290 (0) Table wp_yith_wcwl: Total rows added: 0 in 0.00 seconds
0001.292 (0) Table wp_yith_wcwl: finishing file (backup_2017-10-26-1107_SinglesDayes_f90235b047f5-db-table-wp_yith_wcwl.table.gz - 0.3 KB)
0001.302 (0) Table wp_yith_wcwl_lists: Total expected rows (approximate): 0
0001.305 (0) Table wp_yith_wcwl_lists: Total rows added: 0 in 0.00 seconds
0001.307 (0) Table wp_yith_wcwl_lists: finishing file (backup_2017-10-26-1107_SinglesDayes_f90235b047f5-db-table-wp_yith_wcwl_lists.table.gz - 0.4 KB)
0001.310 (0) backup_2017-10-26-1107_SinglesDayes_f90235b047f5-db-table-wp_options.table.gz (1/45): adding to final database dump
0001.353 (0) backup_2017-10-26-1107_SinglesDayes_f90235b047f5-db-table-wp_users.table.gz (2/45): adding to final database dump
0001.356 (0) backup_2017-10-26-1107_SinglesDayes_f90235b047f5-db-table-wp_usermeta.table.gz (3/45): adding to final database dump
0001.358 (0) backup_2017-10-26-1107_SinglesDayes_f90235b047f5-db-table-wp_commentmeta.table.gz (4/45): adding to final database dump
0001.360 (0) backup_2017-10-26-1107_SinglesDayes_f90235b047f5-db-table-wp_comments.table.gz (5/45): adding to final database dump
0001.373 (0) backup_2017-10-26-1107_SinglesDayes_f90235b047f5-db-table-wp_links.table.gz (6/45): adding to final database dump
0001.376 (0) backup_2017-10-26-1107_SinglesDayes_f90235b047f5-db-table-wp_postmeta.table.gz (7/45): adding to final database dump
0001.450 (0) backup_2017-10-26-1107_SinglesDayes_f90235b047f5-db-table-wp_posts.table.gz (8/45): adding to final database dump
0001.481 (0) backup_2017-10-26-1107_SinglesDayes_f90235b047f5-db-table-wp_term_relationships.table.gz (9/45): adding to final database dump
0001.486 (0) backup_2017-10-26-1107_SinglesDayes_f90235b047f5-db-table-wp_term_taxonomy.table.gz (10/45): adding to final database dump
0001.488 (0) backup_2017-10-26-1107_SinglesDayes_f90235b047f5-db-table-wp_termmeta.table.gz (11/45): adding to final database dump
0001.490 (0) backup_2017-10-26-1107_SinglesDayes_f90235b047f5-db-table-wp_terms.table.gz (12/45): adding to final database dump
0001.500 (0) backup_2017-10-26-1107_SinglesDayes_f90235b047f5-db-table-wp_woocommerce_order_itemmeta.table.gz (13/45): adding to final database dump
0001.503 (0) backup_2017-10-26-1107_SinglesDayes_f90235b047f5-db-table-wp_woocommerce_payment_tokenmeta.table.gz (14/45): adding to final database dump
0001.505 (0) backup_2017-10-26-1107_SinglesDayes_f90235b047f5-db-table-wp_aiowps_events.table.gz (15/45): adding to final database dump
0001.506 (0) backup_2017-10-26-1107_SinglesDayes_f90235b047f5-db-table-wp_aiowps_failed_logins.table.gz (16/45): adding to final database dump
0001.537 (0) backup_2017-10-26-1107_SinglesDayes_f90235b047f5-db-table-wp_aiowps_global_meta.table.gz (17/45): adding to final database dump
0001.540 (0) backup_2017-10-26-1107_SinglesDayes_f90235b047f5-db-table-wp_aiowps_login_activity.table.gz (18/45): adding to final database dump
0001.541 (0) backup_2017-10-26-1107_SinglesDayes_f90235b047f5-db-table-wp_aiowps_login_lockdown.table.gz (19/45): adding to final database dump
0001.542 (0) backup_2017-10-26-1107_SinglesDayes_f90235b047f5-db-table-wp_aiowps_permanent_block.table.gz (20/45): adding to final database dump
0001.544 (0) backup_2017-10-26-1107_SinglesDayes_f90235b047f5-db-table-wp_cegg_autoblog.table.gz (21/45): adding to final database dump
0001.545 (0) backup_2017-10-26-1107_SinglesDayes_f90235b047f5-db-table-wp_cegg_price_alert.table.gz (22/45): adding to final database dump
0001.547 (0) backup_2017-10-26-1107_SinglesDayes_f90235b047f5-db-table-wp_cegg_price_history.table.gz (23/45): adding to final database dump
0001.549 (0) backup_2017-10-26-1107_SinglesDayes_f90235b047f5-db-table-wp_newsletter.table.gz (24/45): adding to final database dump
0001.552 (0) backup_2017-10-26-1107_SinglesDayes_f90235b047f5-db-table-wp_newsletter_emails.table.gz (25/45): adding to final database dump
0001.553 (0) backup_2017-10-26-1107_SinglesDayes_f90235b047f5-db-table-wp_newsletter_sent.table.gz (26/45): adding to final database dump
0001.555 (0) backup_2017-10-26-1107_SinglesDayes_f90235b047f5-db-table-wp_newsletter_stats.table.gz (27/45): adding to final database dump
0001.556 (0) backup_2017-10-26-1107_SinglesDayes_f90235b047f5-db-table-wp_pmxi_files.table.gz (28/45): adding to final database dump
0001.558 (0) backup_2017-10-26-1107_SinglesDayes_f90235b047f5-db-table-wp_pmxi_history.table.gz (29/45): adding to final database dump
0001.559 (0) backup_2017-10-26-1107_SinglesDayes_f90235b047f5-db-table-wp_pmxi_imports.table.gz (30/45): adding to final database dump
0001.561 (0) backup_2017-10-26-1107_SinglesDayes_f90235b047f5-db-table-wp_pmxi_posts.table.gz (31/45): adding to final database dump
0001.563 (0) backup_2017-10-26-1107_SinglesDayes_f90235b047f5-db-table-wp_pmxi_templates.table.gz (32/45): adding to final database dump
0001.564 (0) backup_2017-10-26-1107_SinglesDayes_f90235b047f5-db-table-wp_woocommerce_api_keys.table.gz (33/45): adding to final database dump
0001.566 (0) backup_2017-10-26-1107_SinglesDayes_f90235b047f5-db-table-wp_woocommerce_attribute_taxonomies.table.gz (34/45): adding to final database dump
0001.567 (0) backup_2017-10-26-1107_SinglesDayes_f90235b047f5-db-table-wp_woocommerce_downloadable_product_permissions.table.gz (35/45): adding to final database dump
0001.569 (0) backup_2017-10-26-1107_SinglesDayes_f90235b047f5-db-table-wp_woocommerce_order_items.table.gz (36/45): adding to final database dump
0001.579 (0) backup_2017-10-26-1107_SinglesDayes_f90235b047f5-db-table-wp_woocommerce_payment_tokens.table.gz (37/45): adding to final database dump
0001.581 (0) backup_2017-10-26-1107_SinglesDayes_f90235b047f5-db-table-wp_woocommerce_sessions.table.gz (38/45): adding to final database dump
0001.586 (0) backup_2017-10-26-1107_SinglesDayes_f90235b047f5-db-table-wp_woocommerce_shipping_zone_locations.table.gz (39/45): adding to final database dump
0001.589 (0) backup_2017-10-26-1107_SinglesDayes_f90235b047f5-db-table-wp_woocommerce_shipping_zone_methods.table.gz (40/45): adding to final database dump
0001.591 (0) backup_2017-10-26-1107_SinglesDayes_f90235b047f5-db-table-wp_woocommerce_shipping_zones.table.gz (41/45): adding to final database dump
0001.592 (0) backup_2017-10-26-1107_SinglesDayes_f90235b047f5-db-table-wp_woocommerce_tax_rate_locations.table.gz (42/45): adding to final database dump
0001.602 (0) backup_2017-10-26-1107_SinglesDayes_f90235b047f5-db-table-wp_woocommerce_tax_rates.table.gz (43/45): adding to final database dump
0001.604 (0) backup_2017-10-26-1107_SinglesDayes_f90235b047f5-db-table-wp_yith_wcwl.table.gz (44/45): adding to final database dump
0001.605 (0) backup_2017-10-26-1107_SinglesDayes_f90235b047f5-db-table-wp_yith_wcwl_lists.table.gz (45/45): adding to final database dump
0001.607 (0) backup_2017-10-26-1107_SinglesDayes_f90235b047f5-db.gz: finished writing out complete database file (568 KB)
0001.639 (0) Total database tables backed up: 45 (backup_2017-10-26-1107_SinglesDayes_f90235b047f5-db.gz, size: 611320, sha256)
0001.668 (0) backup_2017-10-26-1107_SinglesDayes_f90235b047f5-db.gz: db: This file has not yet been successfully uploaded: will queue
0001.679 (0) Saving backup history. Total backup size: 597 KB
0001.692 (0) Requesting upload of the files that have not yet been successfully uploaded (1)
0001.695 (0) Cloud backup selection (1/1): ftp (last)
0001.705 (0) Beginning dispatch of backup to remote (ftp)
0002.566 (0) FTP upload attempt: backup_2017-10-26-1107_SinglesDayes_f90235b047f5-db.gz -> ftp://ftp_wp_verticales@ftp.netsales.es//mnt/array1/BU_wp_verticales/backup_2017-10-26-1107_SinglesDayes_f90235b047f5-db.gz
0062.647 (0) PHP event: code E_WARNING: ftp_nb_fput(): PORT command successful (line 78, wp-content/plugins/updraftplus/includes/ftp.class.php)
0062.650 (0) FTP upload: error (0)
0062.652 (0) ERROR: FTP upload failed
0062.656 (0) Retain: beginning examination of existing backup sets; user setting: retain_files=2, retain_db=2
0062.666 (0) Number of backup sets in history: 5; groups (db): 1
0062.668 (0) Examining (for databases) backup set with group_id=0, nonce=f90235b047f5, datestamp=1509008851 (Oct 26 2017 09:07:31)
0062.669 (0) This backup set is the backup set just made, so will not be deleted.
0062.670 (0) Examining (for databases) backup set with group_id=0, nonce=11894180bcb0, datestamp=1509008691 (Oct 26 2017 09:04:51)
0062.671 (0) Examining (for databases) backup set with group_id=0, nonce=feef5137c6c6, datestamp=1508404137 (Oct 19 2017 09:08:57)
0062.672 (0) This backup set remains non-empty (f=0/d=1); will retain in history
0062.674 (0) Examining (for databases) backup set with group_id=0, nonce=aa68e5cfcaae, datestamp=1508403979 (Oct 19 2017 09:06:19)
0062.674 (0) Examining (for databases) backup set with group_id=0, nonce=db662dda1260, datestamp=1507799233 (Oct 12 2017 09:07:13)
0062.675 (0) 1507799233: db: this set includes a database (backup_2017-10-12-1107_SinglesDayes_db662dda1260-db.gz); db count is now 2
0062.677 (0) 1507799233: db: over retain limit (2); will delete this database
0062.678 (0) Delete file: backup_2017-10-12-1107_SinglesDayes_db662dda1260-db.gz, service=ftp
0065.820 (0) FTP delete: failed (/mnt/array1/BU_wp_verticales/backup_2017-10-12-1107_SinglesDayes_db662dda1260-db.gz)
0065.829 (0) This backup set is now empty; will remove from history
0065.831 (0) Deleting log file (log.db662dda1260.txt)
0065.833 (0) Retain: saving new backup history, because at least 10 seconds have passed since the last save (sets now: 4)
0065.863 (0) Number of backup sets in history: 4; groups (files): 1
0065.866 (0) Examining (for files) backup set with nonce=f90235b047f5, datestamp=1509008851 (Oct 26 2017 09:07:31)
0065.868 (0) This backup set remains non-empty (f=0/d=1); will retain in history
0065.870 (0) Examining (for files) backup set with nonce=11894180bcb0, datestamp=1509008691 (Oct 26 2017 09:04:51)
0065.881 (0) This backup set remains non-empty (f=1/d=0); will retain in history
0065.883 (0) Examining (for files) backup set with nonce=feef5137c6c6, datestamp=1508404137 (Oct 19 2017 09:08:57)
0065.884 (0) This backup set remains non-empty (f=0/d=1); will retain in history
0065.886 (0) Examining (for files) backup set with nonce=aa68e5cfcaae, datestamp=1508403979 (Oct 19 2017 09:06:19)
0065.887 (0) This backup set remains non-empty (f=1/d=0); will retain in history
0065.889 (0) Retain: saving new backup history (sets now: 4) and finishing retain operation
0065.903 (0) Resume backup (f90235b047f5, 0): finish run
0065.923 (0) Decremented the semaphore (d) by 1
0065.926 (0) Semaphore (d) unlocked
0065.927 (0) There were errors in the uploads, so the 'resume' event is remaining scheduled
0065.932 (0) No email will/can be sent - the user has not configured an email address.
0065.934 (0) El respaldo no ha terminado; una reanudación está programada
0479.275 (1) Opened log file at time: Thu, 26 Oct 2017 09:15:30 +0000 on http://singlesday.es
0479.281 (1) UpdraftPlus WordPress backup plugin (https://updraftplus.com): 1.12.40 WP: 4.6.7 PHP: 5.5.9-1ubuntu4.22 (apache2handler, Linux wp-verticales 4.9.50-x86_64-linode86 #1 SMP Thu Sep 14 19:28:20 UTC 2017 x86_64) MySQL: 5.5.57 WPLANG: es_ES Server: Apache safe_mode: 0 max_execution_time: 900 memory_limit: 256M (used: 55.6M | 56.8M) multisite: N openssl: OpenSSL 1.0.1f 6 Jan 2014 mcrypt: Y LANG: C ZipArchive::addFile: Y
0479.283 (1) Free space on disk containing Updraft's temporary directory: 6634.5 MB
0479.286 (1) Backup run: resumption=1, nonce=f90235b047f5, begun at=1509008851 (479s ago), job type=backup, previous check-in=65.8s
0479.290 (1) Scheduling a resumption (2) after 300 seconds (1509009630) in case this run gets aborted
0479.303 (1) This backup run is not intended for files - skipping
0479.305 (1) Database dump (WordPress DB): Creation was completed already
0479.322 (1) backup_2017-10-26-1107_SinglesDayes_f90235b047f5-db.gz: db: This file has not yet been successfully uploaded: will queue
0479.325 (1) Saving backup history. Total backup size: 597 KB
0479.340 (1) Requesting upload of the files that have not yet been successfully uploaded (1)
0479.355 (1) Cloud backup selection (1/1): ftp (last)
0479.360 (1) Beginning dispatch of backup to remote (ftp)
0480.240 (1) FTP upload attempt: backup_2017-10-26-1107_SinglesDayes_f90235b047f5-db.gz -> ftp://ftp_wp_verticales@ftp.netsales.es//mnt/array1/BU_wp_verticales/backup_2017-10-26-1107_SinglesDayes_f90235b047f5-db.gz
0540.354 (1) PHP event: code E_WARNING: ftp_nb_fput(): PORT command successful (line 78, wp-content/plugins/updraftplus/includes/ftp.class.php)
0540.358 (1) FTP upload: error (0)
0540.360 (1) ERROR: FTP upload failed
0540.361 (1) An error condition has occurred for the first time during this job
0540.365 (1) Retain: beginning examination of existing backup sets; user setting: retain_files=2, retain_db=2
0540.368 (1) Number of backup sets in history: 4; groups (db): 1
0540.370 (1) Examining (for databases) backup set with group_id=0, nonce=f90235b047f5, datestamp=1509008851 (Oct 26 2017 09:07:31)
0540.371 (1) This backup set is the backup set just made, so will not be deleted.
0540.373 (1) Examining (for databases) backup set with group_id=0, nonce=11894180bcb0, datestamp=1509008691 (Oct 26 2017 09:04:51)
0540.375 (1) Examining (for databases) backup set with group_id=0, nonce=feef5137c6c6, datestamp=1508404137 (Oct 19 2017 09:08:57)
0540.377 (1) This backup set remains non-empty (f=0/d=1); will retain in history
0540.378 (1) Examining (for databases) backup set with group_id=0, nonce=aa68e5cfcaae, datestamp=1508403979 (Oct 19 2017 09:06:19)
0540.380 (1) Number of backup sets in history: 4; groups (files): 1
0540.381 (1) Examining (for files) backup set with nonce=f90235b047f5, datestamp=1509008851 (Oct 26 2017 09:07:31)
0540.383 (1) This backup set remains non-empty (f=0/d=1); will retain in history
0540.385 (1) Examining (for files) backup set with nonce=11894180bcb0, datestamp=1509008691 (Oct 26 2017 09:04:51)
0540.387 (1) This backup set remains non-empty (f=1/d=0); will retain in history
0540.388 (1) Examining (for files) backup set with nonce=feef5137c6c6, datestamp=1508404137 (Oct 19 2017 09:08:57)
0540.399 (1) This backup set remains non-empty (f=0/d=1); will retain in history
0540.402 (1) Examining (for files) backup set with nonce=aa68e5cfcaae, datestamp=1508403979 (Oct 19 2017 09:06:19)
0540.403 (1) This backup set remains non-empty (f=1/d=0); will retain in history
0540.404 (1) Retain: saving new backup history (sets now: 4) and finishing retain operation
0543.499 (1) Resume backup (f90235b047f5, 1): finish run
0543.518 (1) There were errors in the uploads, so the 'resume' event is remaining scheduled
0543.522 (1) No email will/can be sent - the user has not configured an email address.
0543.533 (1) El respaldo no ha terminado; una reanudación está programada
0779.851 (2) Opened log file at time: Thu, 26 Oct 2017 09:20:31 +0000 on http://singlesday.es
0779.852 (2) UpdraftPlus WordPress backup plugin (https://updraftplus.com): 1.12.40 WP: 4.6.7 PHP: 5.5.9-1ubuntu4.22 (apache2handler, Linux wp-verticales 4.9.50-x86_64-linode86 #1 SMP Thu Sep 14 19:28:20 UTC 2017 x86_64) MySQL: 5.5.57 WPLANG: es_ES Server: Apache safe_mode: 0 max_execution_time: 900 memory_limit: 256M (used: 55.6M | 56.8M) multisite: N openssl: OpenSSL 1.0.1f 6 Jan 2014 mcrypt: Y LANG: C ZipArchive::addFile: Y
0779.854 (2) Free space on disk containing Updraft's temporary directory: 6658.6 MB
0779.857 (2) Backup run: resumption=2, nonce=f90235b047f5, begun at=1509008851 (780s ago), job type=backup
0779.860 (2) Scheduling a resumption (3) after 300 seconds (1509009931) in case this run gets aborted
0779.873 (2) This backup run is not intended for files - skipping
0779.875 (2) Database dump (WordPress DB): Creation was completed already
0779.883 (2) backup_2017-10-26-1107_SinglesDayes_f90235b047f5-db.gz: db: This file has not yet been successfully uploaded: will queue
0779.893 (2) Saving backup history. Total backup size: 597 KB
0779.906 (2) Requesting upload of the files that have not yet been successfully uploaded (1)
0779.920 (2) Cloud backup selection (1/1): ftp (last)
0779.923 (2) Beginning dispatch of backup to remote (ftp)
0780.781 (2) FTP upload attempt: backup_2017-10-26-1107_SinglesDayes_f90235b047f5-db.gz -> ftp://ftp_wp_verticales@ftp.netsales.es//mnt/array1/BU_wp_verticales/backup_2017-10-26-1107_SinglesDayes_f90235b047f5-db.gz
0781.091 (2) Ftp chunked upload: 86.4 % uploaded
0781.208 (2) FTP upload attempt successful (597KB in 0.42s)
0781.212 (2) Recording as successfully uploaded: backup_2017-10-26-1107_SinglesDayes_f90235b047f5-db.gz (5d2a481cf1555e6a3fc3d20a10c176a5)
0781.248 (2) Deleting local file: backup_2017-10-26-1107_SinglesDayes_f90235b047f5-db.gz: OK
0781.254 (2) Retain: beginning examination of existing backup sets; user setting: retain_files=2, retain_db=2
0781.257 (2) Number of backup sets in history: 4; groups (db): 1
0781.267 (2) Examining (for databases) backup set with group_id=0, nonce=f90235b047f5, datestamp=1509008851 (Oct 26 2017 09:07:31)
0781.269 (2) This backup set is the backup set just made, so will not be deleted.
0781.272 (2) Examining (for databases) backup set with group_id=0, nonce=11894180bcb0, datestamp=1509008691 (Oct 26 2017 09:04:51)
0781.274 (2) Examining (for databases) backup set with group_id=0, nonce=feef5137c6c6, datestamp=1508404137 (Oct 19 2017 09:08:57)
0781.275 (2) This backup set remains non-empty (f=0/d=1); will retain in history
0781.277 (2) Examining (for databases) backup set with group_id=0, nonce=aa68e5cfcaae, datestamp=1508403979 (Oct 19 2017 09:06:19)
0781.278 (2) Number of backup sets in history: 4; groups (files): 1
0781.279 (2) Examining (for files) backup set with nonce=f90235b047f5, datestamp=1509008851 (Oct 26 2017 09:07:31)
0781.280 (2) This backup set remains non-empty (f=0/d=1); will retain in history
0781.282 (2) Examining (for files) backup set with nonce=11894180bcb0, datestamp=1509008691 (Oct 26 2017 09:04:51)
0781.284 (2) This backup set remains non-empty (f=1/d=0); will retain in history
0781.286 (2) Examining (for files) backup set with nonce=feef5137c6c6, datestamp=1508404137 (Oct 19 2017 09:08:57)
0781.288 (2) This backup set remains non-empty (f=0/d=1); will retain in history
0781.291 (2) Examining (for files) backup set with nonce=aa68e5cfcaae, datestamp=1508403979 (Oct 19 2017 09:06:19)
0781.294 (2) This backup set remains non-empty (f=1/d=0); will retain in history
0781.308 (2) Retain: saving new backup history (sets now: 4) and finishing retain operation
0781.350 (2) Resume backup (f90235b047f5, 2): finish run
0781.366 (2) There were no errors in the uploads, so the 'resume' event (3) is being unscheduled
0781.372 (2) The backup apparently succeeded and is now complete
0781.383 (2) No email will/can be sent - the user has not configured an email address.
0781.385 (2) El respaldo parece haber tenido éxito y ahora está completado
